%YAML 1.1
%TAG !u! tag:unity3d.com,2011:
--- !u!1 &6264265075949467614
GameObject:
  m_ObjectHideFlags: 0
  m_CorrespondingSourceObject: {fileID: 0}
  m_PrefabInstance: {fileID: 0}
  m_PrefabAsset: {fileID: 0}
  serializedVersion: 6
  m_Component:
  - component: {fileID: 2687837619766374439}
  m_Layer: 0
  m_Name: Crystal1
  m_TagString: Untagged
  m_Icon: {fileID: 0}
  m_NavMeshLayer: 0
  m_StaticEditorFlags: 0
  m_IsActive: 1
--- !u!4 &2687837619766374439
Transform:
  m_ObjectHideFlags: 0
  m_CorrespondingSourceObject: {fileID: 0}
  m_PrefabInstance: {fileID: 0}
  m_PrefabAsset: {fileID: 0}
  m_GameObject: {fileID: 6264265075949467614}
  m_LocalRotation: {x: 0, y: 0, z: 0, w: 1}
  m_LocalPosition: {x: -18.595, y: 6.362, z: 7.216}
  m_LocalScale: {x: 1, y: 1, z: 1}
  m_Children:
  - {fileID: 9196228941475942216}
  m_Father: {fileID: 0}
  m_RootOrder: 0
  m_LocalEulerAnglesHint: {x: 0, y: 0, z: 0}
--- !u!1001 &9196228941475550664
PrefabInstance:
  m_ObjectHideFlags: 0
  serializedVersion: 2
  m_Modification:
    m_TransformParent: {fileID: 2687837619766374439}
    m_Modifications:
    - target: {fileID: 100000, guid: 0de4739ba7b5e82489721537eb2f0b30, type: 3}
      propertyPath: m_Name
      value: Crystal1
      objectReference: {fileID: 0}
    - target: {fileID: 400000, guid: 0de4739ba7b5e82489721537eb2f0b30, type: 3}
      propertyPath: m_LocalPosition.x
      value: 0.007259369
      objectReference: {fileID: 0}
    - target: {fileID: 400000, guid: 0de4739ba7b5e82489721537eb2f0b30, type: 3}
      propertyPath: m_LocalPosition.y
      value: 0.10599995
      objectReference: {fileID: 0}
    - target: {fileID: 400000, guid: 0de4739ba7b5e82489721537eb2f0b30, type: 3}
      propertyPath: m_LocalPosition.z
      value: 0.034999847
      objectReference: {fileID: 0}
    - target: {fileID: 400000, guid: 0de4739ba7b5e82489721537eb2f0b30, type: 3}
      propertyPath: m_LocalRotation.x
      value: -0
      objectReference: {fileID: 0}
    - target: {fileID: 400000, guid: 0de4739ba7b5e82489721537eb2f0b30, type: 3}
      propertyPath: m_LocalRotation.y
      value: -0
      objectReference: {fileID: 0}
    - target: {fileID: 400000, guid: 0de4739ba7b5e82489721537eb2f0b30, type: 3}
      propertyPath: m_LocalRotation.z
      value: -0
      objectReference: {fileID: 0}
    - target: {fileID: 400000, guid: 0de4739ba7b5e82489721537eb2f0b30, type: 3}
      propertyPath: m_LocalRotation.w
      value: 1
      objectReference: {fileID: 0}
    - target: {fileID: 400000, guid: 0de4739ba7b5e82489721537eb2f0b30, type: 3}
      propertyPath: m_RootOrder
      value: 0
      objectReference: {fileID: 0}
    - target: {fileID: 400000, guid: 0de4739ba7b5e82489721537eb2f0b30, type: 3}
      propertyPath: m_LocalEulerAnglesHint.x
      value: 0
      objectReference: {fileID: 0}
    - target: {fileID: 400000, guid: 0de4739ba7b5e82489721537eb2f0b30, type: 3}
      propertyPath: m_LocalEulerAnglesHint.y
      value: 0
      objectReference: {fileID: 0}
    - target: {fileID: 400000, guid: 0de4739ba7b5e82489721537eb2f0b30, type: 3}
      propertyPath: m_LocalEulerAnglesHint.z
      value: 0
      objectReference: {fileID: 0}
    m_RemovedComponents: []
  m_SourcePrefab: {fileID: 100100000, guid: 0de4739ba7b5e82489721537eb2f0b30, type: 3}
--- !u!4 &9196228941475942216 stripped
Transform:
  m_CorrespondingSourceObject: {fileID: 400000, guid: 0de4739ba7b5e82489721537eb2f0b30,
    type: 3}
  m_PrefabInstance: {fileID: 9196228941475550664}
  m_PrefabAsset: {fileID: 0}
