%YAML 1.1
%TAG !u! tag:unity3d.com,2011:
--- !u!1 &1680838981747250999
GameObject:
  m_ObjectHideFlags: 0
  m_CorrespondingSourceObject: {fileID: 0}
  m_PrefabInstance: {fileID: 0}
  m_PrefabAsset: {fileID: 0}
  serializedVersion: 6
  m_Component:
  - component: {fileID: 5419464357710306039}
  m_Layer: 0
  m_Name: Crystal4
  m_TagString: Untagged
  m_Icon: {fileID: 0}
  m_NavMeshLayer: 0
  m_StaticEditorFlags: 0
  m_IsActive: 1
--- !u!4 &5419464357710306039
Transform:
  m_ObjectHideFlags: 0
  m_CorrespondingSourceObject: {fileID: 0}
  m_PrefabInstance: {fileID: 0}
  m_PrefabAsset: {fileID: 0}
  m_GameObject: {fileID: 1680838981747250999}
  m_LocalRotation: {x: 0, y: 0, z: 0, w: 1}
  m_LocalPosition: {x: -19.923, y: 6.39, z: 7.318}
  m_LocalScale: {x: 1, y: 1, z: 1}
  m_Children:
  - {fileID: 3652652081671382448}
  m_Father: {fileID: 0}
  m_RootOrder: 0
  m_LocalEulerAnglesHint: {x: 0, y: 0, z: 0}
--- !u!1001 &3652652081671257904
PrefabInstance:
  m_ObjectHideFlags: 0
  serializedVersion: 2
  m_Modification:
    m_TransformParent: {fileID: 5419464357710306039}
    m_Modifications:
    - target: {fileID: 100000, guid: e52b5c647d3c7664d9dff040d029f1b4, type: 3}
      propertyPath: m_Name
      value: Crystal4
      objectReference: {fileID: 0}
    - target: {fileID: 400000, guid: e52b5c647d3c7664d9dff040d029f1b4, type: 3}
      propertyPath: m_LocalPosition.x
      value: 0.05630493
      objectReference: {fileID: 0}
    - target: {fileID: 400000, guid: e52b5c647d3c7664d9dff040d029f1b4, type: 3}
      propertyPath: m_LocalPosition.y
      value: 0.17823648
      objectReference: {fileID: 0}
    - target: {fileID: 400000, guid: e52b5c647d3c7664d9dff040d029f1b4, type: 3}
      propertyPath: m_LocalPosition.z
      value: 0.08071709
      objectReference: {fileID: 0}
    - target: {fileID: 400000, guid: e52b5c647d3c7664d9dff040d029f1b4, type: 3}
      propertyPath: m_LocalRotation.x
      value: -0
      objectReference: {fileID: 0}
    - target: {fileID: 400000, guid: e52b5c647d3c7664d9dff040d029f1b4, type: 3}
      propertyPath: m_LocalRotation.y
      value: -0
      objectReference: {fileID: 0}
    - target: {fileID: 400000, guid: e52b5c647d3c7664d9dff040d029f1b4, type: 3}
      propertyPath: m_LocalRotation.z
      value: -0
      objectReference: {fileID: 0}
    - target: {fileID: 400000, guid: e52b5c647d3c7664d9dff040d029f1b4, type: 3}
      propertyPath: m_LocalRotation.w
      value: 1
      objectReference: {fileID: 0}
    - target: {fileID: 400000, guid: e52b5c647d3c7664d9dff040d029f1b4, type: 3}
      propertyPath: m_RootOrder
      value: 0
      objectReference: {fileID: 0}
    - target: {fileID: 400000, guid: e52b5c647d3c7664d9dff040d029f1b4, type: 3}
      propertyPath: m_LocalEulerAnglesHint.x
      value: 0
      objectReference: {fileID: 0}
    - target: {fileID: 400000, guid: e52b5c647d3c7664d9dff040d029f1b4, type: 3}
      propertyPath: m_LocalEulerAnglesHint.y
      value: 0
      objectReference: {fileID: 0}
    - target: {fileID: 400000, guid: e52b5c647d3c7664d9dff040d029f1b4, type: 3}
      propertyPath: m_LocalEulerAnglesHint.z
      value: 0
      objectReference: {fileID: 0}
    m_RemovedComponents: []
  m_SourcePrefab: {fileID: 100100000, guid: e52b5c647d3c7664d9dff040d029f1b4, type: 3}
--- !u!4 &3652652081671382448 stripped
Transform:
  m_CorrespondingSourceObject: {fileID: 400000, guid: e52b5c647d3c7664d9dff040d029f1b4,
    type: 3}
  m_PrefabInstance: {fileID: 3652652081671257904}
  m_PrefabAsset: {fileID: 0}
