%YAML 1.1
%TAG !u! tag:unity3d.com,2011:
--- !u!1 &948144559284826082
GameObject:
  m_ObjectHideFlags: 0
  m_CorrespondingSourceObject: {fileID: 0}
  m_PrefabInstance: {fileID: 0}
  m_PrefabAsset: {fileID: 0}
  serializedVersion: 6
  m_Component:
  - component: {fileID: 7977185436489255352}
  m_Layer: 0
  m_Name: crystal5_star
  m_TagString: Untagged
  m_Icon: {fileID: 0}
  m_NavMeshLayer: 0
  m_StaticEditorFlags: 0
  m_IsActive: 1
--- !u!4 &7977185436489255352
Transform:
  m_ObjectHideFlags: 0
  m_CorrespondingSourceObject: {fileID: 0}
  m_PrefabInstance: {fileID: 0}
  m_PrefabAsset: {fileID: 0}
  m_GameObject: {fileID: 948144559284826082}
  m_LocalRotation: {x: 0, y: 0, z: 0, w: 1}
  m_LocalPosition: {x: -16.41, y: 7.933, z: -12.236}
  m_LocalScale: {x: 1, y: 1, z: 1}
  m_Children:
  - {fileID: 6203555966703214209}
  m_Father: {fileID: 0}
  m_RootOrder: 0
  m_LocalEulerAnglesHint: {x: 0, y: 0, z: 0}
--- !u!1001 &6203555966703600641
PrefabInstance:
  m_ObjectHideFlags: 0
  serializedVersion: 2
  m_Modification:
    m_TransformParent: {fileID: 7977185436489255352}
    m_Modifications:
    - target: {fileID: 100000, guid: 2aea2746537f3f54f9d5795eb6da3699, type: 3}
      propertyPath: m_Name
      value: Crystal5
      objectReference: {fileID: 0}
    - target: {fileID: 400000, guid: 2aea2746537f3f54f9d5795eb6da3699, type: 3}
      propertyPath: m_LocalPosition.x
      value: 0.00399971
      objectReference: {fileID: 0}
    - target: {fileID: 400000, guid: 2aea2746537f3f54f9d5795eb6da3699, type: 3}
      propertyPath: m_LocalPosition.y
      value: -0.0009999275
      objectReference: {fileID: 0}
    - target: {fileID: 400000, guid: 2aea2746537f3f54f9d5795eb6da3699, type: 3}
      propertyPath: m_LocalPosition.z
      value: -0.0074720383
      objectReference: {fileID: 0}
    - target: {fileID: 400000, guid: 2aea2746537f3f54f9d5795eb6da3699, type: 3}
      propertyPath: m_LocalRotation.x
      value: -0
      objectReference: {fileID: 0}
    - target: {fileID: 400000, guid: 2aea2746537f3f54f9d5795eb6da3699, type: 3}
      propertyPath: m_LocalRotation.y
      value: -0
      objectReference: {fileID: 0}
    - target: {fileID: 400000, guid: 2aea2746537f3f54f9d5795eb6da3699, type: 3}
      propertyPath: m_LocalRotation.z
      value: -0
      objectReference: {fileID: 0}
    - target: {fileID: 400000, guid: 2aea2746537f3f54f9d5795eb6da3699, type: 3}
      propertyPath: m_LocalRotation.w
      value: 1
      objectReference: {fileID: 0}
    - target: {fileID: 400000, guid: 2aea2746537f3f54f9d5795eb6da3699, type: 3}
      propertyPath: m_RootOrder
      value: 0
      objectReference: {fileID: 0}
    - target: {fileID: 400000, guid: 2aea2746537f3f54f9d5795eb6da3699, type: 3}
      propertyPath: m_LocalEulerAnglesHint.x
      value: 0
      objectReference: {fileID: 0}
    - target: {fileID: 400000, guid: 2aea2746537f3f54f9d5795eb6da3699, type: 3}
      propertyPath: m_LocalEulerAnglesHint.y
      value: 0
      objectReference: {fileID: 0}
    - target: {fileID: 400000, guid: 2aea2746537f3f54f9d5795eb6da3699, type: 3}
      propertyPath: m_LocalEulerAnglesHint.z
      value: 0
      objectReference: {fileID: 0}
    m_RemovedComponents: []
  m_SourcePrefab: {fileID: 100100000, guid: 2aea2746537f3f54f9d5795eb6da3699, type: 3}
--- !u!4 &6203555966703214209 stripped
Transform:
  m_CorrespondingSourceObject: {fileID: 400000, guid: 2aea2746537f3f54f9d5795eb6da3699,
    type: 3}
  m_PrefabInstance: {fileID: 6203555966703600641}
  m_PrefabAsset: {fileID: 0}
