%YAML 1.1
%TAG !u! tag:unity3d.com,2011:
--- !u!1 &4491895197526172886
GameObject:
  m_ObjectHideFlags: 0
  m_CorrespondingSourceObject: {fileID: 0}
  m_PrefabInstance: {fileID: 0}
  m_PrefabAsset: {fileID: 0}
  serializedVersion: 6
  m_Component:
  - component: {fileID: 2834190667732658834}
  m_Layer: 0
  m_Name: cupcake_v2_alt
  m_TagString: Untagged
  m_Icon: {fileID: 0}
  m_NavMeshLayer: 0
  m_StaticEditorFlags: 0
  m_IsActive: 1
--- !u!4 &2834190667732658834
Transform:
  m_ObjectHideFlags: 0
  m_CorrespondingSourceObject: {fileID: 0}
  m_PrefabInstance: {fileID: 0}
  m_PrefabAsset: {fileID: 0}
  m_GameObject: {fileID: 4491895197526172886}
  m_LocalRotation: {x: 0, y: 0, z: 0, w: 1}
  m_LocalPosition: {x: -19.366, y: 7.241, z: 6.34}
  m_LocalScale: {x: 1, y: 1, z: 1}
  m_Children:
  - {fileID: 6553679715568022772}
  m_Father: {fileID: 0}
  m_RootOrder: 0
  m_LocalEulerAnglesHint: {x: 0, y: 0, z: 0}
--- !u!1001 &6553679715567890036
PrefabInstance:
  m_ObjectHideFlags: 0
  serializedVersion: 2
  m_Modification:
    m_TransformParent: {fileID: 2834190667732658834}
    m_Modifications:
    - target: {fileID: 100000, guid: 5518f2feaee0161449836eb3c4714c4f, type: 3}
      propertyPath: m_Name
      value: cupcake_v2_alt
      objectReference: {fileID: 0}
    - target: {fileID: 400000, guid: 5518f2feaee0161449836eb3c4714c4f, type: 3}
      propertyPath: m_LocalPosition.x
      value: 0.021059036
      objectReference: {fileID: 0}
    - target: {fileID: 400000, guid: 5518f2feaee0161449836eb3c4714c4f, type: 3}
      propertyPath: m_LocalPosition.y
      value: 0.559
      objectReference: {fileID: 0}
    - target: {fileID: 400000, guid: 5518f2feaee0161449836eb3c4714c4f, type: 3}
      propertyPath: m_LocalPosition.z
      value: 0.009999752
      objectReference: {fileID: 0}
    - target: {fileID: 400000, guid: 5518f2feaee0161449836eb3c4714c4f, type: 3}
      propertyPath: m_LocalRotation.x
      value: -0
      objectReference: {fileID: 0}
    - target: {fileID: 400000, guid: 5518f2feaee0161449836eb3c4714c4f, type: 3}
      propertyPath: m_LocalRotation.y
      value: -0
      objectReference: {fileID: 0}
    - target: {fileID: 400000, guid: 5518f2feaee0161449836eb3c4714c4f, type: 3}
      propertyPath: m_LocalRotation.z
      value: -0
      objectReference: {fileID: 0}
    - target: {fileID: 400000, guid: 5518f2feaee0161449836eb3c4714c4f, type: 3}
      propertyPath: m_LocalRotation.w
      value: 1
      objectReference: {fileID: 0}
    - target: {fileID: 400000, guid: 5518f2feaee0161449836eb3c4714c4f, type: 3}
      propertyPath: m_RootOrder
      value: 0
      objectReference: {fileID: 0}
    - target: {fileID: 400000, guid: 5518f2feaee0161449836eb3c4714c4f, type: 3}
      propertyPath: m_LocalEulerAnglesHint.x
      value: 0
      objectReference: {fileID: 0}
    - target: {fileID: 400000, guid: 5518f2feaee0161449836eb3c4714c4f, type: 3}
      propertyPath: m_LocalEulerAnglesHint.y
      value: 0
      objectReference: {fileID: 0}
    - target: {fileID: 400000, guid: 5518f2feaee0161449836eb3c4714c4f, type: 3}
      propertyPath: m_LocalEulerAnglesHint.z
      value: 0
      objectReference: {fileID: 0}
    - target: {fileID: 2300000, guid: 5518f2feaee0161449836eb3c4714c4f, type: 3}
      propertyPath: m_Materials.Array.data[0]
      value: 
      objectReference: {fileID: 2100000, guid: 32130566c3ea54d4893a2003edea063e, type: 2}
    - target: {fileID: 2300000, guid: 5518f2feaee0161449836eb3c4714c4f, type: 3}
      propertyPath: m_Materials.Array.data[1]
      value: 
      objectReference: {fileID: 2100000, guid: b3e550f168decd742bcd9d9b5c983a48, type: 2}
    m_RemovedComponents: []
  m_SourcePrefab: {fileID: 100100000, guid: 5518f2feaee0161449836eb3c4714c4f, type: 3}
--- !u!4 &6553679715568022772 stripped
Transform:
  m_CorrespondingSourceObject: {fileID: 400000, guid: 5518f2feaee0161449836eb3c4714c4f,
    type: 3}
  m_PrefabInstance: {fileID: 6553679715567890036}
  m_PrefabAsset: {fileID: 0}
