%YAML 1.1
%TAG !u! tag:unity3d.com,2011:
--- !u!1 &7486612686063102931
GameObject:
  m_ObjectHideFlags: 0
  m_CorrespondingSourceObject: {fileID: 0}
  m_PrefabInstance: {fileID: 0}
  m_PrefabAsset: {fileID: 0}
  serializedVersion: 6
  m_Component:
  - component: {fileID: 3574719343837146746}
  m_Layer: 0
  m_Name: cupcake_v3_alt
  m_TagString: Untagged
  m_Icon: {fileID: 0}
  m_NavMeshLayer: 0
  m_StaticEditorFlags: 0
  m_IsActive: 1
--- !u!4 &3574719343837146746
Transform:
  m_ObjectHideFlags: 0
  m_CorrespondingSourceObject: {fileID: 0}
  m_PrefabInstance: {fileID: 0}
  m_PrefabAsset: {fileID: 0}
  m_GameObject: {fileID: 7486612686063102931}
  m_LocalRotation: {x: 0, y: 0, z: 0, w: 1}
  m_LocalPosition: {x: -20.235, y: 7.309, z: 6.34}
  m_LocalScale: {x: 1, y: 1, z: 1}
  m_Children:
  - {fileID: 1031165026738756940}
  m_Father: {fileID: 0}
  m_RootOrder: 0
  m_LocalEulerAnglesHint: {x: 0, y: 0, z: 0}
--- !u!1001 &1031165026739144652
PrefabInstance:
  m_ObjectHideFlags: 0
  serializedVersion: 2
  m_Modification:
    m_TransformParent: {fileID: 3574719343837146746}
    m_Modifications:
    - target: {fileID: 100000, guid: 0a80a8569d684ad4a8d03df6fe1e08a1, type: 3}
      propertyPath: m_Name
      value: cupcake_v3_alt
      objectReference: {fileID: 0}
    - target: {fileID: 400000, guid: 0a80a8569d684ad4a8d03df6fe1e08a1, type: 3}
      propertyPath: m_LocalPosition.x
      value: 0.02252388
      objectReference: {fileID: 0}
    - target: {fileID: 400000, guid: 0a80a8569d684ad4a8d03df6fe1e08a1, type: 3}
      propertyPath: m_LocalPosition.y
      value: 0.60099983
      objectReference: {fileID: 0}
    - target: {fileID: 400000, guid: 0a80a8569d684ad4a8d03df6fe1e08a1, type: 3}
      propertyPath: m_LocalPosition.z
      value: 0.15999985
      objectReference: {fileID: 0}
    - target: {fileID: 400000, guid: 0a80a8569d684ad4a8d03df6fe1e08a1, type: 3}
      propertyPath: m_LocalRotation.x
      value: -0
      objectReference: {fileID: 0}
    - target: {fileID: 400000, guid: 0a80a8569d684ad4a8d03df6fe1e08a1, type: 3}
      propertyPath: m_LocalRotation.y
      value: -0
      objectReference: {fileID: 0}
    - target: {fileID: 400000, guid: 0a80a8569d684ad4a8d03df6fe1e08a1, type: 3}
      propertyPath: m_LocalRotation.z
      value: -0
      objectReference: {fileID: 0}
    - target: {fileID: 400000, guid: 0a80a8569d684ad4a8d03df6fe1e08a1, type: 3}
      propertyPath: m_LocalRotation.w
      value: 1
      objectReference: {fileID: 0}
    - target: {fileID: 400000, guid: 0a80a8569d684ad4a8d03df6fe1e08a1, type: 3}
      propertyPath: m_RootOrder
      value: 0
      objectReference: {fileID: 0}
    - target: {fileID: 400000, guid: 0a80a8569d684ad4a8d03df6fe1e08a1, type: 3}
      propertyPath: m_LocalEulerAnglesHint.x
      value: 0
      objectReference: {fileID: 0}
    - target: {fileID: 400000, guid: 0a80a8569d684ad4a8d03df6fe1e08a1, type: 3}
      propertyPath: m_LocalEulerAnglesHint.y
      value: 0
      objectReference: {fileID: 0}
    - target: {fileID: 400000, guid: 0a80a8569d684ad4a8d03df6fe1e08a1, type: 3}
      propertyPath: m_LocalEulerAnglesHint.z
      value: 0
      objectReference: {fileID: 0}
    - target: {fileID: 2300000, guid: 0a80a8569d684ad4a8d03df6fe1e08a1, type: 3}
      propertyPath: m_Materials.Array.data[0]
      value: 
      objectReference: {fileID: 2100000, guid: 32130566c3ea54d4893a2003edea063e, type: 2}
    - target: {fileID: 2300000, guid: 0a80a8569d684ad4a8d03df6fe1e08a1, type: 3}
      propertyPath: m_Materials.Array.data[1]
      value: 
      objectReference: {fileID: 2100000, guid: b3e550f168decd742bcd9d9b5c983a48, type: 2}
    m_RemovedComponents: []
  m_SourcePrefab: {fileID: 100100000, guid: 0a80a8569d684ad4a8d03df6fe1e08a1, type: 3}
--- !u!4 &1031165026738756940 stripped
Transform:
  m_CorrespondingSourceObject: {fileID: 400000, guid: 0a80a8569d684ad4a8d03df6fe1e08a1,
    type: 3}
  m_PrefabInstance: {fileID: 1031165026739144652}
  m_PrefabAsset: {fileID: 0}
