%YAML 1.1
%TAG !u! tag:unity3d.com,2011:
--- !u!1 &5892441156867279637
GameObject:
  m_ObjectHideFlags: 0
  m_CorrespondingSourceObject: {fileID: 0}
  m_PrefabInstance: {fileID: 0}
  m_PrefabAsset: {fileID: 0}
  serializedVersion: 6
  m_Component:
  - component: {fileID: 6235176722552142078}
  m_Layer: 0
  m_Name: flower_emissive
  m_TagString: Untagged
  m_Icon: {fileID: 0}
  m_NavMeshLayer: 0
  m_StaticEditorFlags: 0
  m_IsActive: 1
--- !u!4 &6235176722552142078
Transform:
  m_ObjectHideFlags: 0
  m_CorrespondingSourceObject: {fileID: 0}
  m_PrefabInstance: {fileID: 0}
  m_PrefabAsset: {fileID: 0}
  m_GameObject: {fileID: 5892441156867279637}
  m_LocalRotation: {x: 0, y: 0, z: 0, w: 1}
  m_LocalPosition: {x: -15.1941, y: 7.9679, z: -12.069}
  m_LocalScale: {x: 1, y: 1, z: 1}
  m_Children:
  - {fileID: 1215700193297592120}
  m_Father: {fileID: 0}
  m_RootOrder: 0
  m_LocalEulerAnglesHint: {x: 0, y: 0, z: 0}
--- !u!1001 &1215700193297987002
PrefabInstance:
  m_ObjectHideFlags: 0
  serializedVersion: 2
  m_Modification:
    m_TransformParent: {fileID: 6235176722552142078}
    m_Modifications:
    - target: {fileID: 100002, guid: 829c8b6407a834d48ae30fd055c11381, type: 3}
      propertyPath: m_Name
      value: flower_v1
      objectReference: {fileID: 0}
    - target: {fileID: 400002, guid: 829c8b6407a834d48ae30fd055c11381, type: 3}
      propertyPath: m_LocalPosition.x
      value: 0.0041007996
      objectReference: {fileID: 0}
    - target: {fileID: 400002, guid: 829c8b6407a834d48ae30fd055c11381, type: 3}
      propertyPath: m_LocalPosition.y
      value: -0.0048999786
      objectReference: {fileID: 0}
    - target: {fileID: 400002, guid: 829c8b6407a834d48ae30fd055c11381, type: 3}
      propertyPath: m_LocalPosition.z
      value: -0.01099968
      objectReference: {fileID: 0}
    - target: {fileID: 400002, guid: 829c8b6407a834d48ae30fd055c11381, type: 3}
      propertyPath: m_LocalRotation.x
      value: -0
      objectReference: {fileID: 0}
    - target: {fileID: 400002, guid: 829c8b6407a834d48ae30fd055c11381, type: 3}
      propertyPath: m_LocalRotation.y
      value: -0
      objectReference: {fileID: 0}
    - target: {fileID: 400002, guid: 829c8b6407a834d48ae30fd055c11381, type: 3}
      propertyPath: m_LocalRotation.z
      value: -0
      objectReference: {fileID: 0}
    - target: {fileID: 400002, guid: 829c8b6407a834d48ae30fd055c11381, type: 3}
      propertyPath: m_LocalRotation.w
      value: 1
      objectReference: {fileID: 0}
    - target: {fileID: 400002, guid: 829c8b6407a834d48ae30fd055c11381, type: 3}
      propertyPath: m_RootOrder
      value: 0
      objectReference: {fileID: 0}
    - target: {fileID: 400002, guid: 829c8b6407a834d48ae30fd055c11381, type: 3}
      propertyPath: m_LocalEulerAnglesHint.x
      value: 0
      objectReference: {fileID: 0}
    - target: {fileID: 400002, guid: 829c8b6407a834d48ae30fd055c11381, type: 3}
      propertyPath: m_LocalEulerAnglesHint.y
      value: 0
      objectReference: {fileID: 0}
    - target: {fileID: 400002, guid: 829c8b6407a834d48ae30fd055c11381, type: 3}
      propertyPath: m_LocalEulerAnglesHint.z
      value: 0
      objectReference: {fileID: 0}
    - target: {fileID: 2300000, guid: 829c8b6407a834d48ae30fd055c11381, type: 3}
      propertyPath: m_Materials.Array.data[0]
      value: 
      objectReference: {fileID: 2100000, guid: 5e199256826e82c47ad8cc51a41a2cac, type: 2}
    m_RemovedComponents: []
  m_SourcePrefab: {fileID: 100100000, guid: 829c8b6407a834d48ae30fd055c11381, type: 3}
--- !u!4 &1215700193297592120 stripped
Transform:
  m_CorrespondingSourceObject: {fileID: 400002, guid: 829c8b6407a834d48ae30fd055c11381,
    type: 3}
  m_PrefabInstance: {fileID: 1215700193297987002}
  m_PrefabAsset: {fileID: 0}
