%YAML 1.1
%TAG !u! tag:unity3d.com,2011:
--- !u!74 &7400000
AnimationClip:
  m_ObjectHideFlags: 0
  m_CorrespondingSourceObject: {fileID: 0}
  m_PrefabInstance: {fileID: 0}
  m_PrefabAsset: {fileID: 0}
  m_Name: tent_action
  serializedVersion: 6
  m_Legacy: 0
  m_Compressed: 0
  m_UseHighQualityCurve: 1
  m_RotationCurves:
  - curve:
      serializedVersion: 2
      m_Curve:
      - serializedVersion: 3
        time: 0
        value: {x: 2.5872958e-38, y: -3.0869742e-19, z: 8.3813326e-20, w: 1}
        inSlope: {x: 0.0000006894212, y: -0.0075559844, z: 0.0021898015, w: -0.0000014305115}
        outSlope: {x: 0.0000006894212, y: -0.0075559844, z: 0.0021898015, w: -0.0000014305115}
        tangentMode: 0
        weightedMode: 0
        inWeight: {x: 0.33333334, y: 0.33333334, z: 0.33333334, w: 0.33333334}
        outWeight: {x: 0.33333334, y: 0.33333334, z: 0.33333334, w: 0.33333334}
      - serializedVersion: 3
        time: 0.5
        value: {x: 0.00015581059, y: -0.01599947, z: 0.009736776, w: 0.9998246}
        inSlope: {x: 0.000041204883, y: 0.040900804, z: 0.031482548, w: 0.0002646445}
        outSlope: {x: 0.000041204883, y: 0.040900804, z: 0.031482548, w: 0.0002646445}
        tangentMode: 0
        weightedMode: 0
        inWeight: {x: 0.33333334, y: 0.33333334, z: 0.33333334, w: 0.33333334}
        outWeight: {x: 0.33333334, y: 0.33333334, z: 0.33333334, w: 0.33333334}
      - serializedVersion: 3
        time: 0.7916667
        value: {x: -0.0005976092, y: 0.031469304, z: 0.018977394, w: 0.9993244}
        inSlope: {x: 0.0014078445, y: -0.119525045, z: 0.029365748, w: 0.0029447095}
        outSlope: {x: 0.0014078445, y: -0.119525045, z: 0.029365748, w: 0.0029447095}
        tangentMode: 0
        weightedMode: 0
        inWeight: {x: 0.33333334, y: 0.33333334, z: 0.33333334, w: 0.33333334}
        outWeight: {x: 0.33333334, y: 0.33333334, z: 0.33333334, w: 0.33333334}
      - serializedVersion: 3
        time: 1.0833334
        value: {x: 0.0003431404, y: -0.013507939, z: 0.025392357, w: 0.9995862}
        inSlope: {x: -0.0025670289, y: 0.106823675, z: 0.012031738, w: 0.00092911616}
        outSlope: {x: -0.0025670289, y: 0.106823675, z: 0.012031738, w: 0.00092911616}
        tangentMode: 0
        weightedMode: 0
        inWeight: {x: 0.33333334, y: 0.33333334, z: 0.33333334, w: 0.33333334}
        outWeight: {x: 0.33333334, y: 0.33333334, z: 0.33333334, w: 0.33333334}
      - serializedVersion: 3
        time: 1.3750001
        value: {x: -0.0007172124, y: 0.02878875, z: 0.024894884, w: 0.9992752}
        inSlope: {x: 0.00054994633, y: -0.005415828, z: -0.014460298, w: 0.000514984}
        outSlope: {x: 0.00054994633, y: -0.005415828, z: -0.014460298, w: 0.000514984}
        tangentMode: 0
        weightedMode: 0
        inWeight: {x: 0.33333334, y: 0.33333334, z: 0.33333334, w: 0.33333334}
        outWeight: {x: 0.33333334, y: 0.33333334, z: 0.33333334, w: 0.33333334}
      - serializedVersion: 3
        time: 2.625
        value: {x: 0, y: -0, z: -0, w: 1}
        inSlope: {x: 0, y: 0, z: 0, w: 0}
        outSlope: {x: 0, y: 0, z: 0, w: 0}
        tangentMode: 0
        weightedMode: 0
        inWeight: {x: 0.33333334, y: 0.33333334, z: 0.33333334, w: 0.33333334}
        outWeight: {x: 0.33333334, y: 0.33333334, z: 0.33333334, w: 0.33333334}
      - serializedVersion: 3
        time: 3.2916667
        value: {x: 0.000080993836, y: -0.013500121, z: 0.0059988345, w: 0.99989086}
        inSlope: {x: 0.0005848577, y: -0.035551473, z: 0.02776597, w: -0.000641585}
        outSlope: {x: 0.0005848577, y: -0.035551473, z: 0.02776597, w: -0.000641585}
        tangentMode: 0
        weightedMode: 0
        inWeight: {x: 0.33333334, y: 0.33333334, z: 0.33333334, w: 0.33333334}
        outWeight: {x: 0.33333334, y: 0.33333334, z: 0.33333334, w: 0.33333334}
      - serializedVersion: 3
        time: 3.5416667
        value: {x: -0.00012571078, y: 0.009130885, z: 0.013765765, w: 0.99986356}
        inSlope: {x: -0.0042927563, y: 0.29037178, z: 0.032365743, w: -0.0030977805}
        outSlope: {x: -0.0042927563, y: 0.29037178, z: 0.032365743, w: -0.0030977805}
        tangentMode: 0
        weightedMode: 0
        inWeight: {x: 0.33333334, y: 0.33333334, z: 0.33333334, w: 0.33333334}
        outWeight: {x: 0.33333334, y: 0.33333334, z: 0.33333334, w: 0.33333334}
      - serializedVersion: 3
        time: 3.75
        value: {x: -0.00049029285, y: 0.024292046, z: 0.0201732, w: 0.9995012}
        inSlope: {x: 0.0034700432, y: -0.20390797, z: 0.02785232, w: 0.004127018}
        outSlope: {x: 0.0034700432, y: -0.20390797, z: 0.02785232, w: 0.004127018}
        tangentMode: 0
        weightedMode: 0
        inWeight: {x: 0.33333334, y: 0.33333334, z: 0.33333334, w: 0.33333334}
        outWeight: {x: 0.33333334, y: 0.33333334, z: 0.33333334, w: 0.33333334}
      - serializedVersion: 3
        time: 4.0000005
        value: {x: 0.0003431396, y: -0.0135079045, z: 0.025392365, w: 0.9995862}
        inSlope: {x: -0.002567039, y: 0.10682404, z: 0.012031708, w: 0.00092911767}
        outSlope: {x: -0.002567039, y: 0.10682404, z: 0.012031708, w: 0.00092911767}
        tangentMode: 0
        weightedMode: 0
        inWeight: {x: 0.33333334, y: 0.33333334, z: 0.33333334, w: 0.33333334}
        outWeight: {x: 0.33333334, y: 0.33333334, z: 0.33333334, w: 0.33333334}
      - serializedVersion: 3
        time: 4.291667
        value: {x: -0.0007172124, y: 0.02878875, z: 0.024894884, w: 0.9992752}
        inSlope: {x: 0.00054994645, y: -0.0054158475, z: -0.014460269, w: 0.0005149861}
        outSlope: {x: 0.00054994645, y: -0.0054158475, z: -0.014460269, w: 0.0005149861}
        tangentMode: 0
        weightedMode: 0
        inWeight: {x: 0.33333334, y: 0.33333334, z: 0.33333334, w: 0.33333334}
        outWeight: {x: 0.33333334, y: 0.33333334, z: 0.33333334, w: 0.33333334}
      - serializedVersion: 3
        time: 5.3750005
        value: {x: 0, y: -0, z: -0, w: 1}
        inSlope: {x: 0.0000002376815, y: -0.0027855318, z: -0.0020478358, w: 0}
        outSlope: {x: 0.0000002376815, y: -0.0027855318, z: -0.0020478358, w: 0}
        tangentMode: 0
        weightedMode: 0
        inWeight: {x: 0.33333334, y: 0.33333334, z: 0.33333334, w: 0.33333334}
        outWeight: {x: 0.33333334, y: 0.33333334, z: 0.33333334, w: 0.33333334}
      m_PreInfinity: 2
      m_PostInfinity: 2
      m_RotationOrder: 4
    path: left_ctrl
  - curve:
      serializedVersion: 2
      m_Curve:
      - serializedVersion: 3
        time: 0
        value: {x: -2.5872958e-38, y: -3.0869742e-19, z: -8.3813326e-20, w: 1}
        inSlope: {x: -0.0000006894212, y: -0.0075559844, z: -0.0021898015, w: -0.0000014305115}
        outSlope: {x: -0.0000006894212, y: -0.0075559844, z: -0.0021898015, w: -0.0000014305115}
        tangentMode: 0
        weightedMode: 0
        inWeight: {x: 0.33333334, y: 0.33333334, z: 0.33333334, w: 0.33333334}
        outWeight: {x: 0.33333334, y: 0.33333334, z: 0.33333334, w: 0.33333334}
      - serializedVersion: 3
        time: 0.5
        value: {x: -0.00015581059, y: -0.01599947, z: -0.009736776, w: 0.9998246}
        inSlope: {x: -0.000041204883, y: 0.040900804, z: -0.031482548, w: 0.0002646445}
        outSlope: {x: -0.000041204883, y: 0.040900804, z: -0.031482548, w: 0.0002646445}
        tangentMode: 0
        weightedMode: 0
        inWeight: {x: 0.33333334, y: 0.33333334, z: 0.33333334, w: 0.33333334}
        outWeight: {x: 0.33333334, y: 0.33333334, z: 0.33333334, w: 0.33333334}
      - serializedVersion: 3
        time: 0.7916667
        value: {x: 0.0005976092, y: 0.031469304, z: -0.018977394, w: 0.9993244}
        inSlope: {x: -0.0014078445, y: -0.119525045, z: -0.029365748, w: 0.0029447095}
        outSlope: {x: -0.0014078445, y: -0.119525045, z: -0.029365748, w: 0.0029447095}
        tangentMode: 0
        weightedMode: 0
        inWeight: {x: 0.33333334, y: 0.33333334, z: 0.33333334, w: 0.33333334}
        outWeight: {x: 0.33333334, y: 0.33333334, z: 0.33333334, w: 0.33333334}
      - serializedVersion: 3
        time: 1.0833334
        value: {x: -0.0003431404, y: -0.013507939, z: -0.025392357, w: 0.9995862}
        inSlope: {x: 0.0025670289, y: 0.106823675, z: -0.012031738, w: 0.00092911616}
        outSlope: {x: 0.0025670289, y: 0.106823675, z: -0.012031738, w: 0.00092911616}
        tangentMode: 0
        weightedMode: 0
        inWeight: {x: 0.33333334, y: 0.33333334, z: 0.33333334, w: 0.33333334}
        outWeight: {x: 0.33333334, y: 0.33333334, z: 0.33333334, w: 0.33333334}
      - serializedVersion: 3
        time: 1.3750001
        value: {x: 0.0007172124, y: 0.02878875, z: -0.024894884, w: 0.9992752}
        inSlope: {x: -0.00054994633, y: -0.005415828, z: 0.014460298, w: 0.000514984}
        outSlope: {x: -0.00054994633, y: -0.005415828, z: 0.014460298, w: 0.000514984}
        tangentMode: 0
        weightedMode: 0
        inWeight: {x: 0.33333334, y: 0.33333334, z: 0.33333334, w: 0.33333334}
        outWeight: {x: 0.33333334, y: 0.33333334, z: 0.33333334, w: 0.33333334}
      - serializedVersion: 3
        time: 2.625
        value: {x: 0, y: -0, z: -0, w: 1}
        inSlope: {x: 0, y: 0, z: 0, w: 0}
        outSlope: {x: 0, y: 0, z: 0, w: 0}
        tangentMode: 0
        weightedMode: 0
        inWeight: {x: 0.33333334, y: 0.33333334, z: 0.33333334, w: 0.33333334}
        outWeight: {x: 0.33333334, y: 0.33333334, z: 0.33333334, w: 0.33333334}
      - serializedVersion: 3
        time: 3.2916667
        value: {x: -0.000080993836, y: -0.013500121, z: -0.0059988345, w: 0.99989086}
        inSlope: {x: -0.0005848577, y: -0.035551473, z: -0.02776597, w: -0.000641585}
        outSlope: {x: -0.0005848577, y: -0.035551473, z: -0.02776597, w: -0.000641585}
        tangentMode: 0
        weightedMode: 0
        inWeight: {x: 0.33333334, y: 0.33333334, z: 0.33333334, w: 0.33333334}
        outWeight: {x: 0.33333334, y: 0.33333334, z: 0.33333334, w: 0.33333334}
      - serializedVersion: 3
        time: 3.5416667
        value: {x: 0.00012571078, y: 0.009130885, z: -0.013765765, w: 0.99986356}
        inSlope: {x: 0.0042927563, y: 0.29037178, z: -0.032365743, w: -0.0030977805}
        outSlope: {x: 0.0042927563, y: 0.29037178, z: -0.032365743, w: -0.0030977805}
        tangentMode: 0
        weightedMode: 0
        inWeight: {x: 0.33333334, y: 0.33333334, z: 0.33333334, w: 0.33333334}
        outWeight: {x: 0.33333334, y: 0.33333334, z: 0.33333334, w: 0.33333334}
      - serializedVersion: 3
        time: 3.75
        value: {x: 0.00049029285, y: 0.024292046, z: -0.0201732, w: 0.9995012}
        inSlope: {x: -0.0034700432, y: -0.20390797, z: -0.02785232, w: 0.004127018}
        outSlope: {x: -0.0034700432, y: -0.20390797, z: -0.02785232, w: 0.004127018}
        tangentMode: 0
        weightedMode: 0
        inWeight: {x: 0.33333334, y: 0.33333334, z: 0.33333334, w: 0.33333334}
        outWeight: {x: 0.33333334, y: 0.33333334, z: 0.33333334, w: 0.33333334}
      - serializedVersion: 3
        time: 4.0000005
        value: {x: -0.0003431396, y: -0.0135079045, z: -0.025392365, w: 0.9995862}
        inSlope: {x: 0.002567039, y: 0.10682404, z: -0.012031708, w: 0.00092911767}
        outSlope: {x: 0.002567039, y: 0.10682404, z: -0.012031708, w: 0.00092911767}
        tangentMode: 0
        weightedMode: 0
        inWeight: {x: 0.33333334, y: 0.33333334, z: 0.33333334, w: 0.33333334}
        outWeight: {x: 0.33333334, y: 0.33333334, z: 0.33333334, w: 0.33333334}
      - serializedVersion: 3
        time: 4.291667
        value: {x: 0.0007172124, y: 0.02878875, z: -0.024894884, w: 0.9992752}
        inSlope: {x: -0.00054994645, y: -0.0054158475, z: 0.014460269, w: 0.0005149861}
        outSlope: {x: -0.00054994645, y: -0.0054158475, z: 0.014460269, w: 0.0005149861}
        tangentMode: 0
        weightedMode: 0
        inWeight: {x: 0.33333334, y: 0.33333334, z: 0.33333334, w: 0.33333334}
        outWeight: {x: 0.33333334, y: 0.33333334, z: 0.33333334, w: 0.33333334}
      - serializedVersion: 3
        time: 5.3750005
        value: {x: 0, y: -0, z: -0, w: 1}
        inSlope: {x: -0.0000002376815, y: -0.0027855318, z: 0.0020478358, w: 0}
        outSlope: {x: -0.0000002376815, y: -0.0027855318, z: 0.0020478358, w: 0}
        tangentMode: 0
        weightedMode: 0
        inWeight: {x: 0.33333334, y: 0.33333334, z: 0.33333334, w: 0.33333334}
        outWeight: {x: 0.33333334, y: 0.33333334, z: 0.33333334, w: 0.33333334}
      m_PreInfinity: 2
      m_PostInfinity: 2
      m_RotationOrder: 4
    path: right_ctrl
  - curve:
      serializedVersion: 2
      m_Curve:
      - serializedVersion: 3
        time: 0
        value: {x: -0.3064864, y: 0.9518751, z: -5.1809026e-12, w: 1.6680916e-12}
        inSlope: {x: -0.0020849705, y: -0.0006737709, z: -0.00231672, w: 0.0071925083}
        outSlope: {x: -0.0020849705, y: -0.0006737709, z: -0.00231672, w: 0.0071925083}
        tangentMode: 0
        weightedMode: 0
        inWeight: {x: 0.33333334, y: 0.33333334, z: 0.33333334, w: 0.33333334}
        outWeight: {x: 0.33333334, y: 0.33333334, z: 0.33333334, w: 0.33333334}
      - serializedVersion: 3
        time: 0.5
        value: {x: -0.31570086, y: 0.9487239, z: -0.0047553387, w: 0.015277257}
        inSlope: {x: -0.030048236, y: -0.009395595, z: 0.01257424, w: -0.038919717}
        outSlope: {x: -0.030048236, y: -0.009395595, z: 0.01257424, w: -0.038919717}
        tangentMode: 0
        weightedMode: 0
        inWeight: {x: 0.33333334, y: 0.33333334, z: 0.33333334, w: 0.33333334}
        outWeight: {x: 0.33333334, y: 0.33333334, z: 0.33333334, w: 0.33333334}
      - serializedVersion: 3
        time: 0.7916667
        value: {x: -0.32434353, y: 0.94541556, z: 0.009076108, w: -0.03013807}
        inSlope: {x: -0.028854854, y: -0.006196976, z: -0.035292067, w: 0.11420457}
        outSlope: {x: -0.028854854, y: -0.006196976, z: -0.035292067, w: 0.11420457}
        tangentMode: 0
        weightedMode: 0
        inWeight: {x: 0.33333334, y: 0.33333334, z: 0.33333334, w: 0.33333334}
        outWeight: {x: 0.33333334, y: 0.33333334, z: 0.33333334, w: 0.33333334}
      - serializedVersion: 3
        time: 1.0833334
        value: {x: -0.33053002, y: 0.94369876, z: -0.003813403, w: 0.01296309}
        inSlope: {x: -0.011738058, y: -0.002802372, z: 0.030296601, w: -0.10246868}
        outSlope: {x: -0.011738058, y: -0.002802372, z: 0.030296601, w: -0.10246868}
        tangentMode: 0
        weightedMode: 0
        inWeight: {x: 0.33333334, y: 0.33333334, z: 0.33333334, w: 0.33333334}
        outWeight: {x: 0.33333334, y: 0.33333334, z: 0.33333334, w: 0.33333334}
      - serializedVersion: 3
        time: 1.3750001
        value: {x: -0.3299611, y: 0.9435552, z: 0.008140737, w: -0.027623063}
        inSlope: {x: 0.013606305, y: 0.004922388, z: -0.0011364077, w: 0.0053232694}
        outSlope: {x: 0.013606305, y: 0.004922388, z: -0.0011364077, w: 0.0053232694}
        tangentMode: 0
        weightedMode: 0
        inWeight: {x: 0.33333334, y: 0.33333334, z: 0.33333334, w: 0.33333334}
        outWeight: {x: 0.33333334, y: 0.33333334, z: 0.33333334, w: 0.33333334}
      - serializedVersion: 3
        time: 2.625
        value: {x: -0.3064864, y: 0.9518751, z: -7.705242e-17, w: -3.9518663e-17}
        inSlope: {x: 0, y: 0, z: 0, w: 0}
        outSlope: {x: 0, y: 0, z: 0, w: 0}
        tangentMode: 0
        weightedMode: 0
        inWeight: {x: 0.33333334, y: 0.33333334, z: 0.33333334, w: 0.33333334}
        outWeight: {x: 0.33333334, y: 0.33333334, z: 0.33333334, w: 0.33333334}
      - serializedVersion: 3
        time: 3.2916667
        value: {x: -0.31216314, y: 0.94993263, z: -0.004060466, w: 0.012875248}
        inSlope: {x: -0.02623346, y: -0.0091209505, z: -0.010339301, w: 0.03401991}
        outSlope: {x: -0.02623346, y: -0.0091209505, z: -0.010339301, w: 0.03401991}
        tangentMode: 0
        weightedMode: 0
        inWeight: {x: 0.33333334, y: 0.33333334, z: 0.33333334, w: 0.33333334}
        outWeight: {x: 0.33333334, y: 0.33333334, z: 0.33333334, w: 0.33333334}
      - serializedVersion: 3
        time: 3.5416667
        value: {x: -0.31954795, y: 0.94752616, z: 0.002678858, w: -0.008729951}
        inSlope: {x: -0.029858734, y: -0.012868183, z: 0.08490816, w: -0.2777145}
        outSlope: {x: -0.029858734, y: -0.012868183, z: 0.08490816, w: -0.2777145}
        tangentMode: 0
        weightedMode: 0
        inWeight: {x: 0.33333334, y: 0.33333334, z: 0.33333334, w: 0.33333334}
        outWeight: {x: 0.33333334, y: 0.33333334, z: 0.33333334, w: 0.33333334}
      - serializedVersion: 3
        time: 3.75
        value: {x: -0.32553592, y: 0.94521743, z: 0.0069785328, w: -0.023273237}
        inSlope: {x: -0.027775832, y: -0.004607669, z: -0.05919212, w: 0.19515893}
        outSlope: {x: -0.027775832, y: -0.004607669, z: -0.05919212, w: 0.19515893}
        tangentMode: 0
        weightedMode: 0
        inWeight: {x: 0.33333334, y: 0.33333334, z: 0.33333334, w: 0.33333334}
        outWeight: {x: 0.33333334, y: 0.33333334, z: 0.33333334, w: 0.33333334}
      - serializedVersion: 3
        time: 4.0000005
        value: {x: -0.33053002, y: 0.94369876, z: -0.0038133839, w: 0.012963084}
        inSlope: {x: -0.01173803, y: -0.0028023613, z: 0.03029675, w: -0.102468885}
        outSlope: {x: -0.01173803, y: -0.0028023613, z: 0.03029675, w: -0.102468885}
        tangentMode: 0
        weightedMode: 0
        inWeight: {x: 0.33333334, y: 0.33333334, z: 0.33333334, w: 0.33333334}
        outWeight: {x: 0.33333334, y: 0.33333334, z: 0.33333334, w: 0.33333334}
      - serializedVersion: 3
        time: 4.291667
        value: {x: -0.3299611, y: 0.9435552, z: 0.008140737, w: -0.027623063}
        inSlope: {x: 0.013606362, y: 0.0049224086, z: -0.0011364787, w: 0.0053233113}
        outSlope: {x: 0.013606362, y: 0.0049224086, z: -0.0011364787, w: 0.0053233113}
        tangentMode: 0
        weightedMode: 0
        inWeight: {x: 0.33333334, y: 0.33333334, z: 0.33333334, w: 0.33333334}
        outWeight: {x: 0.33333334, y: 0.33333334, z: 0.33333334, w: 0.33333334}
      - serializedVersion: 3
        time: 5.3750005
        value: {x: -0.3064864, y: 0.9518751, z: -7.705242e-17, w: -3.9518663e-17}
        inSlope: {x: 0.001949057, y: 0.0006294203, z: -0.00085468026, w: 0.0026523345}
        outSlope: {x: 0.001949057, y: 0.0006294203, z: -0.00085468026, w: 0.0026523345}
        tangentMode: 0
        weightedMode: 0
        inWeight: {x: 0.33333334, y: 0.33333334, z: 0.33333334, w: 0.33333334}
        outWeight: {x: 0.33333334, y: 0.33333334, z: 0.33333334, w: 0.33333334}
      m_PreInfinity: 2
      m_PostInfinity: 2
      m_RotationOrder: 4
    path: main_joint/left_joint
  - curve:
      serializedVersion: 2
      m_Curve:
      - serializedVersion: 3
        time: 0
        value: {x: 2.8580211e-12, y: -8.876342e-12, z: -0.30648646, w: 0.95187503}
        inSlope: {x: 0.0023151503, y: -0.007192566, z: -0.00208354, w: -0.0006723404}
        outSlope: {x: 0.0023151503, y: -0.007192566, z: -0.00208354, w: -0.0006723404}
        tangentMode: 0
        weightedMode: 0
        inWeight: {x: 0.33333334, y: 0.33333334, z: 0.33333334, w: 0.33333334}
        outWeight: {x: 0.33333334, y: 0.33333334, z: 0.33333334, w: 0.33333334}
      - serializedVersion: 3
        time: 0.5
        value: {x: 0.004755308, y: -0.01527725, z: -0.31570086, w: 0.94872385}
        inSlope: {x: -0.012574737, y: 0.03891983, z: -0.030048594, w: -0.009397025}
        outSlope: {x: -0.012574737, y: 0.03891983, z: -0.030048594, w: -0.009397025}
        tangentMode: 0
        weightedMode: 0
        inWeight: {x: 0.33333334, y: 0.33333334, z: 0.33333334, w: 0.33333334}
        outWeight: {x: 0.33333334, y: 0.33333334, z: 0.33333334, w: 0.33333334}
      - serializedVersion: 3
        time: 0.7916667
        value: {x: -0.00907607, y: 0.030138006, z: -0.32434347, w: 0.9454156}
        inSlope: {x: 0.035292726, y: -0.11420439, z: -0.028855212, w: -0.006196976}
        outSlope: {x: 0.035292726, y: -0.11420439, z: -0.028855212, w: -0.006196976}
        tangentMode: 0
        weightedMode: 0
        inWeight: {x: 0.33333334, y: 0.33333334, z: 0.33333334, w: 0.33333334}
        outWeight: {x: 0.33333334, y: 0.33333334, z: 0.33333334, w: 0.33333334}
      - serializedVersion: 3
        time: 1.0833334
        value: {x: 0.0038133734, y: -0.012963037, z: -0.33053, w: 0.94369876}
        inSlope: {x: -0.030296497, y: 0.10246953, z: -0.011738058, w: -0.0028016567}
        outSlope: {x: -0.030296497, y: 0.10246953, z: -0.011738058, w: -0.0028016567}
        tangentMode: 0
        weightedMode: 0
        inWeight: {x: 0.33333334, y: 0.33333334, z: 0.33333334, w: 0.33333334}
        outWeight: {x: 0.33333334, y: 0.33333334, z: 0.33333334, w: 0.33333334}
      - serializedVersion: 3
        time: 1.3750001
        value: {x: -0.008140665, y: 0.027623108, z: -0.32996112, w: 0.9435552}
        inSlope: {x: 0.0011363854, y: -0.005323739, z: 0.013606305, w: 0.004922388}
        outSlope: {x: 0.0011363854, y: -0.005323739, z: 0.013606305, w: 0.004922388}
        tangentMode: 0
        weightedMode: 0
        inWeight: {x: 0.33333334, y: 0.33333334, z: 0.33333334, w: 0.33333334}
        outWeight: {x: 0.33333334, y: 0.33333334, z: 0.33333334, w: 0.33333334}
      - serializedVersion: 3
        time: 2.625
        value: {x: 0, y: -0, z: -0.30648646, w: 0.95187503}
        inSlope: {x: 0, y: 0, z: 0, w: 0}
        outSlope: {x: 0, y: 0, z: 0, w: 0}
        tangentMode: 0
        weightedMode: 0
        inWeight: {x: 0.33333334, y: 0.33333334, z: 0.33333334, w: 0.33333334}
        outWeight: {x: 0.33333334, y: 0.33333334, z: 0.33333334, w: 0.33333334}
      - serializedVersion: 3
        time: 3.2916667
        value: {x: 0.0040605087, y: -0.0128752515, z: -0.31216314, w: 0.94993263}
        inSlope: {x: 0.01033934, y: -0.03401983, z: -0.026233103, w: -0.009120235}
        outSlope: {x: 0.01033934, y: -0.03401983, z: -0.026233103, w: -0.009120235}
        tangentMode: 0
        weightedMode: 0
        inWeight: {x: 0.33333334, y: 0.33333334, z: 0.33333334, w: 0.33333334}
        outWeight: {x: 0.33333334, y: 0.33333334, z: 0.33333334, w: 0.33333334}
      - serializedVersion: 3
        time: 3.5416667
        value: {x: -0.0026788309, y: 0.008729991, z: -0.31954795, w: 0.94752616}
        inSlope: {x: -0.08490884, y: 0.27771333, z: -0.029859092, w: -0.012868183}
        outSlope: {x: -0.08490884, y: 0.27771333, z: -0.029859092, w: -0.012868183}
        tangentMode: 0
        weightedMode: 0
        inWeight: {x: 0.33333334, y: 0.33333334, z: 0.33333334, w: 0.33333334}
        outWeight: {x: 0.33333334, y: 0.33333334, z: 0.33333334, w: 0.33333334}
      - serializedVersion: 3
        time: 3.75
        value: {x: -0.0069784857, y: 0.023273261, z: -0.32553592, w: 0.94521743}
        inSlope: {x: 0.059191972, y: -0.1951584, z: -0.027776904, w: -0.004607669}
        outSlope: {x: 0.059191972, y: -0.1951584, z: -0.027776904, w: -0.004607669}
        tangentMode: 0
        weightedMode: 0
        inWeight: {x: 0.33333334, y: 0.33333334, z: 0.33333334, w: 0.33333334}
        outWeight: {x: 0.33333334, y: 0.33333334, z: 0.33333334, w: 0.33333334}
      - serializedVersion: 3
        time: 4.0000005
        value: {x: 0.0038133634, y: -0.012963004, z: -0.33053, w: 0.94369876}
        inSlope: {x: -0.030296601, y: 0.10246987, z: -0.01173803, w: -0.002801646}
        outSlope: {x: -0.030296601, y: 0.10246987, z: -0.01173803, w: -0.002801646}
        tangentMode: 0
        weightedMode: 0
        inWeight: {x: 0.33333334, y: 0.33333334, z: 0.33333334, w: 0.33333334}
        outWeight: {x: 0.33333334, y: 0.33333334, z: 0.33333334, w: 0.33333334}
      - serializedVersion: 3
        time: 4.291667
        value: {x: -0.008140665, y: 0.027623108, z: -0.32996112, w: 0.9435552}
        inSlope: {x: 0.0011364339, y: -0.0053238696, z: 0.013606362, w: 0.0049224086}
        outSlope: {x: 0.0011364339, y: -0.0053238696, z: 0.013606362, w: 0.0049224086}
        tangentMode: 0
        weightedMode: 0
        inWeight: {x: 0.33333334, y: 0.33333334, z: 0.33333334, w: 0.33333334}
        outWeight: {x: 0.33333334, y: 0.33333334, z: 0.33333334, w: 0.33333334}
      - serializedVersion: 3
        time: 5.3750005
        value: {x: 0, y: 0, z: -0.30648646, w: 0.95187503}
        inSlope: {x: 0.000853501, y: -0.0026515496, z: 0.0019483417, w: 0.00062798976}
        outSlope: {x: 0.000853501, y: -0.0026515496, z: 0.0019483417, w: 0.00062798976}
        tangentMode: 0
        weightedMode: 0
        inWeight: {x: 0.33333334, y: 0.33333334, z: 0.33333334, w: 0.33333334}
        outWeight: {x: 0.33333334, y: 0.33333334, z: 0.33333334, w: 0.33333334}
      m_PreInfinity: 2
      m_PostInfinity: 2
      m_RotationOrder: 4
    path: main_joint/right_joint
  m_CompressedRotationCurves: []
  m_EulerCurves: []
  m_PositionCurves:
  - curve:
      serializedVersion: 2
      m_Curve:
      - serializedVersion: 3
        time: 0
        value: {x: 0.414504, y: 0.68478894, z: -1.3670249e-18}
        inSlope: {x: 7.1054274e-15, y: -0.0000045352353, z: -1.4086801e-32}
        outSlope: {x: 7.1054274e-15, y: -0.0000045352353, z: -1.4086801e-32}
        tangentMode: 0
        weightedMode: 0
        inWeight: {x: 0.33333334, y: 0.33333334, z: 0.33333334}
        outWeight: {x: 0.33333334, y: 0.33333334, z: 0.33333334}
      - serializedVersion: 3
        time: 1.25
        value: {x: 0.414504, y: 0.80328286, z: -1.3670249e-18}
        inSlope: {x: 3.0451861e-15, y: -0.00021493115, z: 1.4086814e-32}
        outSlope: {x: 7.105414e-15, y: -0.00021187871, z: -1.4086775e-32}
        tangentMode: 0
        weightedMode: 0
        inWeight: {x: 0.33333334, y: 0.33333334, z: 0.33333334}
        outWeight: {x: 0.33333334, y: 0.33333334, z: 0.33333334}
      - serializedVersion: 3
        time: 1.875
        value: {x: 0.414504, y: 0.7686079, z: -1.3670249e-18}
        inSlope: {x: 3.0451861e-15, y: -0.17661425, z: 1.4086814e-32}
        outSlope: {x: 7.105414e-15, y: -0.17661026, z: -1.4086775e-32}
        tangentMode: 0
        weightedMode: 0
        inWeight: {x: 0.33333334, y: 0.33333334, z: 0.33333334}
        outWeight: {x: 0.33333334, y: 0.33333334, z: 0.33333334}
      - serializedVersion: 3
        time: 2.5
        value: {x: 0.414504, y: 0.68478894, z: -1.3670249e-18}
        inSlope: {x: 3.0451775e-15, y: 6.090355e-15, z: 1.4086775e-32}
        outSlope: {x: 7.1054545e-15, y: 1.4210909e-14, z: -1.4086855e-32}
        tangentMode: 0
        weightedMode: 0
        inWeight: {x: 0.33333334, y: 0.33333334, z: 0.33333334}
        outWeight: {x: 0.33333334, y: 0.33333334, z: 0.33333334}
      - serializedVersion: 3
        time: 3.2916665
        value: {x: 0.414504, y: 0.7119438, z: -1.3670249e-18}
        inSlope: {x: 3.045195e-15, y: 0.12571579, z: 1.4086855e-32}
        outSlope: {x: 7.105414e-15, y: 0.12569876, z: -1.4086775e-32}
        tangentMode: 0
        weightedMode: 0
        inWeight: {x: 0.33333334, y: 0.33333334, z: 0.33333334}
        outWeight: {x: 0.33333334, y: 0.33333334, z: 0.33333334}
      - serializedVersion: 3
        time: 4.166667
        value: {x: 0.414504, y: 0.80328286, z: -1.3670249e-18}
        inSlope: {x: 3.04516e-15, y: -0.00021492928, z: 1.4086694e-32}
        outSlope: {x: 7.1054545e-15, y: -0.00021187992, z: -1.4086855e-32}
        tangentMode: 0
        weightedMode: 0
        inWeight: {x: 0.33333334, y: 0.33333334, z: 0.33333334}
        outWeight: {x: 0.33333334, y: 0.33333334, z: 0.33333334}
      - serializedVersion: 3
        time: 4.791667
        value: {x: 0.414504, y: 0.768608, z: -1.3670249e-18}
        inSlope: {x: 3.04516e-15, y: -0.17661744, z: 1.4086694e-32}
        outSlope: {x: 7.1054545e-15, y: -0.17661309, z: -1.4086855e-32}
        tangentMode: 0
        weightedMode: 0
        inWeight: {x: 0.33333334, y: 0.33333334, z: 0.33333334}
        outWeight: {x: 0.33333334, y: 0.33333334, z: 0.33333334}
      - serializedVersion: 3
        time: 5.375
        value: {x: 0.414504, y: 0.68478894, z: -1.3670249e-18}
        inSlope: {x: 3.045195e-15, y: -0.0000075836983, z: 1.4086855e-32}
        outSlope: {x: 3.045195e-15, y: -0.0000075836983, z: 1.4086855e-32}
        tangentMode: 0
        weightedMode: 0
        inWeight: {x: 0.33333334, y: 0.33333334, z: 0.33333334}
        outWeight: {x: 0.33333334, y: 0.33333334, z: 0.33333334}
      m_PreInfinity: 2
      m_PostInfinity: 2
      m_RotationOrder: 4
    path: left_ctrl
  - curve:
      serializedVersion: 2
      m_Curve:
      - serializedVersion: 3
        time: 0
        value: {x: -0.41450354, y: 0.68478864, z: -1.3601738e-18}
        inSlope: {x: -3.5527137e-15, y: -0.0000045352353, z: -2.4651903e-32}
        outSlope: {x: -3.5527137e-15, y: -0.0000045352353, z: -2.4651903e-32}
        tangentMode: 0
        weightedMode: 0
        inWeight: {x: 0.33333334, y: 0.33333334, z: 0.33333334}
        outWeight: {x: 0.33333334, y: 0.33333334, z: 0.33333334}
      - serializedVersion: 3
        time: 1.25
        value: {x: -0.41450354, y: 0.8032825, z: -1.3601738e-18}
        inSlope: {x: -1.5225931e-15, y: -0.00021493115, z: -1.0565112e-32}
        outSlope: {x: -3.552707e-15, y: -0.00021187871, z: -2.4651856e-32}
        tangentMode: 0
        weightedMode: 0
        inWeight: {x: 0.33333334, y: 0.33333334, z: 0.33333334}
        outWeight: {x: 0.33333334, y: 0.33333334, z: 0.33333334}
      - serializedVersion: 3
        time: 1.875
        value: {x: -0.41450354, y: 0.7686076, z: -1.3601738e-18}
        inSlope: {x: -1.5225931e-15, y: -0.17661425, z: -1.0565112e-32}
        outSlope: {x: -3.552707e-15, y: -0.17661026, z: -2.4651856e-32}
        tangentMode: 0
        weightedMode: 0
        inWeight: {x: 0.33333334, y: 0.33333334, z: 0.33333334}
        outWeight: {x: 0.33333334, y: 0.33333334, z: 0.33333334}
      - serializedVersion: 3
        time: 2.5
        value: {x: -0.41450354, y: 0.68478864, z: -1.3601738e-18}
        inSlope: {x: -1.5225887e-15, y: 1.5225887e-15, z: -1.0565082e-32}
        outSlope: {x: -3.5527272e-15, y: 3.5527272e-15, z: -2.4651997e-32}
        tangentMode: 0
        weightedMode: 0
        inWeight: {x: 0.33333334, y: 0.33333334, z: 0.33333334}
        outWeight: {x: 0.33333334, y: 0.33333334, z: 0.33333334}
      - serializedVersion: 3
        time: 3.2916665
        value: {x: -0.41450354, y: 0.7119435, z: -1.3601738e-18}
        inSlope: {x: -1.5225975e-15, y: 0.12571579, z: -1.0565143e-32}
        outSlope: {x: -3.552707e-15, y: 0.12569876, z: -2.4651856e-32}
        tangentMode: 0
        weightedMode: 0
        inWeight: {x: 0.33333334, y: 0.33333334, z: 0.33333334}
        outWeight: {x: 0.33333334, y: 0.33333334, z: 0.33333334}
      - serializedVersion: 3
        time: 4.166667
        value: {x: -0.41450354, y: 0.8032825, z: -1.3601738e-18}
        inSlope: {x: -1.52258e-15, y: -0.00021492928, z: -1.05650214e-32}
        outSlope: {x: -3.5527272e-15, y: -0.00021187992, z: -2.4651997e-32}
        tangentMode: 0
        weightedMode: 0
        inWeight: {x: 0.33333334, y: 0.33333334, z: 0.33333334}
        outWeight: {x: 0.33333334, y: 0.33333334, z: 0.33333334}
      - serializedVersion: 3
        time: 4.791667
        value: {x: -0.41450354, y: 0.7686077, z: -1.3601738e-18}
        inSlope: {x: -1.52258e-15, y: -0.17661744, z: -1.05650214e-32}
        outSlope: {x: -3.5527272e-15, y: -0.17661309, z: -2.4651997e-32}
        tangentMode: 0
        weightedMode: 0
        inWeight: {x: 0.33333334, y: 0.33333334, z: 0.33333334}
        outWeight: {x: 0.33333334, y: 0.33333334, z: 0.33333334}
      - serializedVersion: 3
        time: 5.375
        value: {x: -0.41450354, y: 0.68478864, z: -1.3601738e-18}
        inSlope: {x: -1.5225975e-15, y: -0.0000075836983, z: -1.0565143e-32}
        outSlope: {x: -1.5225975e-15, y: -0.0000075836983, z: -1.0565143e-32}
        tangentMode: 0
        weightedMode: 0
        inWeight: {x: 0.33333334, y: 0.33333334, z: 0.33333334}
        outWeight: {x: 0.33333334, y: 0.33333334, z: 0.33333334}
      m_PreInfinity: 2
      m_PostInfinity: 2
      m_RotationOrder: 4
    path: right_ctrl
  - curve:
      serializedVersion: 2
      m_Curve:
      - serializedVersion: 3
        time: 0
        value: {x: 0.231576, y: 0.553365, z: -1.3670249e-18}
        inSlope: {x: 0.0005774143, y: 0.009111327, z: -0.002764403}
        outSlope: {x: 0.0005774143, y: 0.009111327, z: -0.002764403}
        tangentMode: 0
        weightedMode: 0
        inWeight: {x: 0.33333334, y: 0.33333334, z: 0.33333334}
        outWeight: {x: 0.33333334, y: 0.33333334, z: 0.33333334}
      - serializedVersion: 3
        time: 0.041666668
        value: {x: 0.23160002, y: 0.5537446, z: -0.00011518344}
        inSlope: {x: 0.0011289105, y: 0.017795756, z: -0.005203578}
        outSlope: {x: 0.0011302619, y: 0.01779205, z: -0.005203588}
        tangentMode: 0
        weightedMode: 0
        inWeight: {x: 0.33333334, y: 0.33333334, z: 0.33333334}
        outWeight: {x: 0.33333334, y: 0.33333334, z: 0.33333334}
      - serializedVersion: 3
        time: 0.08333333
        value: {x: 0.23167022, y: 0.5548477, z: -0.00043363142}
        inSlope: {x: 0.0022092764, y: 0.034511324, z: -0.009594068}
        outSlope: {x: 0.0022130688, y: 0.03451341, z: -0.009594062}
        tangentMode: 0
        weightedMode: 0
        inWeight: {x: 0.33333334, y: 0.33333334, z: 0.33333334}
        outWeight: {x: 0.33333334, y: 0.33333334, z: 0.33333334}
      - serializedVersion: 3
        time: 0.4166667
        value: {x: 0.23356555, y: 0.58330137, z: -0.0054196045}
        inSlope: {x: 0.008141736, y: 0.1221001, z: -0.009590161}
        outSlope: {x: 0.008138712, y: 0.12208527, z: -0.00959003}
        tangentMode: 0
        weightedMode: 0
        inWeight: {x: 0.33333334, y: 0.33333334, z: 0.33333334}
        outWeight: {x: 0.33333334, y: 0.33333334, z: 0.33333334}
      - serializedVersion: 3
        time: 0.45833334
        value: {x: 0.23391107, y: 0.5885097, z: -0.005737905}
        inSlope: {x: 0.008380673, y: 0.12725148, z: -0.005201084}
        outSlope: {x: 0.008375871, y: 0.12726222, z: -0.005200981}
        tangentMode: 0
        weightedMode: 0
        inWeight: {x: 0.33333334, y: 0.33333334, z: 0.33333334}
        outWeight: {x: 0.33333334, y: 0.33333334, z: 0.33333334}
      - serializedVersion: 3
        time: 0.5
        value: {x: 0.23426384, y: 0.59390664, z: -0.0058530304}
        inSlope: {x: 0.008077235, y: 0.1311336, z: 0.014958661}
        outSlope: {x: 0.008079644, y: 0.13113736, z: 0.014958699}
        tangentMode: 0
        weightedMode: 0
        inWeight: {x: 0.33333334, y: 0.33333334, z: 0.33333334}
        outWeight: {x: 0.33333334, y: 0.33333334, z: 0.33333334}
      - serializedVersion: 3
        time: 0.5416666
        value: {x: 0.23458436, y: 0.5994377, z: -0.004491361}
        inSlope: {x: 0.0076109814, y: 0.13371828, z: 0.057201367}
        outSlope: {x: 0.007609662, y: 0.13371442, z: 0.057200544}
        tangentMode: 0
        weightedMode: 0
        inWeight: {x: 0.33333334, y: 0.33333334, z: 0.33333334}
        outWeight: {x: 0.33333334, y: 0.33333334, z: 0.33333334}
      - serializedVersion: 3
        time: 0.5833333
        value: {x: 0.23489803, y: 0.60504967, z: -0.0010862637}
        inSlope: {x: 0.008514291, y: 0.13503976, z: 0.09398483}
        outSlope: {x: 0.008514878, y: 0.13504434, z: 0.093984716}
        tangentMode: 0
        weightedMode: 0
        inWeight: {x: 0.33333334, y: 0.33333334, z: 0.33333334}
        outWeight: {x: 0.33333334, y: 0.33333334, z: 0.33333334}
      - serializedVersion: 3
        time: 0.625
        value: {x: 0.23529394, y: 0.6106914, z: 0.0033407493}
        inSlope: {x: 0.010781897, y: 0.13512717, z: 0.10622394}
        outSlope: {x: 0.010780605, y: 0.13513526, z: 0.106225185}
        tangentMode: 0
        weightedMode: 0
        inWeight: {x: 0.33333334, y: 0.33333334, z: 0.33333334}
        outWeight: {x: 0.33333334, y: 0.33333334, z: 0.33333334}
      - serializedVersion: 3
        time: 0.6666666
        value: {x: 0.23579647, y: 0.6163107, z: 0.0077658053}
        inSlope: {x: 0.012511389, y: 0.13394071, z: 0.09391214}
        outSlope: {x: 0.0125120245, y: 0.13393393, z: 0.0939112}
        tangentMode: 0
        weightedMode: 0
        inWeight: {x: 0.33333334, y: 0.33333334, z: 0.33333334}
        outWeight: {x: 0.33333334, y: 0.33333334, z: 0.33333334}
      - serializedVersion: 3
        time: 0.7083333
        value: {x: 0.23633675, y: 0.6218525, z: 0.011166736}
        inSlope: {x: 0.01181884, y: 0.13137482, z: 0.05712302}
        outSlope: {x: 0.011821608, y: 0.13137408, z: 0.057123307}
        tangentMode: 0
        weightedMode: 0
        inWeight: {x: 0.33333334, y: 0.33333334, z: 0.33333334}
        outWeight: {x: 0.33333334, y: 0.33333334, z: 0.33333334}
      - serializedVersion: 3
        time: 0.75
        value: {x: 0.23678143, y: 0.62725884, z: 0.01252609}
        inSlope: {x: 0.00867612, y: 0.12743296, z: 0.0041143}
        outSlope: {x: 0.00867561, y: 0.12744077, z: 0.0041143256}
        tangentMode: 0
        weightedMode: 0
        inWeight: {x: 0.33333334, y: 0.33333334, z: 0.33333334}
        outWeight: {x: 0.33333334, y: 0.33333334, z: 0.33333334}
      - serializedVersion: 3
        time: 0.875
        value: {x: 0.2374162, y: 0.6421157, z: 0.0052971398}
        inSlope: {x: 0.0046814154, y: 0.108028546, z: -0.09003063}
        outSlope: {x: 0.0046836017, y: 0.10802831, z: -0.09003161}
        tangentMode: 0
        weightedMode: 0
        inWeight: {x: 0.33333334, y: 0.33333334, z: 0.33333334}
        outWeight: {x: 0.33333334, y: 0.33333334, z: 0.33333334}
      - serializedVersion: 3
        time: 0.9166666
        value: {x: 0.23763393, y: 0.64644337, z: 0.0013839756}
        inSlope: {x: 0.0058628893, y: 0.09908228, z: -0.09006392}
        outSlope: {x: 0.0058631203, y: 0.09907516, z: -0.090062864}
        tangentMode: 0
        weightedMode: 0
        inWeight: {x: 0.33333334, y: 0.33333334, z: 0.33333334}
        outWeight: {x: 0.33333334, y: 0.33333334, z: 0.33333334}
      - serializedVersion: 3
        time: 0.9583333
        value: {x: 0.2379049, y: 0.6503721, z: -0.0022081595}
        inSlope: {x: 0.0066522174, y: 0.08883871, z: -0.07462459}
        outSlope: {x: 0.006653404, y: 0.0888282, z: -0.07462568}
        tangentMode: 0
        weightedMode: 0
        inWeight: {x: 0.33333334, y: 0.33333334, z: 0.33333334}
        outWeight: {x: 0.33333334, y: 0.33333334, z: 0.33333334}
      - serializedVersion: 3
        time: 0.99999994
        value: {x: 0.23818827, y: 0.65384626, z: -0.004834783}
        inSlope: {x: 0.006143324, y: 0.077231504, z: -0.043738425}
        outSlope: {x: 0.006147972, y: 0.07725125, z: -0.043738466}
        tangentMode: 0
        weightedMode: 0
        inWeight: {x: 0.33333334, y: 0.33333334, z: 0.33333334}
        outWeight: {x: 0.33333334, y: 0.33333334, z: 0.33333334}
      - serializedVersion: 3
        time: 1.0416667
        value: {x: 0.23841695, y: 0.6568092, z: -0.0058530313}
        inSlope: {x: 0.004360517, y: 0.06430311, z: -0.0012999731}
        outSlope: {x: 0.004358023, y: 0.06429736, z: -0.0012994669}
        tangentMode: 0
        weightedMode: 0
        inWeight: {x: 0.33333334, y: 0.33333334, z: 0.33333334}
        outWeight: {x: 0.33333334, y: 0.33333334, z: 0.33333334}
      - serializedVersion: 3
        time: 1.0833334
        value: {x: 0.23855142, y: 0.6592051, z: -0.0049431035}
        inSlope: {x: 0.0024724707, y: 0.05007616, z: 0.039085545}
        outSlope: {x: 0.0024718386, y: 0.05006936, z: 0.039085396}
        tangentMode: 0
        weightedMode: 0
        inWeight: {x: 0.33333334, y: 0.33333334, z: 0.33333334}
        outWeight: {x: 0.33333334, y: 0.33333334, z: 0.33333334}
      - serializedVersion: 3
        time: 1.125
        value: {x: 0.23862296, y: 0.6609816, z: -0.002595939}
        inSlope: {x: 0.0015475912, y: 0.034592573, z: 0.06668585}
        outSlope: {x: 0.0015480445, y: 0.03460207, z: 0.066686064}
        tangentMode: 0
        weightedMode: 0
        inWeight: {x: 0.33333334, y: 0.33333334, z: 0.33333334}
        outWeight: {x: 0.33333334, y: 0.33333334, z: 0.33333334}
      - serializedVersion: 3
        time: 1.1666667
        value: {x: 0.23868023, y: 0.66208744, z: 0.0006140648}
        inSlope: {x: 0.0015371455, y: 0.017869748, z: 0.08048668}
        outSlope: {x: 0.0015390026, y: 0.017861867, z: 0.08048856}
        tangentMode: 0
        weightedMode: 0
        inWeight: {x: 0.33333334, y: 0.33333334, z: 0.33333334}
        outWeight: {x: 0.33333334, y: 0.33333334, z: 0.33333334}
      - serializedVersion: 3
        time: 1.2083334
        value: {x: 0.23875102, y: 0.66247076, z: 0.0041112825}
        inSlope: {x: 0.0017657048, y: 0.0049747177, z: 0.08046994}
        outSlope: {x: 0.0017652689, y: 0.004977945, z: 0.080469005}
        tangentMode: 0
        weightedMode: 0
        inWeight: {x: 0.33333334, y: 0.33333334, z: 0.33333334}
        outWeight: {x: 0.33333334, y: 0.33333334, z: 0.33333334}
      - serializedVersion: 3
        time: 1.2916667
        value: {x: 0.23886615, y: 0.66257447, z: 0.009664899}
        inSlope: {x: -0.00027740438, y: 0.0018853721, z: 0.039048683}
        outSlope: {x: -0.00027648933, y: 0.0018897371, z: 0.039049454}
        tangentMode: 0
        weightedMode: 0
        inWeight: {x: 0.33333334, y: 0.33333334, z: 0.33333334}
        outWeight: {x: 0.33333334, y: 0.33333334, z: 0.33333334}
      - serializedVersion: 3
        time: 1.375
        value: {x: 0.2386502, y: 0.6627358, z: 0.010531436}
        inSlope: {x: -0.0041755275, y: 0.0014859455, z: -0.001983516}
        outSlope: {x: -0.0041751885, y: 0.001488906, z: -0.0019832433}
        tangentMode: 0
        weightedMode: 0
        inWeight: {x: 0.33333334, y: 0.33333334, z: 0.33333334}
        outWeight: {x: 0.33333334, y: 0.33333334, z: 0.33333334}
      - serializedVersion: 3
        time: 1.875
        value: {x: 0.2348088, y: 0.63291204, z: 0.0055827424}
        inSlope: {x: -0.008906191, y: -0.1653973, z: -0.014054524}
        outSlope: {x: -0.008906449, y: -0.16539848, z: -0.014054462}
        tangentMode: 0
        weightedMode: 0
        inWeight: {x: 0.33333334, y: 0.33333334, z: 0.33333334}
        outWeight: {x: 0.33333334, y: 0.33333334, z: 0.33333334}
      - serializedVersion: 3
        time: 2.375
        value: {x: 0.23166378, y: 0.5560781, z: 0.00016555176}
        inSlope: {x: -0.0020481395, y: -0.062386125, z: -0.003844226}
        outSlope: {x: -0.0020484128, y: -0.062386487, z: -0.0038443655}
        tangentMode: 0
        weightedMode: 0
        inWeight: {x: 0.33333334, y: 0.33333334, z: 0.33333334}
        outWeight: {x: 0.33333334, y: 0.33333334, z: 0.33333334}
      - serializedVersion: 3
        time: 2.4166665
        value: {x: 0.23159842, y: 0.554066, z: 0.000042462954}
        inSlope: {x: -0.001052228, y: -0.032553263, z: -0.0019867304}
        outSlope: {x: -0.0010533121, y: -0.032557484, z: -0.0019866119}
        tangentMode: 0
        weightedMode: 0
        inWeight: {x: 0.33333334, y: 0.33333334, z: 0.33333334}
        outWeight: {x: 0.33333334, y: 0.33333334, z: 0.33333334}
      - serializedVersion: 3
        time: 2.4583333
        value: {x: 0.231576, y: 0.553365, z: -1.3670249e-18}
        inSlope: {x: -0.00027075573, y: -0.008413766, z: -0.00050955743}
        outSlope: {x: -0.00026757325, y: -0.008414117, z: -0.0005095553}
        tangentMode: 0
        weightedMode: 0
        inWeight: {x: 0.33333334, y: 0.33333334, z: 0.33333334}
        outWeight: {x: 0.33333334, y: 0.33333334, z: 0.33333334}
      - serializedVersion: 3
        time: 2.5
        value: {x: 0.231576, y: 0.553365, z: -1.3670249e-18}
        inSlope: {x: 0.00000054494774, y: -2.5075717e-10, z: -0.0000000012167563}
        outSlope: {x: 1.2688313e-15, y: 7.1054545e-15, z: -1.4086855e-32}
        tangentMode: 0
        weightedMode: 0
        inWeight: {x: 0.33333334, y: 0.33333334, z: 0.33333334}
        outWeight: {x: 0.33333334, y: 0.33333334, z: 0.33333334}
      - serializedVersion: 3
        time: 2.875
        value: {x: 0.231576, y: 0.553365, z: -1.3670249e-18}
        inSlope: {x: 6.3441192e-15, y: 3.0451775e-15, z: 1.4086775e-32}
        outSlope: {x: -0.0000005449502, y: 0.000005449724, z: 0.000000010511065}
        tangentMode: 0
        weightedMode: 0
        inWeight: {x: 0.33333334, y: 0.33333334, z: 0.33333334}
        outWeight: {x: 0.33333334, y: 0.33333334, z: 0.33333334}
      - serializedVersion: 3
        time: 2.9166665
        value: {x: 0.231576, y: 0.553365, z: -1.3670249e-18}
        inSlope: {x: 0.00028937313, y: 0.004561305, z: -0.001382204}
        outSlope: {x: 0.00028804172, y: 0.0045576594, z: -0.0013822003}
        tangentMode: 0
        weightedMode: 0
        inWeight: {x: 0.33333334, y: 0.33333334, z: 0.33333334}
        outWeight: {x: 0.33333334, y: 0.33333334, z: 0.33333334}
      - serializedVersion: 3
        time: 2.9583333
        value: {x: 0.23160002, y: 0.5537446, z: -0.00011518344}
        inSlope: {x: 0.0011294533, y: 0.017793544, z: -0.005203594}
        outSlope: {x: 0.0011302597, y: 0.017792016, z: -0.0052036075}
        tangentMode: 0
        weightedMode: 0
        inWeight: {x: 0.33333334, y: 0.33333334, z: 0.33333334}
        outWeight: {x: 0.33333334, y: 0.33333334, z: 0.33333334}
      - serializedVersion: 3
        time: 3
        value: {x: 0.23167022, y: 0.5548477, z: -0.00043363142}
        inSlope: {x: 0.002209272, y: 0.034511257, z: -0.009594014}
        outSlope: {x: 0.0022130774, y: 0.034513544, z: -0.009594502}
        tangentMode: 0
        weightedMode: 0
        inWeight: {x: 0.33333334, y: 0.33333334, z: 0.33333334}
        outWeight: {x: 0.33333334, y: 0.33333334, z: 0.33333334}
      - serializedVersion: 3
        time: 3.3333333
        value: {x: 0.23356555, y: 0.58330137, z: -0.0054196045}
        inSlope: {x: 0.008140089, y: 0.12209992, z: -0.009590096}
        outSlope: {x: 0.008142509, y: 0.12209264, z: -0.009590009}
        tangentMode: 0
        weightedMode: 0
        inWeight: {x: 0.33333334, y: 0.33333334, z: 0.33333334}
        outWeight: {x: 0.33333334, y: 0.33333334, z: 0.33333334}
      - serializedVersion: 3
        time: 3.375
        value: {x: 0.23391107, y: 0.5885097, z: -0.005737905}
        inSlope: {x: 0.00838229, y: 0.12725447, z: -0.0052010724}
        outSlope: {x: 0.008379721, y: 0.12727366, z: -0.0052014124}
        tangentMode: 0
        weightedMode: 0
        inWeight: {x: 0.33333334, y: 0.33333334, z: 0.33333334}
        outWeight: {x: 0.33333334, y: 0.33333334, z: 0.33333334}
      - serializedVersion: 3
        time: 3.4166665
        value: {x: 0.23426384, y: 0.59390664, z: -0.0058530304}
        inSlope: {x: 0.008078905, y: 0.13114506, z: 0.014958452}
        outSlope: {x: 0.008079621, y: 0.13113698, z: 0.014958452}
        tangentMode: 0
        weightedMode: 0
        inWeight: {x: 0.33333334, y: 0.33333334, z: 0.33333334}
        outWeight: {x: 0.33333334, y: 0.33333334, z: 0.33333334}
      - serializedVersion: 3
        time: 3.4583333
        value: {x: 0.23458436, y: 0.5994377, z: -0.004491361}
        inSlope: {x: 0.0076109595, y: 0.1337179, z: 0.057201408}
        outSlope: {x: 0.007613466, y: 0.13371423, z: 0.05720156}
        tangentMode: 0
        weightedMode: 0
        inWeight: {x: 0.33333334, y: 0.33333334, z: 0.33333334}
        outWeight: {x: 0.33333334, y: 0.33333334, z: 0.33333334}
      - serializedVersion: 3
        time: 3.5
        value: {x: 0.23489803, y: 0.60504967, z: -0.0010862637}
        inSlope: {x: 0.008515913, y: 0.13503957, z: 0.09398487}
        outSlope: {x: 0.008514915, y: 0.13504818, z: 0.09398955}
        tangentMode: 0
        weightedMode: 0
        inWeight: {x: 0.33333334, y: 0.33333334, z: 0.33333334}
        outWeight: {x: 0.33333334, y: 0.33333334, z: 0.33333334}
      - serializedVersion: 3
        time: 3.5416665
        value: {x: 0.23529394, y: 0.6106914, z: 0.0033407493}
        inSlope: {x: 0.010781944, y: 0.13513538, z: 0.10622917}
        outSlope: {x: 0.010780574, y: 0.13513486, z: 0.1062244}
        tangentMode: 0
        weightedMode: 0
        inWeight: {x: 0.33333334, y: 0.33333334, z: 0.33333334}
        outWeight: {x: 0.33333334, y: 0.33333334, z: 0.33333334}
      - serializedVersion: 3
        time: 3.5833333
        value: {x: 0.23579647, y: 0.6163107, z: 0.0077658053}
        inSlope: {x: 0.012511353, y: 0.13394032, z: 0.09391235}
        outSlope: {x: 0.012512007, y: 0.13393374, z: 0.09391239}
        tangentMode: 0
        weightedMode: 0
        inWeight: {x: 0.33333334, y: 0.33333334, z: 0.33333334}
        outWeight: {x: 0.33333334, y: 0.33333334, z: 0.33333334}
      - serializedVersion: 3
        time: 3.625
        value: {x: 0.23633675, y: 0.6218525, z: 0.011166736}
        inSlope: {x: 0.011818823, y: 0.13137463, z: 0.05712331}
        outSlope: {x: 0.011821659, y: 0.13137792, z: 0.05712481}
        tangentMode: 0
        weightedMode: 0
        inWeight: {x: 0.33333334, y: 0.33333334, z: 0.33333334}
        outWeight: {x: 0.33333334, y: 0.33333334, z: 0.33333334}
      - serializedVersion: 3
        time: 3.6666665
        value: {x: 0.23678143, y: 0.62725884, z: 0.01252609}
        inSlope: {x: 0.008676156, y: 0.12744112, z: 0.004115442}
        outSlope: {x: 0.008675585, y: 0.12744041, z: 0.00411445}
        tangentMode: 0
        weightedMode: 0
        inWeight: {x: 0.33333334, y: 0.33333334, z: 0.33333334}
        outWeight: {x: 0.33333334, y: 0.33333334, z: 0.33333334}
      - serializedVersion: 3
        time: 3.7916665
        value: {x: 0.2374162, y: 0.6421157, z: 0.0052971398}
        inSlope: {x: 0.0046830704, y: 0.10804426, z: -0.0900349}
        outSlope: {x: 0.0046797735, y: 0.10802799, z: -0.090030946}
        tangentMode: 0
        weightedMode: 0
        inWeight: {x: 0.33333334, y: 0.33333334, z: 0.33333334}
        outWeight: {x: 0.33333334, y: 0.33333334, z: 0.33333334}
      - serializedVersion: 3
        time: 3.8333333
        value: {x: 0.23763393, y: 0.64644337, z: 0.0013839756}
        inSlope: {x: 0.0058612376, y: 0.099082, z: -0.09006406}
        outSlope: {x: 0.005863112, y: 0.09907503, z: -0.090064034}
        tangentMode: 0
        weightedMode: 0
        inWeight: {x: 0.33333334, y: 0.33333334, z: 0.33333334}
        outWeight: {x: 0.33333334, y: 0.33333334, z: 0.33333334}
      - serializedVersion: 3
        time: 3.875
        value: {x: 0.2379049, y: 0.6503721, z: -0.0022081595}
        inSlope: {x: 0.006652208, y: 0.08883858, z: -0.07462478}
        outSlope: {x: 0.006653423, y: 0.088834986, z: -0.074627735}
        tangentMode: 0
        weightedMode: 0
        inWeight: {x: 0.33333334, y: 0.33333334, z: 0.33333334}
        outWeight: {x: 0.33333334, y: 0.33333334, z: 0.33333334}
      - serializedVersion: 3
        time: 3.9166665
        value: {x: 0.23818827, y: 0.65384626, z: -0.004834783}
        inSlope: {x: 0.0061433413, y: 0.07724699, z: -0.043740798}
        outSlope: {x: 0.006144157, y: 0.07725125, z: -0.043738108}
        tangentMode: 0
        weightedMode: 0
        inWeight: {x: 0.33333334, y: 0.33333334, z: 0.33333334}
        outWeight: {x: 0.33333334, y: 0.33333334, z: 0.33333334}
      - serializedVersion: 3
        time: 3.9583333
        value: {x: 0.23841695, y: 0.6568092, z: -0.0058530313}
        inSlope: {x: 0.004358882, y: 0.06430311, z: -0.0012998198}
        outSlope: {x: 0.004358035, y: 0.06429101, z: -0.0013005096}
        tangentMode: 0
        weightedMode: 0
        inWeight: {x: 0.33333334, y: 0.33333334, z: 0.33333334}
        outWeight: {x: 0.33333334, y: 0.33333334, z: 0.33333334}
      - serializedVersion: 3
        time: 3.9999998
        value: {x: 0.23855142, y: 0.6592051, z: -0.0049431035}
        inSlope: {x: 0.0024724777, y: 0.050061043, z: 0.03908482}
        outSlope: {x: 0.0024718174, y: 0.05006893, z: 0.039086822}
        tangentMode: 0
        weightedMode: 0
        inWeight: {x: 0.33333334, y: 0.33333334, z: 0.33333334}
        outWeight: {x: 0.33333334, y: 0.33333334, z: 0.33333334}
      - serializedVersion: 3
        time: 4.041667
        value: {x: 0.23862296, y: 0.6609816, z: -0.002595939}
        inSlope: {x: 0.0015475779, y: 0.03459228, z: 0.06668768}
        outSlope: {x: 0.0015442388, y: 0.034587007, z: 0.06668448}
        tangentMode: 0
        weightedMode: 0
        inWeight: {x: 0.33333334, y: 0.33333334, z: 0.33333334}
        outWeight: {x: 0.33333334, y: 0.33333334, z: 0.33333334}
      - serializedVersion: 3
        time: 4.0833335
        value: {x: 0.23868023, y: 0.66208744, z: 0.0006140648}
        inSlope: {x: 0.0015355194, y: 0.01786331, z: 0.080483675}
        outSlope: {x: 0.0015390071, y: 0.017861918, z: 0.08048349}
        tangentMode: 0
        weightedMode: 0
        inWeight: {x: 0.33333334, y: 0.33333334, z: 0.33333334}
        outWeight: {x: 0.33333334, y: 0.33333334, z: 0.33333334}
      - serializedVersion: 3
        time: 4.125
        value: {x: 0.23875102, y: 0.66247076, z: 0.0041112825}
        inSlope: {x: 0.00176571, y: 0.0049747317, z: 0.08046682}
        outSlope: {x: 0.0017668887, y: 0.004977902, z: 0.08047066}
        tangentMode: 0
        weightedMode: 0
        inWeight: {x: 0.33333334, y: 0.33333334, z: 0.33333334}
        outWeight: {x: 0.33333334, y: 0.33333334, z: 0.33333334}
      - serializedVersion: 3
        time: 4.2083335
        value: {x: 0.23886615, y: 0.66257447, z: 0.009664899}
        inSlope: {x: -0.00027904083, y: 0.0018853829, z: 0.039046675}
        outSlope: {x: -0.00027649011, y: 0.0018744837, z: 0.039047692}
        tangentMode: 0
        weightedMode: 0
        inWeight: {x: 0.33333334, y: 0.33333334, z: 0.33333334}
        outWeight: {x: 0.33333334, y: 0.33333334, z: 0.33333334}
      - serializedVersion: 3
        time: 4.291667
        value: {x: 0.2386502, y: 0.6627358, z: 0.010531436}
        inSlope: {x: -0.0041754916, y: 0.0014859329, z: -0.001983499}
        outSlope: {x: -0.0041735773, y: 0.0014889145, z: -0.0019832547}
        tangentMode: 0
        weightedMode: 0
        inWeight: {x: 0.33333334, y: 0.33333334, z: 0.33333334}
        outWeight: {x: 0.33333334, y: 0.33333334, z: 0.33333334}
      - serializedVersion: 3
        time: 4.791667
        value: {x: 0.2348088, y: 0.63291204, z: 0.0055827424}
        inSlope: {x: -0.008906115, y: -0.1654035, z: -0.014054982}
        outSlope: {x: -0.008902686, y: -0.16539615, z: -0.014054219}
        tangentMode: 0
        weightedMode: 0
        inWeight: {x: 0.33333334, y: 0.33333334, z: 0.33333334}
        outWeight: {x: 0.33333334, y: 0.33333334, z: 0.33333334}
      - serializedVersion: 3
        time: 5.291667
        value: {x: 0.23166378, y: 0.5560781, z: 0.00016555176}
        inSlope: {x: -0.0020481276, y: -0.062393397, z: -0.0038443771}
        outSlope: {x: -0.0020484128, y: -0.062386487, z: -0.0038441888}
        tangentMode: 0
        weightedMode: 0
        inWeight: {x: 0.33333334, y: 0.33333334, z: 0.33333334}
        outWeight: {x: 0.33333334, y: 0.33333334, z: 0.33333334}
      - serializedVersion: 3
        time: 5.3333335
        value: {x: 0.23159842, y: 0.554066, z: 0.000042462954}
        inSlope: {x: -0.001052228, y: -0.032553263, z: -0.00198652}
        outSlope: {x: -0.0010527732, y: -0.0325544, z: -0.0019865849}
        tangentMode: 0
        weightedMode: 0
        inWeight: {x: 0.33333334, y: 0.33333334, z: 0.33333334}
        outWeight: {x: 0.33333334, y: 0.33333334, z: 0.33333334}
      - serializedVersion: 3
        time: 5.375
        value: {x: 0.231576, y: 0.553365, z: -1.3670249e-18}
        inSlope: {x: -0.00053833204, y: -0.016820349, z: -0.0010190925}
        outSlope: {x: -0.00053833204, y: -0.016820349, z: -0.0010190925}
        tangentMode: 0
        weightedMode: 0
        inWeight: {x: 0.33333334, y: 0.33333334, z: 0.33333334}
        outWeight: {x: 0.33333334, y: 0.33333334, z: 0.33333334}
      m_PreInfinity: 2
      m_PostInfinity: 2
      m_RotationOrder: 4
    path: main_joint/left_joint
  - curve:
      serializedVersion: 2
      m_Curve:
      - serializedVersion: 3
        time: 0
        value: {x: -0.23157552, y: 0.5533646, z: -1.3601738e-18}
        inSlope: {x: -0.00057623716, y: 0.009111327, z: 0.0027644027}
        outSlope: {x: -0.00057623716, y: 0.009111327, z: 0.0027644027}
        tangentMode: 0
        weightedMode: 0
        inWeight: {x: 0.33333334, y: 0.33333334, z: 0.33333334}
        outWeight: {x: 0.33333334, y: 0.33333334, z: 0.33333334}
      - serializedVersion: 3
        time: 0.041666668
        value: {x: -0.23159955, y: 0.55374426, z: 0.00011518345}
        inSlope: {x: -0.0011277334, y: 0.017795756, z: 0.0052035768}
        outSlope: {x: -0.0011302619, y: 0.01779205, z: 0.0052035865}
        tangentMode: 0
        weightedMode: 0
        inWeight: {x: 0.33333334, y: 0.33333334, z: 0.33333334}
        outWeight: {x: 0.33333334, y: 0.33333334, z: 0.33333334}
      - serializedVersion: 3
        time: 0.08333333
        value: {x: -0.23166977, y: 0.5548473, z: 0.00043363142}
        inSlope: {x: -0.0022092764, y: 0.034511324, z: 0.009594068}
        outSlope: {x: -0.0022130688, y: 0.03451341, z: 0.009594062}
        tangentMode: 0
        weightedMode: 0
        inWeight: {x: 0.33333334, y: 0.33333334, z: 0.33333334}
        outWeight: {x: 0.33333334, y: 0.33333334, z: 0.33333334}
      - serializedVersion: 3
        time: 0.4166667
        value: {x: -0.23356508, y: 0.583301, z: 0.0054196045}
        inSlope: {x: -0.008141736, y: 0.1221001, z: 0.009590086}
        outSlope: {x: -0.008137534, y: 0.12208527, z: 0.009589962}
        tangentMode: 0
        weightedMode: 0
        inWeight: {x: 0.33333334, y: 0.33333334, z: 0.33333334}
        outWeight: {x: 0.33333334, y: 0.33333334, z: 0.33333334}
      - serializedVersion: 3
        time: 0.45833334
        value: {x: -0.2339106, y: 0.5885093, z: 0.005737905}
        inSlope: {x: -0.008379496, y: 0.12725148, z: 0.005201152}
        outSlope: {x: -0.008375413, y: 0.12726222, z: 0.005200981}
        tangentMode: 0
        weightedMode: 0
        inWeight: {x: 0.33333334, y: 0.33333334, z: 0.33333334}
        outWeight: {x: 0.33333334, y: 0.33333334, z: 0.33333334}
      - serializedVersion: 3
        time: 0.5
        value: {x: -0.23426336, y: 0.5939062, z: 0.0058530304}
        inSlope: {x: -0.0080745965, y: 0.1311336, z: -0.014958661}
        outSlope: {x: -0.008080102, y: 0.13113736, z: -0.014958744}
        tangentMode: 0
        weightedMode: 0
        inWeight: {x: 0.33333334, y: 0.33333334, z: 0.33333334}
        outWeight: {x: 0.33333334, y: 0.33333334, z: 0.33333334}
      - serializedVersion: 3
        time: 0.5416666
        value: {x: -0.2345839, y: 0.5994373, z: 0.0044913613}
        inSlope: {x: -0.007613619, y: 0.13371828, z: -0.057201445}
        outSlope: {x: -0.007613477, y: 0.13371442, z: -0.057200596}
        tangentMode: 0
        weightedMode: 0
        inWeight: {x: 0.33333334, y: 0.33333334, z: 0.33333334}
        outWeight: {x: 0.33333334, y: 0.33333334, z: 0.33333334}
      - serializedVersion: 3
        time: 0.5833333
        value: {x: -0.23489757, y: 0.6050493, z: 0.0010862638}
        inSlope: {x: -0.008515924, y: 0.13503976, z: -0.09398485}
        outSlope: {x: -0.008514878, y: 0.13504434, z: -0.093984716}
        tangentMode: 0
        weightedMode: 0
        inWeight: {x: 0.33333334, y: 0.33333334, z: 0.33333334}
        outWeight: {x: 0.33333334, y: 0.33333334, z: 0.33333334}
      - serializedVersion: 3
        time: 0.625
        value: {x: -0.23529348, y: 0.6106911, z: -0.0033407493}
        inSlope: {x: -0.010781897, y: 0.13512717, z: -0.10622393}
        outSlope: {x: -0.010781782, y: 0.13513198, z: -0.1062252}
        tangentMode: 0
        weightedMode: 0
        inWeight: {x: 0.33333334, y: 0.33333334, z: 0.33333334}
        outWeight: {x: 0.33333334, y: 0.33333334, z: 0.33333334}
      - serializedVersion: 3
        time: 0.6666666
        value: {x: -0.23579599, y: 0.61631036, z: -0.0077658063}
        inSlope: {x: -0.012512566, y: 0.13393308, z: -0.09391213}
        outSlope: {x: -0.012510847, y: 0.13393158, z: -0.09391122}
        tangentMode: 0
        weightedMode: 0
        inWeight: {x: 0.33333334, y: 0.33333334, z: 0.33333334}
        outWeight: {x: 0.33333334, y: 0.33333334, z: 0.33333334}
      - serializedVersion: 3
        time: 0.7083333
        value: {x: -0.2363363, y: 0.62185216, z: -0.011166736}
        inSlope: {x: -0.011817662, y: 0.13137247, z: -0.057123058}
        outSlope: {x: -0.011821608, y: 0.13137971, z: -0.057123307}
        tangentMode: 0
        weightedMode: 0
        inWeight: {x: 0.33333334, y: 0.33333334, z: 0.33333334}
        outWeight: {x: 0.33333334, y: 0.33333334, z: 0.33333334}
      - serializedVersion: 3
        time: 0.75
        value: {x: -0.23678099, y: 0.6272584, z: -0.01252609}
        inSlope: {x: -0.00867612, y: 0.12744294, z: -0.0041143}
        outSlope: {x: -0.008676787, y: 0.12744077, z: -0.0041143256}
        tangentMode: 0
        weightedMode: 0
        inWeight: {x: 0.33333334, y: 0.33333334, z: 0.33333334}
        outWeight: {x: 0.33333334, y: 0.33333334, z: 0.33333334}
      - serializedVersion: 3
        time: 0.875
        value: {x: -0.23741573, y: 0.6421153, z: -0.00529714}
        inSlope: {x: -0.0046814154, y: 0.108028546, z: 0.09003063}
        outSlope: {x: -0.0046836017, y: 0.10802831, z: 0.0900316}
        tangentMode: 0
        weightedMode: 0
        inWeight: {x: 0.33333334, y: 0.33333334, z: 0.33333334}
        outWeight: {x: 0.33333334, y: 0.33333334, z: 0.33333334}
      - serializedVersion: 3
        time: 0.9166666
        value: {x: -0.23763347, y: 0.646443, z: -0.0013839756}
        inSlope: {x: -0.0058628893, y: 0.09908228, z: 0.090063944}
        outSlope: {x: -0.0058631203, y: 0.09907516, z: 0.09006289}
        tangentMode: 0
        weightedMode: 0
        inWeight: {x: 0.33333334, y: 0.33333334, z: 0.33333334}
        outWeight: {x: 0.33333334, y: 0.33333334, z: 0.33333334}
      - serializedVersion: 3
        time: 0.9583333
        value: {x: -0.23790444, y: 0.6503717, z: 0.0022081598}
        inSlope: {x: -0.0066522174, y: 0.08883871, z: 0.074624605}
        outSlope: {x: -0.006653404, y: 0.0888282, z: 0.07462564}
        tangentMode: 0
        weightedMode: 0
        inWeight: {x: 0.33333334, y: 0.33333334, z: 0.33333334}
        outWeight: {x: 0.33333334, y: 0.33333334, z: 0.33333334}
      - serializedVersion: 3
        time: 0.99999994
        value: {x: -0.2381878, y: 0.6538459, z: 0.0048347833}
        inSlope: {x: -0.006143324, y: 0.077231504, z: 0.043738402}
        outSlope: {x: -0.006147972, y: 0.0772578, z: 0.043738544}
        tangentMode: 0
        weightedMode: 0
        inWeight: {x: 0.33333334, y: 0.33333334, z: 0.33333334}
        outWeight: {x: 0.33333334, y: 0.33333334, z: 0.33333334}
      - serializedVersion: 3
        time: 1.0416667
        value: {x: -0.2384165, y: 0.65680885, z: 0.0058530313}
        inSlope: {x: -0.004360517, y: 0.06431837, z: 0.0013000171}
        outSlope: {x: -0.004358023, y: 0.06430608, z: 0.001299474}
        tangentMode: 0
        weightedMode: 0
        inWeight: {x: 0.33333334, y: 0.33333334, z: 0.33333334}
        outWeight: {x: 0.33333334, y: 0.33333334, z: 0.33333334}
      - serializedVersion: 3
        time: 1.0833334
        value: {x: -0.23855096, y: 0.6592047, z: 0.004943104}
        inSlope: {x: -0.0024724707, y: 0.05006744, z: -0.0390855}
        outSlope: {x: -0.0024718386, y: 0.05006936, z: -0.039085396}
        tangentMode: 0
        weightedMode: 0
        inWeight: {x: 0.33333334, y: 0.33333334, z: 0.33333334}
        outWeight: {x: 0.33333334, y: 0.33333334, z: 0.33333334}
      - serializedVersion: 3
        time: 1.125
        value: {x: -0.2386225, y: 0.6609812, z: 0.0025959392}
        inSlope: {x: -0.0015475912, y: 0.034592573, z: -0.06668585}
        outSlope: {x: -0.0015480445, y: 0.03460207, z: -0.06668605}
        tangentMode: 0
        weightedMode: 0
        inWeight: {x: 0.33333334, y: 0.33333334, z: 0.33333334}
        outWeight: {x: 0.33333334, y: 0.33333334, z: 0.33333334}
      - serializedVersion: 3
        time: 1.1666667
        value: {x: -0.23867977, y: 0.6620871, z: -0.00061406486}
        inSlope: {x: -0.0015371455, y: 0.017869748, z: -0.08048668}
        outSlope: {x: -0.0015390026, y: 0.017868407, z: -0.08048859}
        tangentMode: 0
        weightedMode: 0
        inWeight: {x: 0.33333334, y: 0.33333334, z: 0.33333334}
        outWeight: {x: 0.33333334, y: 0.33333334, z: 0.33333334}
      - serializedVersion: 3
        time: 1.2083334
        value: {x: -0.23875056, y: 0.6624704, z: -0.004111283}
        inSlope: {x: -0.0017657048, y: 0.0049899765, z: -0.08046999}
        outSlope: {x: -0.0017652689, y: 0.0049932036, z: -0.080469094}
        tangentMode: 0
        weightedMode: 0
        inWeight: {x: 0.33333334, y: 0.33333334, z: 0.33333334}
        outWeight: {x: 0.33333334, y: 0.33333334, z: 0.33333334}
      - serializedVersion: 3
        time: 1.2916667
        value: {x: -0.23886567, y: 0.66257405, z: -0.009664899}
        inSlope: {x: 0.00027622728, y: 0.0018853721, z: -0.039048765}
        outSlope: {x: 0.00027766643, y: 0.0018984565, z: -0.039049268}
        tangentMode: 0
        weightedMode: 0
        inWeight: {x: 0.33333334, y: 0.33333334, z: 0.33333334}
        outWeight: {x: 0.33333334, y: 0.33333334, z: 0.33333334}
      - serializedVersion: 3
        time: 1.375
        value: {x: -0.23864974, y: 0.6627354, z: -0.010531436}
        inSlope: {x: 0.0041755275, y: 0.0014859455, z: 0.001983516}
        outSlope: {x: 0.0041740113, y: 0.001488906, z: 0.001983141}
        tangentMode: 0
        weightedMode: 0
        inWeight: {x: 0.33333334, y: 0.33333334, z: 0.33333334}
        outWeight: {x: 0.33333334, y: 0.33333334, z: 0.33333334}
      - serializedVersion: 3
        time: 1.875
        value: {x: -0.23480834, y: 0.6329117, z: -0.0055827424}
        inSlope: {x: 0.008904557, y: -0.1653973, z: 0.014054606}
        outSlope: {x: 0.008906449, y: -0.16539848, z: 0.014054626}
        tangentMode: 0
        weightedMode: 0
        inWeight: {x: 0.33333334, y: 0.33333334, z: 0.33333334}
        outWeight: {x: 0.33333334, y: 0.33333334, z: 0.33333334}
      - serializedVersion: 3
        time: 2.375
        value: {x: -0.23166332, y: 0.5560777, z: -0.00016555176}
        inSlope: {x: 0.0020455017, y: -0.062386125, z: 0.0038442214}
        outSlope: {x: 0.0020484128, y: -0.062386487, z: 0.0038443655}
        tangentMode: 0
        weightedMode: 0
        inWeight: {x: 0.33333334, y: 0.33333334, z: 0.33333334}
        outWeight: {x: 0.33333334, y: 0.33333334, z: 0.33333334}
      - serializedVersion: 3
        time: 2.4166665
        value: {x: -0.23159797, y: 0.55406564, z: -0.000042462954}
        inSlope: {x: 0.001052228, y: -0.032553263, z: 0.0019867304}
        outSlope: {x: 0.001052135, y: -0.032557484, z: 0.0019866119}
        tangentMode: 0
        weightedMode: 0
        inWeight: {x: 0.33333334, y: 0.33333334, z: 0.33333334}
        outWeight: {x: 0.33333334, y: 0.33333334, z: 0.33333334}
      - serializedVersion: 3
        time: 2.4583333
        value: {x: -0.23157552, y: 0.5533646, z: -1.3601738e-18}
        inSlope: {x: 0.00026957862, y: -0.008413766, z: 0.00050955743}
        outSlope: {x: 0.00026757325, y: -0.008414117, z: 0.0005095553}
        tangentMode: 0
        weightedMode: 0
        inWeight: {x: 0.33333334, y: 0.33333334, z: 0.33333334}
        outWeight: {x: 0.33333334, y: 0.33333334, z: 0.33333334}
      - serializedVersion: 3
        time: 2.5
        value: {x: -0.23157552, y: 0.5533646, z: -1.3601738e-18}
        inSlope: {x: -0.00000054494774, y: -2.50746e-10, z: 0.0000000012167559}
        outSlope: {x: -1.7763636e-15, y: 6.09039e-15, z: -2.4651997e-32}
        tangentMode: 0
        weightedMode: 0
        inWeight: {x: 0.33333334, y: 0.33333334, z: 0.33333334}
        outWeight: {x: 0.33333334, y: 0.33333334, z: 0.33333334}
      - serializedVersion: 3
        time: 2.875
        value: {x: -0.23157552, y: 0.5533646, z: -1.3601738e-18}
        inSlope: {x: -7.6129437e-16, y: 1.4210828e-14, z: -1.0565082e-32}
        outSlope: {x: 0.0000005449502, y: 0.000005449724, z: -0.000000010486118}
        tangentMode: 0
        weightedMode: 0
        inWeight: {x: 0.33333334, y: 0.33333334, z: 0.33333334}
        outWeight: {x: 0.33333334, y: 0.33333334, z: 0.33333334}
      - serializedVersion: 3
        time: 2.9166665
        value: {x: -0.23157552, y: 0.5533646, z: -1.3601738e-18}
        inSlope: {x: -0.00028937313, y: 0.004561305, z: 0.0013822044}
        outSlope: {x: -0.0002868646, y: 0.0045576594, z: 0.0013822005}
        tangentMode: 0
        weightedMode: 0
        inWeight: {x: 0.33333334, y: 0.33333334, z: 0.33333334}
        outWeight: {x: 0.33333334, y: 0.33333334, z: 0.33333334}
      - serializedVersion: 3
        time: 2.9583333
        value: {x: -0.23159955, y: 0.55374426, z: 0.00011518345}
        inSlope: {x: -0.0011282762, y: 0.017793544, z: 0.0052035945}
        outSlope: {x: -0.0011302597, y: 0.017792016, z: 0.0052036066}
        tangentMode: 0
        weightedMode: 0
        inWeight: {x: 0.33333334, y: 0.33333334, z: 0.33333334}
        outWeight: {x: 0.33333334, y: 0.33333334, z: 0.33333334}
      - serializedVersion: 3
        time: 3
        value: {x: -0.23166977, y: 0.5548473, z: 0.00043363142}
        inSlope: {x: -0.002209272, y: 0.034511257, z: 0.009594014}
        outSlope: {x: -0.0022130774, y: 0.034513544, z: 0.009594502}
        tangentMode: 0
        weightedMode: 0
        inWeight: {x: 0.33333334, y: 0.33333334, z: 0.33333334}
        outWeight: {x: 0.33333334, y: 0.33333334, z: 0.33333334}
      - serializedVersion: 3
        time: 3.3333333
        value: {x: -0.23356508, y: 0.583301, z: 0.0054196045}
        inSlope: {x: -0.008140089, y: 0.12209992, z: 0.00958997}
        outSlope: {x: -0.008141332, y: 0.12209264, z: 0.009590009}
        tangentMode: 0
        weightedMode: 0
        inWeight: {x: 0.33333334, y: 0.33333334, z: 0.33333334}
        outWeight: {x: 0.33333334, y: 0.33333334, z: 0.33333334}
      - serializedVersion: 3
        time: 3.375
        value: {x: -0.2339106, y: 0.5885093, z: 0.005737905}
        inSlope: {x: -0.0083811125, y: 0.12725447, z: 0.0052010724}
        outSlope: {x: -0.008380898, y: 0.12727366, z: 0.0052014124}
        tangentMode: 0
        weightedMode: 0
        inWeight: {x: 0.33333334, y: 0.33333334, z: 0.33333334}
        outWeight: {x: 0.33333334, y: 0.33333334, z: 0.33333334}
      - serializedVersion: 3
        time: 3.4166665
        value: {x: -0.23426336, y: 0.5939062, z: 0.0058530304}
        inSlope: {x: -0.008080081, y: 0.13114506, z: -0.014958452}
        outSlope: {x: -0.008080079, y: 0.13113698, z: -0.014958497}
        tangentMode: 0
        weightedMode: 0
        inWeight: {x: 0.33333334, y: 0.33333334, z: 0.33333334}
        outWeight: {x: 0.33333334, y: 0.33333334, z: 0.33333334}
      - serializedVersion: 3
        time: 3.4583333
        value: {x: -0.2345839, y: 0.5994373, z: 0.0044913613}
        inSlope: {x: -0.007613597, y: 0.1337179, z: -0.057201486}
        outSlope: {x: -0.007613466, y: 0.13371423, z: -0.057201557}
        tangentMode: 0
        weightedMode: 0
        inWeight: {x: 0.33333334, y: 0.33333334, z: 0.33333334}
        outWeight: {x: 0.33333334, y: 0.33333334, z: 0.33333334}
      - serializedVersion: 3
        time: 3.5
        value: {x: -0.23489757, y: 0.6050493, z: 0.0010862638}
        inSlope: {x: -0.008515913, y: 0.13503957, z: -0.09398487}
        outSlope: {x: -0.008514915, y: 0.13504818, z: -0.09398956}
        tangentMode: 0
        weightedMode: 0
        inWeight: {x: 0.33333334, y: 0.33333334, z: 0.33333334}
        outWeight: {x: 0.33333334, y: 0.33333334, z: 0.33333334}
      - serializedVersion: 3
        time: 3.5416665
        value: {x: -0.23529348, y: 0.6106911, z: -0.0033407493}
        inSlope: {x: -0.010781944, y: 0.13513538, z: -0.106229186}
        outSlope: {x: -0.01078175, y: 0.1351316, z: -0.10622442}
        tangentMode: 0
        weightedMode: 0
        inWeight: {x: 0.33333334, y: 0.33333334, z: 0.33333334}
        outWeight: {x: 0.33333334, y: 0.33333334, z: 0.33333334}
      - serializedVersion: 3
        time: 3.5833333
        value: {x: -0.23579599, y: 0.61631036, z: -0.0077658063}
        inSlope: {x: -0.01251253, y: 0.1339327, z: -0.09391244}
        outSlope: {x: -0.012514644, y: 0.13393901, z: -0.093912326}
        tangentMode: 0
        weightedMode: 0
        inWeight: {x: 0.33333334, y: 0.33333334, z: 0.33333334}
        outWeight: {x: 0.33333334, y: 0.33333334, z: 0.33333334}
      - serializedVersion: 3
        time: 3.625
        value: {x: -0.2363363, y: 0.62185216, z: -0.011166736}
        inSlope: {x: -0.011819282, y: 0.13137555, z: -0.05712311}
        outSlope: {x: -0.011821659, y: 0.13138027, z: -0.05712481}
        tangentMode: 0
        weightedMode: 0
        inWeight: {x: 0.33333334, y: 0.33333334, z: 0.33333334}
        outWeight: {x: 0.33333334, y: 0.33333334, z: 0.33333334}
      - serializedVersion: 3
        time: 3.6666665
        value: {x: -0.23678099, y: 0.6272584, z: -0.01252609}
        inSlope: {x: -0.008676156, y: 0.12744348, z: -0.004115442}
        outSlope: {x: -0.008676762, y: 0.12744041, z: -0.00411445}
        tangentMode: 0
        weightedMode: 0
        inWeight: {x: 0.33333334, y: 0.33333334, z: 0.33333334}
        outWeight: {x: 0.33333334, y: 0.33333334, z: 0.33333334}
      - serializedVersion: 3
        time: 3.7916665
        value: {x: -0.23741573, y: 0.6421153, z: -0.00529714}
        inSlope: {x: -0.0046830704, y: 0.10804426, z: 0.0900349}
        outSlope: {x: -0.0046797735, y: 0.10802799, z: 0.09003094}
        tangentMode: 0
        weightedMode: 0
        inWeight: {x: 0.33333334, y: 0.33333334, z: 0.33333334}
        outWeight: {x: 0.33333334, y: 0.33333334, z: 0.33333334}
      - serializedVersion: 3
        time: 3.8333333
        value: {x: -0.23763347, y: 0.646443, z: -0.0013839756}
        inSlope: {x: -0.0058612376, y: 0.099082, z: 0.09006409}
        outSlope: {x: -0.005863112, y: 0.09907503, z: 0.09006405}
        tangentMode: 0
        weightedMode: 0
        inWeight: {x: 0.33333334, y: 0.33333334, z: 0.33333334}
        outWeight: {x: 0.33333334, y: 0.33333334, z: 0.33333334}
      - serializedVersion: 3
        time: 3.875
        value: {x: -0.23790444, y: 0.6503717, z: 0.0022081598}
        inSlope: {x: -0.006652208, y: 0.08883858, z: 0.07462477}
        outSlope: {x: -0.006653423, y: 0.088834986, z: 0.07462778}
        tangentMode: 0
        weightedMode: 0
        inWeight: {x: 0.33333334, y: 0.33333334, z: 0.33333334}
        outWeight: {x: 0.33333334, y: 0.33333334, z: 0.33333334}
      - serializedVersion: 3
        time: 3.9166665
        value: {x: -0.2381878, y: 0.6538459, z: 0.0048347833}
        inSlope: {x: -0.0061433413, y: 0.07724699, z: 0.04374086}
        outSlope: {x: -0.006144157, y: 0.0772578, z: 0.043738235}
        tangentMode: 0
        weightedMode: 0
        inWeight: {x: 0.33333334, y: 0.33333334, z: 0.33333334}
        outWeight: {x: 0.33333334, y: 0.33333334, z: 0.33333334}
      - serializedVersion: 3
        time: 3.9583333
        value: {x: -0.2384165, y: 0.65680885, z: 0.0058530313}
        inSlope: {x: -0.004358882, y: 0.06431837, z: 0.0012999829}
        outSlope: {x: -0.004358035, y: 0.06430627, z: 0.0013005167}
        tangentMode: 0
        weightedMode: 0
        inWeight: {x: 0.33333334, y: 0.33333334, z: 0.33333334}
        outWeight: {x: 0.33333334, y: 0.33333334, z: 0.33333334}
      - serializedVersion: 3
        time: 3.9999998
        value: {x: -0.23855096, y: 0.6592047, z: 0.004943104}
        inSlope: {x: -0.0024724777, y: 0.05006758, z: -0.03908478}
        outSlope: {x: -0.0024718174, y: 0.05006893, z: -0.039086822}
        tangentMode: 0
        weightedMode: 0
        inWeight: {x: 0.33333334, y: 0.33333334, z: 0.33333334}
        outWeight: {x: 0.33333334, y: 0.33333334, z: 0.33333334}
      - serializedVersion: 3
        time: 4.041667
        value: {x: -0.2386225, y: 0.6609812, z: 0.0025959392}
        inSlope: {x: -0.0015475779, y: 0.03459228, z: -0.06668768}
        outSlope: {x: -0.0015442388, y: 0.034587007, z: -0.06668446}
        tangentMode: 0
        weightedMode: 0
        inWeight: {x: 0.33333334, y: 0.33333334, z: 0.33333334}
        outWeight: {x: 0.33333334, y: 0.33333334, z: 0.33333334}
      - serializedVersion: 3
        time: 4.0833335
        value: {x: -0.23867977, y: 0.6620871, z: -0.00061406486}
        inSlope: {x: -0.0015355194, y: 0.01786331, z: -0.080483675}
        outSlope: {x: -0.0015390071, y: 0.017868457, z: -0.0804835}
        tangentMode: 0
        weightedMode: 0
        inWeight: {x: 0.33333334, y: 0.33333334, z: 0.33333334}
        outWeight: {x: 0.33333334, y: 0.33333334, z: 0.33333334}
      - serializedVersion: 3
        time: 4.125
        value: {x: -0.23875056, y: 0.6624704, z: -0.004111283}
        inSlope: {x: -0.00176571, y: 0.004989991, z: -0.08046682}
        outSlope: {x: -0.0017668887, y: 0.0049931607, z: -0.08047061}
        tangentMode: 0
        weightedMode: 0
        inWeight: {x: 0.33333334, y: 0.33333334, z: 0.33333334}
        outWeight: {x: 0.33333334, y: 0.33333334, z: 0.33333334}
      - serializedVersion: 3
        time: 4.2083335
        value: {x: -0.23886567, y: 0.66257405, z: -0.009664899}
        inSlope: {x: 0.00027786373, y: 0.0018853829, z: -0.039046757}
        outSlope: {x: 0.00027385252, y: 0.001883203, z: -0.039047748}
        tangentMode: 0
        weightedMode: 0
        inWeight: {x: 0.33333334, y: 0.33333334, z: 0.33333334}
        outWeight: {x: 0.33333334, y: 0.33333334, z: 0.33333334}
      - serializedVersion: 3
        time: 4.291667
        value: {x: -0.23864974, y: 0.6627354, z: -0.010531436}
        inSlope: {x: 0.0041754916, y: 0.0015011915, z: 0.001983499}
        outSlope: {x: 0.004174035, y: 0.0014889145, z: 0.0019831525}
        tangentMode: 0
        weightedMode: 0
        inWeight: {x: 0.33333334, y: 0.33333334, z: 0.33333334}
        outWeight: {x: 0.33333334, y: 0.33333334, z: 0.33333334}
      - serializedVersion: 3
        time: 4.791667
        value: {x: -0.23480834, y: 0.6329117, z: -0.0055827424}
        inSlope: {x: 0.00890448, y: -0.1654035, z: 0.014055065}
        outSlope: {x: 0.008902686, y: -0.16539615, z: 0.014054332}
        tangentMode: 0
        weightedMode: 0
        inWeight: {x: 0.33333334, y: 0.33333334, z: 0.33333334}
        outWeight: {x: 0.33333334, y: 0.33333334, z: 0.33333334}
      - serializedVersion: 3
        time: 5.291667
        value: {x: -0.23166332, y: 0.5560777, z: -0.00016555176}
        inSlope: {x: 0.0020493048, y: -0.062393397, z: 0.0038443762}
        outSlope: {x: 0.0020484128, y: -0.062386487, z: 0.003844189}
        tangentMode: 0
        weightedMode: 0
        inWeight: {x: 0.33333334, y: 0.33333334, z: 0.33333334}
        outWeight: {x: 0.33333334, y: 0.33333334, z: 0.33333334}
      - serializedVersion: 3
        time: 5.3333335
        value: {x: -0.23159797, y: 0.55406564, z: -0.000042462954}
        inSlope: {x: 0.001052228, y: -0.032553263, z: 0.0019865208}
        outSlope: {x: 0.0010515961, y: -0.0325544, z: 0.0019865849}
        tangentMode: 0
        weightedMode: 0
        inWeight: {x: 0.33333334, y: 0.33333334, z: 0.33333334}
        outWeight: {x: 0.33333334, y: 0.33333334, z: 0.33333334}
      - serializedVersion: 3
        time: 5.375
        value: {x: -0.23157552, y: 0.5533646, z: -1.3601738e-18}
        inSlope: {x: 0.00053715496, y: -0.016820349, z: 0.0010190925}
        outSlope: {x: 0.00053715496, y: -0.016820349, z: 0.0010190925}
        tangentMode: 0
        weightedMode: 0
        inWeight: {x: 0.33333334, y: 0.33333334, z: 0.33333334}
        outWeight: {x: 0.33333334, y: 0.33333334, z: 0.33333334}
      m_PreInfinity: 2
      m_PostInfinity: 2
      m_RotationOrder: 4
    path: main_joint/right_joint
  m_ScaleCurves:
  - curve:
      serializedVersion: 2
      m_Curve:
      - serializedVersion: 3
        time: 0
        value: {x: 1, y: 1, z: 1}
        inSlope: {x: 0, y: 0, z: 0}
        outSlope: {x: 0, y: 0, z: 0}
        tangentMode: 0
        weightedMode: 0
        inWeight: {x: 0.33333334, y: 0.33333334, z: 0.33333334}
        outWeight: {x: 0.33333334, y: 0.33333334, z: 0.33333334}
      - serializedVersion: 3
        time: 5.3750005
        value: {x: 1, y: 1, z: 1}
        inSlope: {x: 0, y: 0, z: 0}
        outSlope: {x: 0, y: 0, z: 0}
        tangentMode: 0
        weightedMode: 0
        inWeight: {x: 0.33333334, y: 0.33333334, z: 0.33333334}
        outWeight: {x: 0.33333334, y: 0.33333334, z: 0.33333334}
      m_PreInfinity: 2
      m_PostInfinity: 2
      m_RotationOrder: 4
    path: main_joint/left_joint
  - curve:
      serializedVersion: 2
      m_Curve:
      - serializedVersion: 3
        time: 0
        value: {x: 1, y: 1, z: 1}
        inSlope: {x: 0, y: 0, z: 0}
        outSlope: {x: 0, y: 0, z: 0}
        tangentMode: 0
        weightedMode: 0
        inWeight: {x: 0.33333334, y: 0.33333334, z: 0.33333334}
        outWeight: {x: 0.33333334, y: 0.33333334, z: 0.33333334}
      - serializedVersion: 3
        time: 5.3750005
        value: {x: 1, y: 1, z: 1}
        inSlope: {x: 0, y: 0, z: 0}
        outSlope: {x: 0, y: 0, z: 0}
        tangentMode: 0
        weightedMode: 0
        inWeight: {x: 0.33333334, y: 0.33333334, z: 0.33333334}
        outWeight: {x: 0.33333334, y: 0.33333334, z: 0.33333334}
      m_PreInfinity: 2
      m_PostInfinity: 2
      m_RotationOrder: 4
    path: main_joint/right_joint
  m_FloatCurves: []
  m_PPtrCurves: []
  m_SampleRate: 24
  m_WrapMode: 0
  m_Bounds:
    m_Center: {x: 0, y: 0, z: 0}
    m_Extent: {x: 0, y: 0, z: 0}
  m_ClipBindingConstant:
    genericBindings: []
    pptrCurveMapping: []
  m_AnimationClipSettings:
    serializedVersion: 2
    m_AdditiveReferencePoseClip: {fileID: 0}
    m_AdditiveReferencePoseTime: 0
    m_StartTime: 0
    m_StopTime: 5.3750005
    m_OrientationOffsetY: 0
    m_Level: 0
    m_CycleOffset: 0
    m_HasAdditiveReferencePose: 0
    m_LoopTime: 0
    m_LoopBlend: 0
    m_LoopBlendOrientation: 0
    m_LoopBlendPositionY: 0
    m_LoopBlendPositionXZ: 0
    m_KeepOriginalOrientation: 0
    m_KeepOriginalPositionY: 1
    m_KeepOriginalPositionXZ: 0
    m_HeightFromFeet: 0
    m_Mirror: 0
  m_EditorCurves: []
  m_EulerEditorCurves: []
  m_HasGenericRootTransform: 0
  m_HasMotionFloatCurves: 0
  m_Events: []
