%YAML 1.1
%TAG !u! tag:unity3d.com,2011:
--- !u!687078895 &4343727234628468602
SpriteAtlas:
  m_ObjectHideFlags: 0
  m_CorrespondingSourceObject: {fileID: 0}
  m_PrefabInstance: {fileID: 0}
  m_PrefabAsset: {fileID: 0}
  m_Name: StickerSpriteAtlas
  m_EditorData:
    serializedVersion: 2
    textureSettings:
      serializedVersion: 2
      anisoLevel: 1
      compressionQuality: 50
      maxTextureSize: 2048
      textureCompression: 0
      filterMode: 1
      generateMipMaps: 0
      readable: 0
      crunchedCompression: 0
      sRGB: 1
    platformSettings:
    - serializedVersion: 2
      m_BuildTarget: DefaultTexturePlatform
      m_MaxTextureSize: 4096
      m_ResizeAlgorithm: 0
      m_TextureFormat: -1
      m_TextureCompression: 1
      m_CompressionQuality: 50
      m_CrunchedCompression: 0
      m_AllowsAlphaSplitting: 0
      m_Overridden: 0
      m_AndroidETC2FallbackOverride: 0
    - serializedVersion: 2
      m_BuildTarget: Android
      m_MaxTextureSize: 4096
      m_ResizeAlgorithm: 0
      m_TextureFormat: 47
      m_TextureCompression: 1
      m_CompressionQuality: 50
      m_CrunchedCompression: 0
      m_AllowsAlphaSplitting: 0
      m_Overridden: 1
      m_AndroidETC2FallbackOverride: 0
    packingSettings:
      serializedVersion: 2
      padding: 4
      blockOffset: 1
      allowAlphaSplitting: 0
      enableRotation: 0
      enableTightPacking: 0
    variantMultiplier: 1
    packables:
    - {fileID: 102900000, guid: 193d8a0b5abf2614593b19dda00f74e7, type: 3}
    - {fileID: 102900000, guid: 0069faafbf01b0f429091f3f1da3f69c, type: 3}
    totalSpriteSurfaceArea: 5291526
    bindAsDefault: 1
  m_MasterAtlas: {fileID: 0}
  m_PackedSprites:
  - {fileID: 21300000, guid: ba3ca0a0cefe4b1499ba28cac81657f0, type: 3}
  - {fileID: 21300000, guid: bad6c3a04fdd20d4692ddf867d166063, type: 3}
  - {fileID: 21300000, guid: 3af0450101372dd4a92ce8b65b53692d, type: 3}
  - {fileID: 21300000, guid: 88411f018b1e3e942b2802678e05b5b9, type: 3}
  - {fileID: 21300000, guid: 09a71c51c407e54449a1608942b9265f, type: 3}
  - {fileID: 21300000, guid: 1064b8c15f1401b409265aa8ed02faa8, type: 3}
  - {fileID: 21300000, guid: 9b4f4c0263cfb604ca87430b9d3db0f6, type: 3}
  - {fileID: 21300000, guid: 0951764257d36b243b04dc2df70d1d3b, type: 3}
  - {fileID: 21300000, guid: 26f521a27ce47e14da8ddc497f7b7c0b, type: 3}
  - {fileID: 21300000, guid: 970137c25fef3ea45b9ad34f2c31538b, type: 3}
  - {fileID: 21300000, guid: df10bce2c8a569241bc4d83db719cb46, type: 3}
  - {fileID: 21300000, guid: d85726f25b270f94389e5ce4f322e85f, type: 3}
  - {fileID: 21300000, guid: 2b897163b77577b46993354aedab3041, type: 3}
  - {fileID: 21300000, guid: a732b073ef5498041828c9661ca9e9f0, type: 3}
  - {fileID: 21300000, guid: 63d144c3e77cc5746945690de578f8fd, type: 3}
  - {fileID: 21300000, guid: 9f2b32d3312aee5449dfa5afaeca9d68, type: 3}
  - {fileID: 21300000, guid: 3031f204a307ba846b85bcac73ccac0a, type: 3}
  - {fileID: 21300000, guid: 3e5db31458128f444ad5a97edada4cb8, type: 3}
  - {fileID: 21300000, guid: 82d3c034ea0040740be7f0af6a4f2857, type: 3}
  - {fileID: 21300000, guid: 38293b64c38d85c4da69380c75ae0efe, type: 3}
  - {fileID: 21300000, guid: 318f9e841533e9f49a3978b5472980dd, type: 3}
  - {fileID: 21300000, guid: 6e68b5c41e9a92f4589e8c5a663d3fb6, type: 3}
  - {fileID: 21300000, guid: e3528cc478614d748b1b241fa2485205, type: 3}
  - {fileID: 21300000, guid: 5a5dadc40158ee04c9339a46d4e44dbf, type: 3}
  - {fileID: 21300000, guid: b466a2051d850ef43929de430a2c4aa9, type: 3}
  - {fileID: 21300000, guid: 936c3115936e6b04f8dc8ddf56028c44, type: 3}
  - {fileID: 21300000, guid: b0563f56e3d95f349b4a5f3b2ab890cf, type: 3}
  - {fileID: 21300000, guid: b15dc396426096049beb6b05c317e79e, type: 3}
  - {fileID: 21300000, guid: ee371e279165b7446b034ce454e7d883, type: 3}
  - {fileID: 21300000, guid: f2ece347b2ce24c4ebc8460b2716000b, type: 3}
  - {fileID: 21300000, guid: 8827db6747d8f3143a35afa9a5653a33, type: 3}
  - {fileID: 21300000, guid: 154d68777c44c2b45a57e449da0183a1, type: 3}
  - {fileID: 21300000, guid: 4f623f77990e17244ad0114c7f8a0b6c, type: 3}
  - {fileID: 21300000, guid: 2aa736d72c86c184ba72df0aa71f5940, type: 3}
  - {fileID: 21300000, guid: 959ef5e726bf1cf4eb08d54b64e706d5, type: 3}
  - {fileID: 21300000, guid: 7468d9e7a7dcc114690e9ffe1d1eafc6, type: 3}
  - {fileID: 21300000, guid: 14212518f4193b94593c5a6512066935, type: 3}
  - {fileID: 21300000, guid: 1f0c9928ddf7ca846b5da67281e468fd, type: 3}
  - {fileID: 21300000, guid: 2f7d2f88c906c98479cc1a15ba9e513d, type: 3}
  - {fileID: 21300000, guid: f13120b8036ef664c93b6e8c2eacc380, type: 3}
  - {fileID: 21300000, guid: 1bdab709712858845bcd24e24274593b, type: 3}
  - {fileID: 21300000, guid: c006e709caa0de74889c37b274e21008, type: 3}
  - {fileID: 21300000, guid: ebbb19295b0b6ec4382dcd4faffb1f6c, type: 3}
  - {fileID: 21300000, guid: 2c3f1569b4079884ca2493bde38bc4de, type: 3}
  - {fileID: 21300000, guid: 31e0be798b6ea1244826623f9ed9ac1a, type: 3}
  - {fileID: 21300000, guid: e55d68890b36deb4aafc16532c4c7b7c, type: 3}
  - {fileID: 21300000, guid: f8a60b6a9333d6445a7a8747d416a142, type: 3}
  - {fileID: 21300000, guid: 2b8c667a25bf0a14eb8e763f297b97bd, type: 3}
  - {fileID: 21300000, guid: b13bb49a9ef159f45a98e25154f78a85, type: 3}
  - {fileID: 21300000, guid: 481395aac04ac6944b7393c6c0877433, type: 3}
  - {fileID: 21300000, guid: c1a493bad3e316449a8f97417a19e6ae, type: 3}
  - {fileID: 21300000, guid: 125598eacd51c6e4b893ada85f103ed2, type: 3}
  - {fileID: 21300000, guid: c38f487b711b32544be0af42532afe99, type: 3}
  - {fileID: 21300000, guid: 42c89aab49435a144998416be7c65fa9, type: 3}
  - {fileID: 21300000, guid: 99adf3cb3e47b1f4681b8f1124b162d4, type: 3}
  - {fileID: 21300000, guid: ff3a74fbd7b24434b86d97b4a3bf32e9, type: 3}
  - {fileID: 21300000, guid: b4aa7b0c7da0a6f4a9e71400d24ecca5, type: 3}
  - {fileID: 21300000, guid: 1c878a6c441c30e43a81ec35481e1a8a, type: 3}
  - {fileID: 21300000, guid: d522139cc1fe676479fe7731522f7a9b, type: 3}
  - {fileID: 21300000, guid: 03447d9c0f1e7884eb9e72226b308983, type: 3}
  - {fileID: 21300000, guid: 8846c7fc912685b4bb2cc7110cd8fbcc, type: 3}
  - {fileID: 21300000, guid: ee35470d2258e3b468ebcf31e4dacb64, type: 3}
  - {fileID: 21300000, guid: 50826b0d4b921c74eae57c1ece3ffa74, type: 3}
  - {fileID: 21300000, guid: f62d713d508532b49bd3e2a051913d46, type: 3}
  - {fileID: 21300000, guid: dfeaa06e862dc7540b76320668fa2e9e, type: 3}
  - {fileID: 21300000, guid: 767f769ed6182b3409213af3ac572068, type: 3}
  - {fileID: 21300000, guid: 2f24cdaed9a2b0b47abb15d7dc89396a, type: 3}
  - {fileID: 21300000, guid: 8e8aa2ee80eeac74aa1082890b75f354, type: 3}
  - {fileID: 21300000, guid: 36014aeee29e9e444a275485092883be, type: 3}
  - {fileID: 21300000, guid: d1d2e73fc164b12458df1895bf01553a, type: 3}
  - {fileID: 21300000, guid: 9d877e9fbecc4c042a4704ad194a197d, type: 3}
  - {fileID: 21300000, guid: 3d3c9aef2106bb04ebfc3fa9ad203c3f, type: 3}
  m_PackedSpriteNamesToIndex:
  - stickers_fireplace
  - stbook_lowercorner_layer2
  - sticker_generic_duck
  - stickers_cottage
  - stbook_middle_base
  - sticker_virgo
  - stickers_jetpack_bun
  - stickers_excalibur
  - stickers_radio_dish
  - stickers_planet
  - inventory_key
  - scrollbar_v2
  - stickers_butterfly
  - stickers_star_armillarything
  - stickers_cauldron
  - sticker_sonic
  - stickers_tent
  - stickers_star_book
  - stbook_middle_layer2
  - stickers_alien_jump
  - stickers_wizard
  - stbook_uppercorner_base
  - stickers_alien_shocked
  - stickers_unicorn
  - scrollbar01
  - stickers_cloud_pink
  - stickers_cancer
  - stbook_uppercorner_layer2
  - stickers_star_professor
  - sticker_gemini
  - stickers_rocket
  - stickers_tutorial_sticker
  - stickers_sputnik
  - stickers_sagittarius
  - stickers_epic
  - stickers_gondola
  - stickers_beetle
  - stickers_observatorium
  - stickers_dino
  - stickers_scorpio
  - stickers_abducted
  - stickers_wisp
  - stickers_astronaut_dab
  - stbook_lowercorner_base
  - stickers_key
  - stickers_ukulele
  - stickers_cornhorn
  - stickers_hotairballoon
  - stickers_chest
  - inventory_cornhorn
  - stickers_reindeer
  - stickers_flowerbun
  - stickers_dwagon
  - stickers_cloud
  - stickers_wolf
  - stickers_minecart
  - stickers_rover
  - stickers_sun
  - stickers_capricorn
  - stickers_ufo_pupu
  - sticker_comet
  - stickers_rainbow
  - stickers_swing
  - stickers_star_starstack
  - stickers_satellite
  - stickers_kettle
  - stickers_present_scaled
  - stickers_astronaut_floating
  - stickers_magic_carpet
  - stickers_star_sitting_star
  - stickers_fox
  - stickers_fishbucket
  m_Tag: StickerSpriteAtlas
  m_IsVariant: 0
