%YAML 1.1
%TAG !u! tag:unity3d.com,2011:
--- !u!114 &11400000
MonoBehaviour:
  m_ObjectHideFlags: 0
  m_CorrespondingSourceObject: {fileID: 0}
  m_PrefabInstance: {fileID: 0}
  m_PrefabAsset: {fileID: 0}
  m_GameObject: {fileID: 0}
  m_Enabled: 1
  m_EditorHideFlags: 0
  m_Script: {fileID: 11500000, guid: bda57cbc8492e964495fbb7b0874bad2, type: 3}
  m_Name: Mountain_ukulele_counter
  m_EditorClassIdentifier: 
  maxCount: 6
  rewardSticker: {fileID: 11400000, guid: 32c22dcb00f02ca4a97760d27baa1b68, type: 2}
