%YAML 1.1
%TAG !u! tag:unity3d.com,2011:
--- !u!1 &37487760770923655
GameObject:
  m_ObjectHideFlags: 0
  m_CorrespondingSourceObject: {fileID: 0}
  m_PrefabInstance: {fileID: 0}
  m_PrefabAsset: {fileID: 0}
  serializedVersion: 6
  m_Component:
  - component: {fileID: 4297317305858876422}
  m_Layer: 0
  m_Name: boat
  m_TagString: Untagged
  m_Icon: {fileID: 0}
  m_NavMeshLayer: 0
  m_StaticEditorFlags: 0
  m_IsActive: 1
--- !u!4 &4297317305858876422
Transform:
  m_ObjectHideFlags: 0
  m_CorrespondingSourceObject: {fileID: 0}
  m_PrefabInstance: {fileID: 0}
  m_PrefabAsset: {fileID: 0}
  m_GameObject: {fileID: 37487760770923655}
  m_LocalRotation: {x: 0, y: 0, z: 0, w: 1}
  m_LocalPosition: {x: -7.61, y: 1.04, z: 9.77}
  m_LocalScale: {x: 1, y: 1, z: 1}
  m_Children:
  - {fileID: 1321968831637654835}
  m_Father: {fileID: 0}
  m_RootOrder: 0
  m_LocalEulerAnglesHint: {x: 0, y: 0, z: 0}
--- !u!1001 &1321968831637264307
PrefabInstance:
  m_ObjectHideFlags: 0
  serializedVersion: 2
  m_Modification:
    m_TransformParent: {fileID: 4297317305858876422}
    m_Modifications:
    - target: {fileID: 100000, guid: 6ef55a46487d92443971b8780415fddf, type: 3}
      propertyPath: m_Name
      value: boat
      objectReference: {fileID: 0}
    - target: {fileID: 400000, guid: 6ef55a46487d92443971b8780415fddf, type: 3}
      propertyPath: m_LocalPosition.x
      value: -0.01999998
      objectReference: {fileID: 0}
    - target: {fileID: 400000, guid: 6ef55a46487d92443971b8780415fddf, type: 3}
      propertyPath: m_LocalPosition.y
      value: 0.18000007
      objectReference: {fileID: 0}
    - target: {fileID: 400000, guid: 6ef55a46487d92443971b8780415fddf, type: 3}
      propertyPath: m_LocalPosition.z
      value: 0.029999733
      objectReference: {fileID: 0}
    - target: {fileID: 400000, guid: 6ef55a46487d92443971b8780415fddf, type: 3}
      propertyPath: m_LocalRotation.x
      value: -0
      objectReference: {fileID: 0}
    - target: {fileID: 400000, guid: 6ef55a46487d92443971b8780415fddf, type: 3}
      propertyPath: m_LocalRotation.y
      value: -0
      objectReference: {fileID: 0}
    - target: {fileID: 400000, guid: 6ef55a46487d92443971b8780415fddf, type: 3}
      propertyPath: m_LocalRotation.z
      value: -0
      objectReference: {fileID: 0}
    - target: {fileID: 400000, guid: 6ef55a46487d92443971b8780415fddf, type: 3}
      propertyPath: m_LocalRotation.w
      value: 1
      objectReference: {fileID: 0}
    - target: {fileID: 400000, guid: 6ef55a46487d92443971b8780415fddf, type: 3}
      propertyPath: m_RootOrder
      value: 0
      objectReference: {fileID: 0}
    - target: {fileID: 400000, guid: 6ef55a46487d92443971b8780415fddf, type: 3}
      propertyPath: m_LocalEulerAnglesHint.x
      value: 0
      objectReference: {fileID: 0}
    - target: {fileID: 400000, guid: 6ef55a46487d92443971b8780415fddf, type: 3}
      propertyPath: m_LocalEulerAnglesHint.y
      value: 0
      objectReference: {fileID: 0}
    - target: {fileID: 400000, guid: 6ef55a46487d92443971b8780415fddf, type: 3}
      propertyPath: m_LocalEulerAnglesHint.z
      value: 0
      objectReference: {fileID: 0}
    - target: {fileID: 2300000, guid: 6ef55a46487d92443971b8780415fddf, type: 3}
      propertyPath: m_Materials.Array.data[0]
      value: 
      objectReference: {fileID: 2100000, guid: 81efb89bf504e2c45a4fc338a22e8d73, type: 2}
    - target: {fileID: 2300002, guid: 6ef55a46487d92443971b8780415fddf, type: 3}
      propertyPath: m_Materials.Array.data[0]
      value: 
      objectReference: {fileID: 2100000, guid: 3d2723c1c936b094e915367b2db79243, type: 2}
    - target: {fileID: 2300004, guid: 6ef55a46487d92443971b8780415fddf, type: 3}
      propertyPath: m_Materials.Array.data[0]
      value: 
      objectReference: {fileID: 2100000, guid: 3d2723c1c936b094e915367b2db79243, type: 2}
    m_RemovedComponents: []
  m_SourcePrefab: {fileID: 100100000, guid: 6ef55a46487d92443971b8780415fddf, type: 3}
--- !u!4 &1321968831637654835 stripped
Transform:
  m_CorrespondingSourceObject: {fileID: 400000, guid: 6ef55a46487d92443971b8780415fddf,
    type: 3}
  m_PrefabInstance: {fileID: 1321968831637264307}
  m_PrefabAsset: {fileID: 0}
