%YAML 1.1
%TAG !u! tag:unity3d.com,2011:
--- !u!1 &7811382623465025706
GameObject:
  m_ObjectHideFlags: 0
  m_CorrespondingSourceObject: {fileID: 0}
  m_PrefabInstance: {fileID: 0}
  m_PrefabAsset: {fileID: 0}
  serializedVersion: 6
  m_Component:
  - component: {fileID: 7811382623465025705}
  m_Layer: 0
  m_Name: treestump
  m_TagString: Untagged
  m_Icon: {fileID: 0}
  m_NavMeshLayer: 0
  m_StaticEditorFlags: 0
  m_IsActive: 1
--- !u!4 &7811382623465025705
Transform:
  m_ObjectHideFlags: 0
  m_CorrespondingSourceObject: {fileID: 0}
  m_PrefabInstance: {fileID: 0}
  m_PrefabAsset: {fileID: 0}
  m_GameObject: {fileID: 7811382623465025706}
  m_LocalRotation: {x: 0, y: 0, z: 0, w: 1}
  m_LocalPosition: {x: -27.147, y: -3.624, z: 10.787}
  m_LocalScale: {x: 1, y: 1, z: 1}
  m_Children:
  - {fileID: 7811382623915187440}
  m_Father: {fileID: 0}
  m_RootOrder: 0
  m_LocalEulerAnglesHint: {x: 0, y: 0, z: 0}
--- !u!1001 &7811382623914788464
PrefabInstance:
  m_ObjectHideFlags: 0
  serializedVersion: 2
  m_Modification:
    m_TransformParent: {fileID: 7811382623465025705}
    m_Modifications:
    - target: {fileID: 100000, guid: 81ea3679e1cd6f844b8b825c9e389246, type: 3}
      propertyPath: m_Name
      value: treestump
      objectReference: {fileID: 0}
    - target: {fileID: 400000, guid: 81ea3679e1cd6f844b8b825c9e389246, type: 3}
      propertyPath: m_LocalPosition.x
      value: 0.0069999695
      objectReference: {fileID: 0}
    - target: {fileID: 400000, guid: 81ea3679e1cd6f844b8b825c9e389246, type: 3}
      propertyPath: m_LocalPosition.y
      value: 0.016177654
      objectReference: {fileID: 0}
    - target: {fileID: 400000, guid: 81ea3679e1cd6f844b8b825c9e389246, type: 3}
      propertyPath: m_LocalPosition.z
      value: 0.024000168
      objectReference: {fileID: 0}
    - target: {fileID: 400000, guid: 81ea3679e1cd6f844b8b825c9e389246, type: 3}
      propertyPath: m_LocalRotation.x
      value: -0
      objectReference: {fileID: 0}
    - target: {fileID: 400000, guid: 81ea3679e1cd6f844b8b825c9e389246, type: 3}
      propertyPath: m_LocalRotation.y
      value: -0
      objectReference: {fileID: 0}
    - target: {fileID: 400000, guid: 81ea3679e1cd6f844b8b825c9e389246, type: 3}
      propertyPath: m_LocalRotation.z
      value: -0
      objectReference: {fileID: 0}
    - target: {fileID: 400000, guid: 81ea3679e1cd6f844b8b825c9e389246, type: 3}
      propertyPath: m_LocalRotation.w
      value: 1
      objectReference: {fileID: 0}
    - target: {fileID: 400000, guid: 81ea3679e1cd6f844b8b825c9e389246, type: 3}
      propertyPath: m_RootOrder
      value: 0
      objectReference: {fileID: 0}
    - target: {fileID: 400000, guid: 81ea3679e1cd6f844b8b825c9e389246, type: 3}
      propertyPath: m_LocalEulerAnglesHint.x
      value: 0
      objectReference: {fileID: 0}
    - target: {fileID: 400000, guid: 81ea3679e1cd6f844b8b825c9e389246, type: 3}
      propertyPath: m_LocalEulerAnglesHint.y
      value: 0
      objectReference: {fileID: 0}
    - target: {fileID: 400000, guid: 81ea3679e1cd6f844b8b825c9e389246, type: 3}
      propertyPath: m_LocalEulerAnglesHint.z
      value: 0
      objectReference: {fileID: 0}
    - target: {fileID: 2300000, guid: 81ea3679e1cd6f844b8b825c9e389246, type: 3}
      propertyPath: m_Materials.Array.data[0]
      value: 
      objectReference: {fileID: 2100000, guid: 3d2723c1c936b094e915367b2db79243, type: 2}
    m_RemovedComponents: []
  m_SourcePrefab: {fileID: 100100000, guid: 81ea3679e1cd6f844b8b825c9e389246, type: 3}
--- !u!4 &7811382623915187440 stripped
Transform:
  m_CorrespondingSourceObject: {fileID: 400000, guid: 81ea3679e1cd6f844b8b825c9e389246,
    type: 3}
  m_PrefabInstance: {fileID: 7811382623914788464}
  m_PrefabAsset: {fileID: 0}
