%YAML 1.1
%TAG !u! tag:unity3d.com,2011:
--- !u!114 &11400000
MonoBehaviour:
  m_ObjectHideFlags: 0
  m_CorrespondingSourceObject: {fileID: 0}
  m_PrefabInstance: {fileID: 0}
  m_PrefabAsset: {fileID: 0}
  m_GameObject: {fileID: 0}
  m_Enabled: 1
  m_EditorHideFlags: 0
  m_Script: {fileID: 11500000, guid: 2f336a7bcd22fc54994742a472c218dd, type: 3}
  m_Name: Sticker_Space_alien_jump
  m_EditorClassIdentifier: 
  world: 3
  icon: {fileID: 21300000, guid: 38293b64c38d85c4da69380c75ae0efe, type: 3}
  repeatable: 0
