%YAML 1.1
%TAG !u! tag:unity3d.com,2011:
--- !u!29 &1
OcclusionCullingSettings:
  m_ObjectHideFlags: 0
  serializedVersion: 2
  m_OcclusionBakeSettings:
    smallestOccluder: 5
    smallestHole: 0.25
    backfaceThreshold: 100
  m_SceneGUID: 00000000000000000000000000000000
  m_OcclusionCullingData: {fileID: 0}
--- !u!104 &2
RenderSettings:
  m_ObjectHideFlags: 0
  serializedVersion: 9
  m_Fog: 0
  m_FogColor: {r: 0.5, g: 0.5, b: 0.5, a: 1}
  m_FogMode: 3
  m_FogDensity: 0.01
  m_LinearFogStart: 0
  m_LinearFogEnd: 300
  m_AmbientSkyColor: {r: 0.212, g: 0.227, b: 0.259, a: 1}
  m_AmbientEquatorColor: {r: 0.114, g: 0.125, b: 0.133, a: 1}
  m_AmbientGroundColor: {r: 0.047, g: 0.043, b: 0.035, a: 1}
  m_AmbientIntensity: 1
  m_AmbientMode: 0
  m_SubtractiveShadowColor: {r: 0.42, g: 0.478, b: 0.627, a: 1}
  m_SkyboxMaterial: {fileID: 10304, guid: 0000000000000000f000000000000000, type: 0}
  m_HaloStrength: 0.5
  m_FlareStrength: 1
  m_FlareFadeSpeed: 3
  m_HaloTexture: {fileID: 0}
  m_SpotCookie: {fileID: 10001, guid: 0000000000000000e000000000000000, type: 0}
  m_DefaultReflectionMode: 0
  m_DefaultReflectionResolution: 128
  m_ReflectionBounces: 1
  m_ReflectionIntensity: 1
  m_CustomReflection: {fileID: 0}
  m_Sun: {fileID: 0}
  m_IndirectSpecularColor: {r: 0.12731715, g: 0.13414736, b: 0.12107852, a: 1}
  m_UseRadianceAmbientProbe: 0
--- !u!157 &3
LightmapSettings:
  m_ObjectHideFlags: 0
  serializedVersion: 11
  m_GIWorkflowMode: 0
  m_GISettings:
    serializedVersion: 2
    m_BounceScale: 1
    m_IndirectOutputScale: 1
    m_AlbedoBoost: 1
    m_EnvironmentLightingMode: 0
    m_EnableBakedLightmaps: 1
    m_EnableRealtimeLightmaps: 0
  m_LightmapEditorSettings:
    serializedVersion: 10
    m_Resolution: 2
    m_BakeResolution: 10
    m_AtlasSize: 512
    m_AO: 0
    m_AOMaxDistance: 1
    m_CompAOExponent: 1
    m_CompAOExponentDirect: 0
    m_Padding: 2
    m_LightmapParameters: {fileID: 0}
    m_LightmapsBakeMode: 1
    m_TextureCompression: 1
    m_FinalGather: 0
    m_FinalGatherFiltering: 1
    m_FinalGatherRayCount: 256
    m_ReflectionCompression: 2
    m_MixedBakeMode: 2
    m_BakeBackend: 1
    m_PVRSampling: 1
    m_PVRDirectSampleCount: 32
    m_PVRSampleCount: 256
    m_PVRBounces: 2
    m_PVRFilterTypeDirect: 0
    m_PVRFilterTypeIndirect: 0
    m_PVRFilterTypeAO: 0
    m_PVRFilteringMode: 1
    m_PVRCulling: 1
    m_PVRFilteringGaussRadiusDirect: 1
    m_PVRFilteringGaussRadiusIndirect: 5
    m_PVRFilteringGaussRadiusAO: 2
    m_PVRFilteringAtrousPositionSigmaDirect: 0.5
    m_PVRFilteringAtrousPositionSigmaIndirect: 2
    m_PVRFilteringAtrousPositionSigmaAO: 1
    m_ShowResolutionOverlay: 1
  m_LightingDataAsset: {fileID: 0}
  m_UseShadowmask: 1
--- !u!196 &4
NavMeshSettings:
  serializedVersion: 2
  m_ObjectHideFlags: 0
  m_BuildSettings:
    serializedVersion: 2
    agentTypeID: 0
    agentRadius: 0.5
    agentHeight: 2
    agentSlope: 45
    agentClimb: 0.4
    ledgeDropHeight: 0
    maxJumpAcrossDistance: 0
    minRegionArea: 2
    manualCellSize: 0
    cellSize: 0.16666667
    manualTileSize: 0
    tileSize: 256
    accuratePlacement: 0
    debug:
      m_Flags: 0
  m_NavMeshData: {fileID: 0}
--- !u!1001 &123203537
PrefabInstance:
  m_ObjectHideFlags: 0
  serializedVersion: 2
  m_Modification:
    m_TransformParent: {fileID: 0}
    m_Modifications:
    - target: {fileID: 2652251526979196399, guid: 205da4a5f32b3dc4eace68a91d59ccf5,
        type: 3}
      propertyPath: m_Name
      value: GameController
      objectReference: {fileID: 0}
    - target: {fileID: 2652251526979196399, guid: 205da4a5f32b3dc4eace68a91d59ccf5,
        type: 3}
      propertyPath: m_IsActive
      value: 1
      objectReference: {fileID: 0}
    - target: {fileID: 2652251526979196401, guid: 205da4a5f32b3dc4eace68a91d59ccf5,
        type: 3}
      propertyPath: m_LocalPosition.x
      value: 0
      objectReference: {fileID: 0}
    - target: {fileID: 2652251526979196401, guid: 205da4a5f32b3dc4eace68a91d59ccf5,
        type: 3}
      propertyPath: m_LocalPosition.y
      value: 0
      objectReference: {fileID: 0}
    - target: {fileID: 2652251526979196401, guid: 205da4a5f32b3dc4eace68a91d59ccf5,
        type: 3}
      propertyPath: m_LocalPosition.z
      value: 0
      objectReference: {fileID: 0}
    - target: {fileID: 2652251526979196401, guid: 205da4a5f32b3dc4eace68a91d59ccf5,
        type: 3}
      propertyPath: m_LocalRotation.x
      value: 0
      objectReference: {fileID: 0}
    - target: {fileID: 2652251526979196401, guid: 205da4a5f32b3dc4eace68a91d59ccf5,
        type: 3}
      propertyPath: m_LocalRotation.y
      value: 0
      objectReference: {fileID: 0}
    - target: {fileID: 2652251526979196401, guid: 205da4a5f32b3dc4eace68a91d59ccf5,
        type: 3}
      propertyPath: m_LocalRotation.z
      value: 0
      objectReference: {fileID: 0}
    - target: {fileID: 2652251526979196401, guid: 205da4a5f32b3dc4eace68a91d59ccf5,
        type: 3}
      propertyPath: m_LocalRotation.w
      value: 1
      objectReference: {fileID: 0}
    - target: {fileID: 2652251526979196401, guid: 205da4a5f32b3dc4eace68a91d59ccf5,
        type: 3}
      propertyPath: m_RootOrder
      value: 7
      objectReference: {fileID: 0}
    - target: {fileID: 2652251526979196401, guid: 205da4a5f32b3dc4eace68a91d59ccf5,
        type: 3}
      propertyPath: m_LocalEulerAnglesHint.x
      value: 0
      objectReference: {fileID: 0}
    - target: {fileID: 2652251526979196401, guid: 205da4a5f32b3dc4eace68a91d59ccf5,
        type: 3}
      propertyPath: m_LocalEulerAnglesHint.y
      value: 0
      objectReference: {fileID: 0}
    - target: {fileID: 2652251526979196401, guid: 205da4a5f32b3dc4eace68a91d59ccf5,
        type: 3}
      propertyPath: m_LocalEulerAnglesHint.z
      value: 0
      objectReference: {fileID: 0}
    - target: {fileID: 2652251526979196398, guid: 205da4a5f32b3dc4eace68a91d59ccf5,
        type: 3}
      propertyPath: worldManager
      value: 
      objectReference: {fileID: 1475507911}
    - target: {fileID: 2652251527994559441, guid: 205da4a5f32b3dc4eace68a91d59ccf5,
        type: 3}
      propertyPath: searchIndicator
      value: 
      objectReference: {fileID: 0}
    m_RemovedComponents: []
  m_SourcePrefab: {fileID: 100100000, guid: 205da4a5f32b3dc4eace68a91d59ccf5, type: 3}
--- !u!20 &123203538 stripped
Camera:
  m_CorrespondingSourceObject: {fileID: 20155940112608238, guid: 205da4a5f32b3dc4eace68a91d59ccf5,
    type: 3}
  m_PrefabInstance: {fileID: 123203537}
  m_PrefabAsset: {fileID: 0}
--- !u!4 &123203539 stripped
Transform:
  m_CorrespondingSourceObject: {fileID: 1118763730801324133, guid: 205da4a5f32b3dc4eace68a91d59ccf5,
    type: 3}
  m_PrefabInstance: {fileID: 123203537}
  m_PrefabAsset: {fileID: 0}
--- !u!1001 &181036798
PrefabInstance:
  m_ObjectHideFlags: 0
  serializedVersion: 2
  m_Modification:
    m_TransformParent: {fileID: 0}
    m_Modifications:
    - target: {fileID: 549375422789548940, guid: 8ebf8858583f41e4eafa7922a1a5c526,
        type: 3}
      propertyPath: m_Name
      value: NotificationCanvas
      objectReference: {fileID: 0}
    - target: {fileID: 549375422789548940, guid: 8ebf8858583f41e4eafa7922a1a5c526,
        type: 3}
      propertyPath: m_IsActive
      value: 1
      objectReference: {fileID: 0}
    - target: {fileID: 549375422789548936, guid: 8ebf8858583f41e4eafa7922a1a5c526,
        type: 3}
      propertyPath: m_LocalPosition.x
      value: 0
      objectReference: {fileID: 0}
    - target: {fileID: 549375422789548936, guid: 8ebf8858583f41e4eafa7922a1a5c526,
        type: 3}
      propertyPath: m_LocalPosition.y
      value: 0
      objectReference: {fileID: 0}
    - target: {fileID: 549375422789548936, guid: 8ebf8858583f41e4eafa7922a1a5c526,
        type: 3}
      propertyPath: m_LocalPosition.z
      value: 0
      objectReference: {fileID: 0}
    - target: {fileID: 549375422789548936, guid: 8ebf8858583f41e4eafa7922a1a5c526,
        type: 3}
      propertyPath: m_LocalRotation.x
      value: 0
      objectReference: {fileID: 0}
    - target: {fileID: 549375422789548936, guid: 8ebf8858583f41e4eafa7922a1a5c526,
        type: 3}
      propertyPath: m_LocalRotation.y
      value: 0
      objectReference: {fileID: 0}
    - target: {fileID: 549375422789548936, guid: 8ebf8858583f41e4eafa7922a1a5c526,
        type: 3}
      propertyPath: m_LocalRotation.z
      value: 0
      objectReference: {fileID: 0}
    - target: {fileID: 549375422789548936, guid: 8ebf8858583f41e4eafa7922a1a5c526,
        type: 3}
      propertyPath: m_LocalRotation.w
      value: 1
      objectReference: {fileID: 0}
    - target: {fileID: 549375422789548936, guid: 8ebf8858583f41e4eafa7922a1a5c526,
        type: 3}
      propertyPath: m_RootOrder
      value: 6
      objectReference: {fileID: 0}
    - target: {fileID: 549375422789548936, guid: 8ebf8858583f41e4eafa7922a1a5c526,
        type: 3}
      propertyPath: m_LocalEulerAnglesHint.x
      value: 0
      objectReference: {fileID: 0}
    - target: {fileID: 549375422789548936, guid: 8ebf8858583f41e4eafa7922a1a5c526,
        type: 3}
      propertyPath: m_LocalEulerAnglesHint.y
      value: 0
      objectReference: {fileID: 0}
    - target: {fileID: 549375422789548936, guid: 8ebf8858583f41e4eafa7922a1a5c526,
        type: 3}
      propertyPath: m_LocalEulerAnglesHint.z
      value: 0
      objectReference: {fileID: 0}
    - target: {fileID: 549375422789548936, guid: 8ebf8858583f41e4eafa7922a1a5c526,
        type: 3}
      propertyPath: m_AnchoredPosition.x
      value: 0
      objectReference: {fileID: 0}
    - target: {fileID: 549375422789548936, guid: 8ebf8858583f41e4eafa7922a1a5c526,
        type: 3}
      propertyPath: m_AnchoredPosition.y
      value: 0
      objectReference: {fileID: 0}
    - target: {fileID: 549375422789548936, guid: 8ebf8858583f41e4eafa7922a1a5c526,
        type: 3}
      propertyPath: m_SizeDelta.x
      value: 0
      objectReference: {fileID: 0}
    - target: {fileID: 549375422789548936, guid: 8ebf8858583f41e4eafa7922a1a5c526,
        type: 3}
      propertyPath: m_SizeDelta.y
      value: 0
      objectReference: {fileID: 0}
    - target: {fileID: 549375422789548936, guid: 8ebf8858583f41e4eafa7922a1a5c526,
        type: 3}
      propertyPath: m_AnchorMin.x
      value: 0
      objectReference: {fileID: 0}
    - target: {fileID: 549375422789548936, guid: 8ebf8858583f41e4eafa7922a1a5c526,
        type: 3}
      propertyPath: m_AnchorMin.y
      value: 0
      objectReference: {fileID: 0}
    - target: {fileID: 549375422789548936, guid: 8ebf8858583f41e4eafa7922a1a5c526,
        type: 3}
      propertyPath: m_AnchorMax.x
      value: 0
      objectReference: {fileID: 0}
    - target: {fileID: 549375422789548936, guid: 8ebf8858583f41e4eafa7922a1a5c526,
        type: 3}
      propertyPath: m_AnchorMax.y
      value: 0
      objectReference: {fileID: 0}
    - target: {fileID: 549375422789548936, guid: 8ebf8858583f41e4eafa7922a1a5c526,
        type: 3}
      propertyPath: m_Pivot.x
      value: 0
      objectReference: {fileID: 0}
    - target: {fileID: 549375422789548936, guid: 8ebf8858583f41e4eafa7922a1a5c526,
        type: 3}
      propertyPath: m_Pivot.y
      value: 0
      objectReference: {fileID: 0}
    - target: {fileID: 549375421525985614, guid: 8ebf8858583f41e4eafa7922a1a5c526,
        type: 3}
      propertyPath: m_AnchoredPosition.y
      value: -23.299805
      objectReference: {fileID: 0}
    - target: {fileID: 549375422789548943, guid: 8ebf8858583f41e4eafa7922a1a5c526,
        type: 3}
      propertyPath: m_Camera
      value: 
      objectReference: {fileID: 123203538}
    m_RemovedComponents: []
  m_SourcePrefab: {fileID: 100100000, guid: 8ebf8858583f41e4eafa7922a1a5c526, type: 3}
--- !u!224 &181036799 stripped
RectTransform:
  m_CorrespondingSourceObject: {fileID: 549375421525985614, guid: 8ebf8858583f41e4eafa7922a1a5c526,
    type: 3}
  m_PrefabInstance: {fileID: 181036798}
  m_PrefabAsset: {fileID: 0}
--- !u!224 &181036800 stripped
RectTransform:
  m_CorrespondingSourceObject: {fileID: 549375422789548936, guid: 8ebf8858583f41e4eafa7922a1a5c526,
    type: 3}
  m_PrefabInstance: {fileID: 181036798}
  m_PrefabAsset: {fileID: 0}
--- !u!1001 &240178762
PrefabInstance:
  m_ObjectHideFlags: 0
  serializedVersion: 2
  m_Modification:
    m_TransformParent: {fileID: 0}
    m_Modifications:
    - target: {fileID: 5369275805574918181, guid: 57e859b6003916042af8425b8a08f0d9,
        type: 3}
      propertyPath: m_Name
      value: IslandTestCanvas
      objectReference: {fileID: 0}
    - target: {fileID: 5369275805574918181, guid: 57e859b6003916042af8425b8a08f0d9,
        type: 3}
      propertyPath: m_IsActive
      value: 1
      objectReference: {fileID: 0}
    - target: {fileID: 5369275805574918169, guid: 57e859b6003916042af8425b8a08f0d9,
        type: 3}
      propertyPath: m_LocalPosition.x
      value: 0
      objectReference: {fileID: 0}
    - target: {fileID: 5369275805574918169, guid: 57e859b6003916042af8425b8a08f0d9,
        type: 3}
      propertyPath: m_LocalPosition.y
      value: 0
      objectReference: {fileID: 0}
    - target: {fileID: 5369275805574918169, guid: 57e859b6003916042af8425b8a08f0d9,
        type: 3}
      propertyPath: m_LocalPosition.z
      value: 0
      objectReference: {fileID: 0}
    - target: {fileID: 5369275805574918169, guid: 57e859b6003916042af8425b8a08f0d9,
        type: 3}
      propertyPath: m_LocalRotation.x
      value: 0
      objectReference: {fileID: 0}
    - target: {fileID: 5369275805574918169, guid: 57e859b6003916042af8425b8a08f0d9,
        type: 3}
      propertyPath: m_LocalRotation.y
      value: 0
      objectReference: {fileID: 0}
    - target: {fileID: 5369275805574918169, guid: 57e859b6003916042af8425b8a08f0d9,
        type: 3}
      propertyPath: m_LocalRotation.z
      value: 0
      objectReference: {fileID: 0}
    - target: {fileID: 5369275805574918169, guid: 57e859b6003916042af8425b8a08f0d9,
        type: 3}
      propertyPath: m_LocalRotation.w
      value: 1
      objectReference: {fileID: 0}
    - target: {fileID: 5369275805574918169, guid: 57e859b6003916042af8425b8a08f0d9,
        type: 3}
      propertyPath: m_RootOrder
      value: 10
      objectReference: {fileID: 0}
    - target: {fileID: 5369275805574918169, guid: 57e859b6003916042af8425b8a08f0d9,
        type: 3}
      propertyPath: m_LocalEulerAnglesHint.x
      value: 0
      objectReference: {fileID: 0}
    - target: {fileID: 5369275805574918169, guid: 57e859b6003916042af8425b8a08f0d9,
        type: 3}
      propertyPath: m_LocalEulerAnglesHint.y
      value: 0
      objectReference: {fileID: 0}
    - target: {fileID: 5369275805574918169, guid: 57e859b6003916042af8425b8a08f0d9,
        type: 3}
      propertyPath: m_LocalEulerAnglesHint.z
      value: 0
      objectReference: {fileID: 0}
    - target: {fileID: 5369275805574918169, guid: 57e859b6003916042af8425b8a08f0d9,
        type: 3}
      propertyPath: m_AnchoredPosition.x
      value: 0
      objectReference: {fileID: 0}
    - target: {fileID: 5369275805574918169, guid: 57e859b6003916042af8425b8a08f0d9,
        type: 3}
      propertyPath: m_AnchoredPosition.y
      value: 0
      objectReference: {fileID: 0}
    - target: {fileID: 5369275805574918169, guid: 57e859b6003916042af8425b8a08f0d9,
        type: 3}
      propertyPath: m_SizeDelta.x
      value: 0
      objectReference: {fileID: 0}
    - target: {fileID: 5369275805574918169, guid: 57e859b6003916042af8425b8a08f0d9,
        type: 3}
      propertyPath: m_SizeDelta.y
      value: 0
      objectReference: {fileID: 0}
    - target: {fileID: 5369275805574918169, guid: 57e859b6003916042af8425b8a08f0d9,
        type: 3}
      propertyPath: m_AnchorMin.x
      value: 0
      objectReference: {fileID: 0}
    - target: {fileID: 5369275805574918169, guid: 57e859b6003916042af8425b8a08f0d9,
        type: 3}
      propertyPath: m_AnchorMin.y
      value: 0
      objectReference: {fileID: 0}
    - target: {fileID: 5369275805574918169, guid: 57e859b6003916042af8425b8a08f0d9,
        type: 3}
      propertyPath: m_AnchorMax.x
      value: 0
      objectReference: {fileID: 0}
    - target: {fileID: 5369275805574918169, guid: 57e859b6003916042af8425b8a08f0d9,
        type: 3}
      propertyPath: m_AnchorMax.y
      value: 0
      objectReference: {fileID: 0}
    - target: {fileID: 5369275805574918169, guid: 57e859b6003916042af8425b8a08f0d9,
        type: 3}
      propertyPath: m_Pivot.x
      value: 0
      objectReference: {fileID: 0}
    - target: {fileID: 5369275805574918169, guid: 57e859b6003916042af8425b8a08f0d9,
        type: 3}
      propertyPath: m_Pivot.y
      value: 0
      objectReference: {fileID: 0}
    - target: {fileID: 5369275805574918170, guid: 57e859b6003916042af8425b8a08f0d9,
        type: 3}
      propertyPath: m_Camera
      value: 
      objectReference: {fileID: 123203538}
    m_RemovedComponents: []
  m_SourcePrefab: {fileID: 100100000, guid: 57e859b6003916042af8425b8a08f0d9, type: 3}
--- !u!114 &240178764 stripped
MonoBehaviour:
  m_CorrespondingSourceObject: {fileID: 312872168, guid: 57e859b6003916042af8425b8a08f0d9,
    type: 3}
  m_PrefabInstance: {fileID: 240178762}
  m_PrefabAsset: {fileID: 0}
  m_GameObject: {fileID: 0}
  m_Enabled: 1
  m_EditorHideFlags: 0
  m_Script: {fileID: 11500000, guid: 694deec72a962894dbad4eda3ccc48dd, type: 3}
  m_Name: 
  m_EditorClassIdentifier: 
--- !u!1001 &304107505
PrefabInstance:
  m_ObjectHideFlags: 0
  serializedVersion: 2
  m_Modification:
    m_TransformParent: {fileID: 0}
    m_Modifications:
    - target: {fileID: 3831472430485784630, guid: ae836660c8abe1641bcc775978037af6,
        type: 3}
      propertyPath: m_Name
      value: PostProcessing
      objectReference: {fileID: 0}
    - target: {fileID: 3831472430485784616, guid: ae836660c8abe1641bcc775978037af6,
        type: 3}
      propertyPath: m_LocalPosition.x
      value: 0
      objectReference: {fileID: 0}
    - target: {fileID: 3831472430485784616, guid: ae836660c8abe1641bcc775978037af6,
        type: 3}
      propertyPath: m_LocalPosition.y
      value: 0
      objectReference: {fileID: 0}
    - target: {fileID: 3831472430485784616, guid: ae836660c8abe1641bcc775978037af6,
        type: 3}
      propertyPath: m_LocalPosition.z
      value: 0
      objectReference: {fileID: 0}
    - target: {fileID: 3831472430485784616, guid: ae836660c8abe1641bcc775978037af6,
        type: 3}
      propertyPath: m_LocalRotation.x
      value: 0
      objectReference: {fileID: 0}
    - target: {fileID: 3831472430485784616, guid: ae836660c8abe1641bcc775978037af6,
        type: 3}
      propertyPath: m_LocalRotation.y
      value: 0
      objectReference: {fileID: 0}
    - target: {fileID: 3831472430485784616, guid: ae836660c8abe1641bcc775978037af6,
        type: 3}
      propertyPath: m_LocalRotation.z
      value: 0
      objectReference: {fileID: 0}
    - target: {fileID: 3831472430485784616, guid: ae836660c8abe1641bcc775978037af6,
        type: 3}
      propertyPath: m_LocalRotation.w
      value: 1
      objectReference: {fileID: 0}
    - target: {fileID: 3831472430485784616, guid: ae836660c8abe1641bcc775978037af6,
        type: 3}
      propertyPath: m_RootOrder
      value: 4
      objectReference: {fileID: 0}
    - target: {fileID: 3831472430485784616, guid: ae836660c8abe1641bcc775978037af6,
        type: 3}
      propertyPath: m_LocalEulerAnglesHint.x
      value: 0
      objectReference: {fileID: 0}
    - target: {fileID: 3831472430485784616, guid: ae836660c8abe1641bcc775978037af6,
        type: 3}
      propertyPath: m_LocalEulerAnglesHint.y
      value: 0
      objectReference: {fileID: 0}
    - target: {fileID: 3831472430485784616, guid: ae836660c8abe1641bcc775978037af6,
        type: 3}
      propertyPath: m_LocalEulerAnglesHint.z
      value: 0
      objectReference: {fileID: 0}
    m_RemovedComponents: []
  m_SourcePrefab: {fileID: 100100000, guid: ae836660c8abe1641bcc775978037af6, type: 3}
--- !u!1001 &368264354
PrefabInstance:
  m_ObjectHideFlags: 0
  serializedVersion: 2
  m_Modification:
    m_TransformParent: {fileID: 0}
    m_Modifications:
    - target: {fileID: 233873006903861067, guid: 476070274f74c56449662375dc330b39,
        type: 3}
      propertyPath: m_Name
      value: UI
      objectReference: {fileID: 0}
    - target: {fileID: 230987486201692107, guid: 476070274f74c56449662375dc330b39,
        type: 3}
      propertyPath: m_LocalPosition.x
      value: 0
      objectReference: {fileID: 0}
    - target: {fileID: 230987486201692107, guid: 476070274f74c56449662375dc330b39,
        type: 3}
      propertyPath: m_LocalPosition.y
      value: 0
      objectReference: {fileID: 0}
    - target: {fileID: 230987486201692107, guid: 476070274f74c56449662375dc330b39,
        type: 3}
      propertyPath: m_LocalPosition.z
      value: 0
      objectReference: {fileID: 0}
    - target: {fileID: 230987486201692107, guid: 476070274f74c56449662375dc330b39,
        type: 3}
      propertyPath: m_LocalRotation.x
      value: 0
      objectReference: {fileID: 0}
    - target: {fileID: 230987486201692107, guid: 476070274f74c56449662375dc330b39,
        type: 3}
      propertyPath: m_LocalRotation.y
      value: 0
      objectReference: {fileID: 0}
    - target: {fileID: 230987486201692107, guid: 476070274f74c56449662375dc330b39,
        type: 3}
      propertyPath: m_LocalRotation.z
      value: 0
      objectReference: {fileID: 0}
    - target: {fileID: 230987486201692107, guid: 476070274f74c56449662375dc330b39,
        type: 3}
      propertyPath: m_LocalRotation.w
      value: 1
      objectReference: {fileID: 0}
    - target: {fileID: 230987486201692107, guid: 476070274f74c56449662375dc330b39,
        type: 3}
      propertyPath: m_RootOrder
      value: 8
      objectReference: {fileID: 0}
    - target: {fileID: 230987486201692107, guid: 476070274f74c56449662375dc330b39,
        type: 3}
      propertyPath: m_LocalEulerAnglesHint.x
      value: 0
      objectReference: {fileID: 0}
    - target: {fileID: 230987486201692107, guid: 476070274f74c56449662375dc330b39,
        type: 3}
      propertyPath: m_LocalEulerAnglesHint.y
      value: 0
      objectReference: {fileID: 0}
    - target: {fileID: 230987486201692107, guid: 476070274f74c56449662375dc330b39,
        type: 3}
      propertyPath: m_LocalEulerAnglesHint.z
      value: 0
      objectReference: {fileID: 0}
    - target: {fileID: 6449345780861134230, guid: 476070274f74c56449662375dc330b39,
        type: 3}
      propertyPath: m_AnchorMin.y
      value: 0
      objectReference: {fileID: 0}
    - target: {fileID: 6449345780861134230, guid: 476070274f74c56449662375dc330b39,
        type: 3}
      propertyPath: m_AnchorMax.y
      value: 0
      objectReference: {fileID: 0}
    - target: {fileID: 6449345780861134230, guid: 476070274f74c56449662375dc330b39,
        type: 3}
      propertyPath: m_AnchoredPosition.x
      value: 0
      objectReference: {fileID: 0}
    - target: {fileID: 6449345780861134230, guid: 476070274f74c56449662375dc330b39,
        type: 3}
      propertyPath: m_AnchoredPosition.y
      value: 0
      objectReference: {fileID: 0}
    - target: {fileID: 6449345780861134230, guid: 476070274f74c56449662375dc330b39,
        type: 3}
      propertyPath: m_SizeDelta.x
      value: 0
      objectReference: {fileID: 0}
    - target: {fileID: 6449345780861134230, guid: 476070274f74c56449662375dc330b39,
        type: 3}
      propertyPath: m_SizeDelta.y
      value: 0
      objectReference: {fileID: 0}
    - target: {fileID: 3683357244161953634, guid: 476070274f74c56449662375dc330b39,
        type: 3}
      propertyPath: m_AnchorMin.y
      value: 0
      objectReference: {fileID: 0}
    - target: {fileID: 3683357244161953634, guid: 476070274f74c56449662375dc330b39,
        type: 3}
      propertyPath: m_AnchorMax.y
      value: 0
      objectReference: {fileID: 0}
    - target: {fileID: 3683357244161953634, guid: 476070274f74c56449662375dc330b39,
        type: 3}
      propertyPath: m_AnchoredPosition.x
      value: 0
      objectReference: {fileID: 0}
    - target: {fileID: 3683357244161953634, guid: 476070274f74c56449662375dc330b39,
        type: 3}
      propertyPath: m_AnchoredPosition.y
      value: 0
      objectReference: {fileID: 0}
    - target: {fileID: 3683357244161953634, guid: 476070274f74c56449662375dc330b39,
        type: 3}
      propertyPath: m_SizeDelta.x
      value: 0
      objectReference: {fileID: 0}
    - target: {fileID: 3683357244161953634, guid: 476070274f74c56449662375dc330b39,
        type: 3}
      propertyPath: m_SizeDelta.y
      value: 0
      objectReference: {fileID: 0}
    - target: {fileID: 2274882387214194515, guid: 476070274f74c56449662375dc330b39,
        type: 3}
      propertyPath: m_AnchorMin.y
      value: 0
      objectReference: {fileID: 0}
    - target: {fileID: 2274882387214194515, guid: 476070274f74c56449662375dc330b39,
        type: 3}
      propertyPath: m_AnchorMax.y
      value: 0
      objectReference: {fileID: 0}
    - target: {fileID: 2274882387214194515, guid: 476070274f74c56449662375dc330b39,
        type: 3}
      propertyPath: m_AnchoredPosition.x
      value: 0
      objectReference: {fileID: 0}
    - target: {fileID: 2274882387214194515, guid: 476070274f74c56449662375dc330b39,
        type: 3}
      propertyPath: m_AnchoredPosition.y
      value: 0
      objectReference: {fileID: 0}
    - target: {fileID: 2274882387214194515, guid: 476070274f74c56449662375dc330b39,
        type: 3}
      propertyPath: m_SizeDelta.x
      value: 0
      objectReference: {fileID: 0}
    - target: {fileID: 2274882387214194515, guid: 476070274f74c56449662375dc330b39,
        type: 3}
      propertyPath: m_SizeDelta.y
      value: 0
      objectReference: {fileID: 0}
    - target: {fileID: 8520658664813231355, guid: 476070274f74c56449662375dc330b39,
        type: 3}
      propertyPath: m_AnchorMin.y
      value: 0
      objectReference: {fileID: 0}
    - target: {fileID: 8520658664813231355, guid: 476070274f74c56449662375dc330b39,
        type: 3}
      propertyPath: m_AnchorMax.y
      value: 0
      objectReference: {fileID: 0}
    - target: {fileID: 8520658664813231355, guid: 476070274f74c56449662375dc330b39,
        type: 3}
      propertyPath: m_AnchoredPosition.x
      value: 0
      objectReference: {fileID: 0}
    - target: {fileID: 8520658664813231355, guid: 476070274f74c56449662375dc330b39,
        type: 3}
      propertyPath: m_AnchoredPosition.y
      value: 0
      objectReference: {fileID: 0}
    - target: {fileID: 8520658664813231355, guid: 476070274f74c56449662375dc330b39,
        type: 3}
      propertyPath: m_SizeDelta.x
      value: 0
      objectReference: {fileID: 0}
    - target: {fileID: 8520658664813231355, guid: 476070274f74c56449662375dc330b39,
        type: 3}
      propertyPath: m_SizeDelta.y
      value: 0
      objectReference: {fileID: 0}
    - target: {fileID: 10647583397327059, guid: 476070274f74c56449662375dc330b39,
        type: 3}
      propertyPath: m_AnchoredPosition.y
      value: 0.00008197209
      objectReference: {fileID: 0}
    - target: {fileID: 10647583397327059, guid: 476070274f74c56449662375dc330b39,
        type: 3}
      propertyPath: m_SizeDelta.y
      value: 0
      objectReference: {fileID: 0}
    - target: {fileID: 10647583397327059, guid: 476070274f74c56449662375dc330b39,
        type: 3}
      propertyPath: m_AnchoredPosition.x
      value: 0
      objectReference: {fileID: 0}
    - target: {fileID: 10561208915603477, guid: 476070274f74c56449662375dc330b39,
        type: 3}
      propertyPath: m_AnchorMax.x
      value: 0
      objectReference: {fileID: 0}
    - target: {fileID: 10561208915603477, guid: 476070274f74c56449662375dc330b39,
        type: 3}
      propertyPath: m_AnchorMax.y
      value: 0
      objectReference: {fileID: 0}
    - target: {fileID: 10561208915603477, guid: 476070274f74c56449662375dc330b39,
        type: 3}
      propertyPath: m_AnchorMin.y
      value: 0
      objectReference: {fileID: 0}
    - target: {fileID: 10924485684706363, guid: 476070274f74c56449662375dc330b39,
        type: 3}
      propertyPath: m_AnchoredPosition.x
      value: 64.200195
      objectReference: {fileID: 0}
    m_RemovedComponents: []
  m_SourcePrefab: {fileID: 100100000, guid: 476070274f74c56449662375dc330b39, type: 3}
--- !u!1001 &587772183
PrefabInstance:
  m_ObjectHideFlags: 0
  serializedVersion: 2
  m_Modification:
    m_TransformParent: {fileID: 0}
    m_Modifications:
    - target: {fileID: 1462725766052100261, guid: 800b3323db8a8ce4fb219aecf22ba119,
        type: 3}
      propertyPath: m_Name
      value: InteractWithItems
      objectReference: {fileID: 0}
    - target: {fileID: 1462725766052100262, guid: 800b3323db8a8ce4fb219aecf22ba119,
        type: 3}
      propertyPath: m_LocalPosition.x
      value: 0
      objectReference: {fileID: 0}
    - target: {fileID: 1462725766052100262, guid: 800b3323db8a8ce4fb219aecf22ba119,
        type: 3}
      propertyPath: m_LocalPosition.y
      value: 0
      objectReference: {fileID: 0}
    - target: {fileID: 1462725766052100262, guid: 800b3323db8a8ce4fb219aecf22ba119,
        type: 3}
      propertyPath: m_LocalPosition.z
      value: 0
      objectReference: {fileID: 0}
    - target: {fileID: 1462725766052100262, guid: 800b3323db8a8ce4fb219aecf22ba119,
        type: 3}
      propertyPath: m_LocalRotation.x
      value: 0
      objectReference: {fileID: 0}
    - target: {fileID: 1462725766052100262, guid: 800b3323db8a8ce4fb219aecf22ba119,
        type: 3}
      propertyPath: m_LocalRotation.y
      value: 0
      objectReference: {fileID: 0}
    - target: {fileID: 1462725766052100262, guid: 800b3323db8a8ce4fb219aecf22ba119,
        type: 3}
      propertyPath: m_LocalRotation.z
      value: 0
      objectReference: {fileID: 0}
    - target: {fileID: 1462725766052100262, guid: 800b3323db8a8ce4fb219aecf22ba119,
        type: 3}
      propertyPath: m_LocalRotation.w
      value: 1
      objectReference: {fileID: 0}
    - target: {fileID: 1462725766052100262, guid: 800b3323db8a8ce4fb219aecf22ba119,
        type: 3}
      propertyPath: m_RootOrder
      value: 2
      objectReference: {fileID: 0}
    - target: {fileID: 1462725766052100262, guid: 800b3323db8a8ce4fb219aecf22ba119,
        type: 3}
      propertyPath: m_LocalEulerAnglesHint.x
      value: 0
      objectReference: {fileID: 0}
    - target: {fileID: 1462725766052100262, guid: 800b3323db8a8ce4fb219aecf22ba119,
        type: 3}
      propertyPath: m_LocalEulerAnglesHint.y
      value: 0
      objectReference: {fileID: 0}
    - target: {fileID: 1462725766052100262, guid: 800b3323db8a8ce4fb219aecf22ba119,
        type: 3}
      propertyPath: m_LocalEulerAnglesHint.z
      value: 0
      objectReference: {fileID: 0}
    - target: {fileID: 1462725766052100263, guid: 800b3323db8a8ce4fb219aecf22ba119,
        type: 3}
      propertyPath: timerText
      value: 
      objectReference: {fileID: 0}
    - target: {fileID: 1462725766052100263, guid: 800b3323db8a8ce4fb219aecf22ba119,
        type: 3}
      propertyPath: reticle
      value: 
      objectReference: {fileID: 240178764}
    m_RemovedComponents: []
  m_SourcePrefab: {fileID: 100100000, guid: 800b3323db8a8ce4fb219aecf22ba119, type: 3}
--- !u!1001 &655600053
PrefabInstance:
  m_ObjectHideFlags: 0
  serializedVersion: 2
  m_Modification:
    m_TransformParent: {fileID: 0}
    m_Modifications:
    - target: {fileID: 1354223174357263036, guid: 23f259d40b0da42449915980e576655e,
        type: 3}
      propertyPath: m_Name
      value: AudioManager
      objectReference: {fileID: 0}
    - target: {fileID: 1354223174357263036, guid: 23f259d40b0da42449915980e576655e,
        type: 3}
      propertyPath: m_IsActive
      value: 1
      objectReference: {fileID: 0}
    - target: {fileID: 3860155842977766355, guid: 23f259d40b0da42449915980e576655e,
        type: 3}
      propertyPath: m_LocalPosition.x
      value: 0
      objectReference: {fileID: 0}
    - target: {fileID: 3860155842977766355, guid: 23f259d40b0da42449915980e576655e,
        type: 3}
      propertyPath: m_LocalPosition.y
      value: 0
      objectReference: {fileID: 0}
    - target: {fileID: 3860155842977766355, guid: 23f259d40b0da42449915980e576655e,
        type: 3}
      propertyPath: m_LocalPosition.z
      value: 0
      objectReference: {fileID: 0}
    - target: {fileID: 3860155842977766355, guid: 23f259d40b0da42449915980e576655e,
        type: 3}
      propertyPath: m_LocalRotation.x
      value: 0
      objectReference: {fileID: 0}
    - target: {fileID: 3860155842977766355, guid: 23f259d40b0da42449915980e576655e,
        type: 3}
      propertyPath: m_LocalRotation.y
      value: 0
      objectReference: {fileID: 0}
    - target: {fileID: 3860155842977766355, guid: 23f259d40b0da42449915980e576655e,
        type: 3}
      propertyPath: m_LocalRotation.z
      value: 0
      objectReference: {fileID: 0}
    - target: {fileID: 3860155842977766355, guid: 23f259d40b0da42449915980e576655e,
        type: 3}
      propertyPath: m_LocalRotation.w
      value: 1
      objectReference: {fileID: 0}
    - target: {fileID: 3860155842977766355, guid: 23f259d40b0da42449915980e576655e,
        type: 3}
      propertyPath: m_RootOrder
      value: 9
      objectReference: {fileID: 0}
    - target: {fileID: 3860155842977766355, guid: 23f259d40b0da42449915980e576655e,
        type: 3}
      propertyPath: m_LocalEulerAnglesHint.x
      value: 0
      objectReference: {fileID: 0}
    - target: {fileID: 3860155842977766355, guid: 23f259d40b0da42449915980e576655e,
        type: 3}
      propertyPath: m_LocalEulerAnglesHint.y
      value: 0
      objectReference: {fileID: 0}
    - target: {fileID: 3860155842977766355, guid: 23f259d40b0da42449915980e576655e,
        type: 3}
      propertyPath: m_LocalEulerAnglesHint.z
      value: 0
      objectReference: {fileID: 0}
    m_RemovedComponents: []
  m_SourcePrefab: {fileID: 100100000, guid: 23f259d40b0da42449915980e576655e, type: 3}
--- !u!1001 &894712825
PrefabInstance:
  m_ObjectHideFlags: 0
  serializedVersion: 2
  m_Modification:
    m_TransformParent: {fileID: 0}
    m_Modifications:
    - target: {fileID: 2311167701160828503, guid: 8924f59256ba61247924ffaf47015651,
        type: 3}
      propertyPath: m_Name
      value: EventSystem
      objectReference: {fileID: 0}
    - target: {fileID: 2311167701160828500, guid: 8924f59256ba61247924ffaf47015651,
        type: 3}
      propertyPath: m_LocalPosition.x
      value: 0
      objectReference: {fileID: 0}
    - target: {fileID: 2311167701160828500, guid: 8924f59256ba61247924ffaf47015651,
        type: 3}
      propertyPath: m_LocalPosition.y
      value: 0
      objectReference: {fileID: 0}
    - target: {fileID: 2311167701160828500, guid: 8924f59256ba61247924ffaf47015651,
        type: 3}
      propertyPath: m_LocalPosition.z
      value: 0
      objectReference: {fileID: 0}
    - target: {fileID: 2311167701160828500, guid: 8924f59256ba61247924ffaf47015651,
        type: 3}
      propertyPath: m_LocalRotation.x
      value: 0
      objectReference: {fileID: 0}
    - target: {fileID: 2311167701160828500, guid: 8924f59256ba61247924ffaf47015651,
        type: 3}
      propertyPath: m_LocalRotation.y
      value: 0
      objectReference: {fileID: 0}
    - target: {fileID: 2311167701160828500, guid: 8924f59256ba61247924ffaf47015651,
        type: 3}
      propertyPath: m_LocalRotation.z
      value: 0
      objectReference: {fileID: 0}
    - target: {fileID: 2311167701160828500, guid: 8924f59256ba61247924ffaf47015651,
        type: 3}
      propertyPath: m_LocalRotation.w
      value: 1
      objectReference: {fileID: 0}
    - target: {fileID: 2311167701160828500, guid: 8924f59256ba61247924ffaf47015651,
        type: 3}
      propertyPath: m_RootOrder
      value: 0
      objectReference: {fileID: 0}
    - target: {fileID: 2311167701160828500, guid: 8924f59256ba61247924ffaf47015651,
        type: 3}
      propertyPath: m_LocalEulerAnglesHint.x
      value: 0
      objectReference: {fileID: 0}
    - target: {fileID: 2311167701160828500, guid: 8924f59256ba61247924ffaf47015651,
        type: 3}
      propertyPath: m_LocalEulerAnglesHint.y
      value: 0
      objectReference: {fileID: 0}
    - target: {fileID: 2311167701160828500, guid: 8924f59256ba61247924ffaf47015651,
        type: 3}
      propertyPath: m_LocalEulerAnglesHint.z
      value: 0
      objectReference: {fileID: 0}
    m_RemovedComponents: []
  m_SourcePrefab: {fileID: 100100000, guid: 8924f59256ba61247924ffaf47015651, type: 3}
--- !u!1001 &989391843
PrefabInstance:
  m_ObjectHideFlags: 0
  serializedVersion: 2
  m_Modification:
    m_TransformParent: {fileID: 0}
    m_Modifications:
    - target: {fileID: 8322664694158655582, guid: 193c19616d9829043ad295db92fbeade,
        type: 3}
      propertyPath: m_Name
      value: TutorialCanvas
      objectReference: {fileID: 0}
    - target: {fileID: 8322664694158655571, guid: 193c19616d9829043ad295db92fbeade,
        type: 3}
      propertyPath: m_LocalPosition.x
      value: 0
      objectReference: {fileID: 0}
    - target: {fileID: 8322664694158655571, guid: 193c19616d9829043ad295db92fbeade,
        type: 3}
      propertyPath: m_LocalPosition.y
      value: 0
      objectReference: {fileID: 0}
    - target: {fileID: 8322664694158655571, guid: 193c19616d9829043ad295db92fbeade,
        type: 3}
      propertyPath: m_LocalPosition.z
      value: 0
      objectReference: {fileID: 0}
    - target: {fileID: 8322664694158655571, guid: 193c19616d9829043ad295db92fbeade,
        type: 3}
      propertyPath: m_LocalRotation.x
      value: 0
      objectReference: {fileID: 0}
    - target: {fileID: 8322664694158655571, guid: 193c19616d9829043ad295db92fbeade,
        type: 3}
      propertyPath: m_LocalRotation.y
      value: 0
      objectReference: {fileID: 0}
    - target: {fileID: 8322664694158655571, guid: 193c19616d9829043ad295db92fbeade,
        type: 3}
      propertyPath: m_LocalRotation.z
      value: 0
      objectReference: {fileID: 0}
    - target: {fileID: 8322664694158655571, guid: 193c19616d9829043ad295db92fbeade,
        type: 3}
      propertyPath: m_LocalRotation.w
      value: 1
      objectReference: {fileID: 0}
    - target: {fileID: 8322664694158655571, guid: 193c19616d9829043ad295db92fbeade,
        type: 3}
      propertyPath: m_RootOrder
      value: 11
      objectReference: {fileID: 0}
    - target: {fileID: 8322664694158655571, guid: 193c19616d9829043ad295db92fbeade,
        type: 3}
      propertyPath: m_LocalEulerAnglesHint.x
      value: 0
      objectReference: {fileID: 0}
    - target: {fileID: 8322664694158655571, guid: 193c19616d9829043ad295db92fbeade,
        type: 3}
      propertyPath: m_LocalEulerAnglesHint.y
      value: 0
      objectReference: {fileID: 0}
    - target: {fileID: 8322664694158655571, guid: 193c19616d9829043ad295db92fbeade,
        type: 3}
      propertyPath: m_LocalEulerAnglesHint.z
      value: 0
      objectReference: {fileID: 0}
    - target: {fileID: 8322664694158655571, guid: 193c19616d9829043ad295db92fbeade,
        type: 3}
      propertyPath: m_AnchoredPosition.x
      value: 0
      objectReference: {fileID: 0}
    - target: {fileID: 8322664694158655571, guid: 193c19616d9829043ad295db92fbeade,
        type: 3}
      propertyPath: m_AnchoredPosition.y
      value: 0
      objectReference: {fileID: 0}
    - target: {fileID: 8322664694158655571, guid: 193c19616d9829043ad295db92fbeade,
        type: 3}
      propertyPath: m_SizeDelta.x
      value: 0
      objectReference: {fileID: 0}
    - target: {fileID: 8322664694158655571, guid: 193c19616d9829043ad295db92fbeade,
        type: 3}
      propertyPath: m_SizeDelta.y
      value: 0
      objectReference: {fileID: 0}
    - target: {fileID: 8322664694158655571, guid: 193c19616d9829043ad295db92fbeade,
        type: 3}
      propertyPath: m_AnchorMin.x
      value: 0
      objectReference: {fileID: 0}
    - target: {fileID: 8322664694158655571, guid: 193c19616d9829043ad295db92fbeade,
        type: 3}
      propertyPath: m_AnchorMin.y
      value: 0
      objectReference: {fileID: 0}
    - target: {fileID: 8322664694158655571, guid: 193c19616d9829043ad295db92fbeade,
        type: 3}
      propertyPath: m_AnchorMax.x
      value: 0
      objectReference: {fileID: 0}
    - target: {fileID: 8322664694158655571, guid: 193c19616d9829043ad295db92fbeade,
        type: 3}
      propertyPath: m_AnchorMax.y
      value: 0
      objectReference: {fileID: 0}
    - target: {fileID: 8322664694158655571, guid: 193c19616d9829043ad295db92fbeade,
        type: 3}
      propertyPath: m_Pivot.x
      value: 0
      objectReference: {fileID: 0}
    - target: {fileID: 8322664694158655571, guid: 193c19616d9829043ad295db92fbeade,
        type: 3}
      propertyPath: m_Pivot.y
      value: 0
      objectReference: {fileID: 0}
    m_RemovedComponents: []
  m_SourcePrefab: {fileID: 100100000, guid: 193c19616d9829043ad295db92fbeade, type: 3}
--- !u!1001 &1361622354
PrefabInstance:
  m_ObjectHideFlags: 0
  serializedVersion: 2
  m_Modification:
    m_TransformParent: {fileID: 0}
    m_Modifications:
    - target: {fileID: 3266214730193152348, guid: 85ff9d7f26af2524f955358def0833c3,
        type: 3}
      propertyPath: m_Name
      value: StickerBook
      objectReference: {fileID: 0}
    - target: {fileID: 3266214730193152345, guid: 85ff9d7f26af2524f955358def0833c3,
        type: 3}
      propertyPath: m_LocalPosition.x
      value: 0
      objectReference: {fileID: 0}
    - target: {fileID: 3266214730193152345, guid: 85ff9d7f26af2524f955358def0833c3,
        type: 3}
      propertyPath: m_LocalPosition.y
      value: 0
      objectReference: {fileID: 0}
    - target: {fileID: 3266214730193152345, guid: 85ff9d7f26af2524f955358def0833c3,
        type: 3}
      propertyPath: m_LocalPosition.z
      value: 0
      objectReference: {fileID: 0}
    - target: {fileID: 3266214730193152345, guid: 85ff9d7f26af2524f955358def0833c3,
        type: 3}
      propertyPath: m_LocalRotation.x
      value: 0
      objectReference: {fileID: 0}
    - target: {fileID: 3266214730193152345, guid: 85ff9d7f26af2524f955358def0833c3,
        type: 3}
      propertyPath: m_LocalRotation.y
      value: 0
      objectReference: {fileID: 0}
    - target: {fileID: 3266214730193152345, guid: 85ff9d7f26af2524f955358def0833c3,
        type: 3}
      propertyPath: m_LocalRotation.z
      value: 0
      objectReference: {fileID: 0}
    - target: {fileID: 3266214730193152345, guid: 85ff9d7f26af2524f955358def0833c3,
        type: 3}
      propertyPath: m_LocalRotation.w
      value: 1
      objectReference: {fileID: 0}
    - target: {fileID: 3266214730193152345, guid: 85ff9d7f26af2524f955358def0833c3,
        type: 3}
      propertyPath: m_RootOrder
      value: 3
      objectReference: {fileID: 0}
    - target: {fileID: 3266214730193152345, guid: 85ff9d7f26af2524f955358def0833c3,
        type: 3}
      propertyPath: m_LocalEulerAnglesHint.x
      value: 0
      objectReference: {fileID: 0}
    - target: {fileID: 3266214730193152345, guid: 85ff9d7f26af2524f955358def0833c3,
        type: 3}
      propertyPath: m_LocalEulerAnglesHint.y
      value: 0
      objectReference: {fileID: 0}
    - target: {fileID: 3266214730193152345, guid: 85ff9d7f26af2524f955358def0833c3,
        type: 3}
      propertyPath: m_LocalEulerAnglesHint.z
      value: 0
      objectReference: {fileID: 0}
    - target: {fileID: 3266214730074663221, guid: 85ff9d7f26af2524f955358def0833c3,
        type: 3}
      propertyPath: notificationFlyGoal
      value: 
      objectReference: {fileID: 123203539}
    - target: {fileID: 3266214730074663221, guid: 85ff9d7f26af2524f955358def0833c3,
        type: 3}
      propertyPath: screenSpaceNotificationCanvas
      value: 
      objectReference: {fileID: 181036800}
    - target: {fileID: 3266214730074663221, guid: 85ff9d7f26af2524f955358def0833c3,
        type: 3}
      propertyPath: notificationScreenSpaceFlyGoal
      value: 
      objectReference: {fileID: 181036799}
    m_RemovedComponents: []
  m_SourcePrefab: {fileID: 100100000, guid: 85ff9d7f26af2524f955358def0833c3, type: 3}
--- !u!1001 &1363194388
PrefabInstance:
  m_ObjectHideFlags: 0
  serializedVersion: 2
  m_Modification:
    m_TransformParent: {fileID: 0}
    m_Modifications:
    - target: {fileID: 5280471345569146259, guid: 1787e3e65ab05f741b6d0ff84f85f498,
        type: 3}
      propertyPath: m_Name
      value: TitleScreen
      objectReference: {fileID: 0}
    - target: {fileID: 6682987745497249125, guid: 1787e3e65ab05f741b6d0ff84f85f498,
        type: 3}
      propertyPath: m_LocalPosition.x
      value: 0
      objectReference: {fileID: 0}
    - target: {fileID: 6682987745497249125, guid: 1787e3e65ab05f741b6d0ff84f85f498,
        type: 3}
      propertyPath: m_LocalPosition.y
      value: 0
      objectReference: {fileID: 0}
    - target: {fileID: 6682987745497249125, guid: 1787e3e65ab05f741b6d0ff84f85f498,
        type: 3}
      propertyPath: m_LocalPosition.z
      value: 0
      objectReference: {fileID: 0}
    - target: {fileID: 6682987745497249125, guid: 1787e3e65ab05f741b6d0ff84f85f498,
        type: 3}
      propertyPath: m_LocalRotation.x
      value: 0
      objectReference: {fileID: 0}
    - target: {fileID: 6682987745497249125, guid: 1787e3e65ab05f741b6d0ff84f85f498,
        type: 3}
      propertyPath: m_LocalRotation.y
      value: 0
      objectReference: {fileID: 0}
    - target: {fileID: 6682987745497249125, guid: 1787e3e65ab05f741b6d0ff84f85f498,
        type: 3}
      propertyPath: m_LocalRotation.z
      value: 0
      objectReference: {fileID: 0}
    - target: {fileID: 6682987745497249125, guid: 1787e3e65ab05f741b6d0ff84f85f498,
        type: 3}
      propertyPath: m_LocalRotation.w
      value: 1
      objectReference: {fileID: 0}
    - target: {fileID: 6682987745497249125, guid: 1787e3e65ab05f741b6d0ff84f85f498,
        type: 3}
      propertyPath: m_RootOrder
      value: 12
      objectReference: {fileID: 0}
    - target: {fileID: 6682987745497249125, guid: 1787e3e65ab05f741b6d0ff84f85f498,
        type: 3}
      propertyPath: m_LocalEulerAnglesHint.x
      value: 0
      objectReference: {fileID: 0}
    - target: {fileID: 6682987745497249125, guid: 1787e3e65ab05f741b6d0ff84f85f498,
        type: 3}
      propertyPath: m_LocalEulerAnglesHint.y
      value: 0
      objectReference: {fileID: 0}
    - target: {fileID: 6682987745497249125, guid: 1787e3e65ab05f741b6d0ff84f85f498,
        type: 3}
      propertyPath: m_LocalEulerAnglesHint.z
      value: 0
      objectReference: {fileID: 0}
    - target: {fileID: 3883487914320036547, guid: 1787e3e65ab05f741b6d0ff84f85f498,
        type: 3}
      propertyPath: m_AnchorMin.y
      value: 0
      objectReference: {fileID: 0}
    - target: {fileID: 3883487914320036547, guid: 1787e3e65ab05f741b6d0ff84f85f498,
        type: 3}
      propertyPath: m_AnchorMax.y
      value: 0
      objectReference: {fileID: 0}
    - target: {fileID: 3883487914320036547, guid: 1787e3e65ab05f741b6d0ff84f85f498,
        type: 3}
      propertyPath: m_AnchoredPosition.x
      value: 0
      objectReference: {fileID: 0}
    - target: {fileID: 3883487914320036547, guid: 1787e3e65ab05f741b6d0ff84f85f498,
        type: 3}
      propertyPath: m_AnchoredPosition.y
      value: 0
      objectReference: {fileID: 0}
    - target: {fileID: 3883487913601010192, guid: 1787e3e65ab05f741b6d0ff84f85f498,
        type: 3}
      propertyPath: m_AnchorMin.y
      value: 0
      objectReference: {fileID: 0}
    - target: {fileID: 3883487913601010192, guid: 1787e3e65ab05f741b6d0ff84f85f498,
        type: 3}
      propertyPath: m_AnchorMax.y
      value: 0
      objectReference: {fileID: 0}
    - target: {fileID: 3883487913601010192, guid: 1787e3e65ab05f741b6d0ff84f85f498,
        type: 3}
      propertyPath: m_AnchoredPosition.x
      value: 0
      objectReference: {fileID: 0}
    - target: {fileID: 3883487913601010192, guid: 1787e3e65ab05f741b6d0ff84f85f498,
        type: 3}
      propertyPath: m_AnchoredPosition.y
      value: 0
      objectReference: {fileID: 0}
    - target: {fileID: 3883487914715524641, guid: 1787e3e65ab05f741b6d0ff84f85f498,
        type: 3}
      propertyPath: m_AnchorMin.y
      value: 0
      objectReference: {fileID: 0}
    - target: {fileID: 3883487914715524641, guid: 1787e3e65ab05f741b6d0ff84f85f498,
        type: 3}
      propertyPath: m_AnchorMax.y
      value: 0
      objectReference: {fileID: 0}
    - target: {fileID: 3883487914715524641, guid: 1787e3e65ab05f741b6d0ff84f85f498,
        type: 3}
      propertyPath: m_AnchoredPosition.x
      value: 0
      objectReference: {fileID: 0}
    - target: {fileID: 3883487914715524641, guid: 1787e3e65ab05f741b6d0ff84f85f498,
        type: 3}
      propertyPath: m_AnchoredPosition.y
      value: 0
      objectReference: {fileID: 0}
    - target: {fileID: 3883487914880410548, guid: 1787e3e65ab05f741b6d0ff84f85f498,
        type: 3}
      propertyPath: m_AnchorMin.y
      value: 0
      objectReference: {fileID: 0}
    - target: {fileID: 3883487914880410548, guid: 1787e3e65ab05f741b6d0ff84f85f498,
        type: 3}
      propertyPath: m_AnchorMax.y
      value: 0
      objectReference: {fileID: 0}
    - target: {fileID: 3883487914880410548, guid: 1787e3e65ab05f741b6d0ff84f85f498,
        type: 3}
      propertyPath: m_AnchoredPosition.x
      value: 0
      objectReference: {fileID: 0}
    - target: {fileID: 3883487914880410548, guid: 1787e3e65ab05f741b6d0ff84f85f498,
        type: 3}
      propertyPath: m_AnchoredPosition.y
      value: 0
      objectReference: {fileID: 0}
    m_RemovedComponents: []
  m_SourcePrefab: {fileID: 100100000, guid: 1787e3e65ab05f741b6d0ff84f85f498, type: 3}
--- !u!1001 &1475507910
PrefabInstance:
  m_ObjectHideFlags: 0
  serializedVersion: 2
  m_Modification:
    m_TransformParent: {fileID: 0}
    m_Modifications:
    - target: {fileID: 7049570414642479403, guid: 12358bc0348868148b8996d4a788de39,
        type: 3}
      propertyPath: m_Name
      value: WorldManager
      objectReference: {fileID: 0}
    - target: {fileID: 7049570414642479403, guid: 12358bc0348868148b8996d4a788de39,
        type: 3}
      propertyPath: m_IsActive
      value: 1
      objectReference: {fileID: 0}
    - target: {fileID: 7049570414642479405, guid: 12358bc0348868148b8996d4a788de39,
        type: 3}
      propertyPath: m_LocalPosition.x
      value: 0
      objectReference: {fileID: 0}
    - target: {fileID: 7049570414642479405, guid: 12358bc0348868148b8996d4a788de39,
        type: 3}
      propertyPath: m_LocalPosition.y
      value: 0
      objectReference: {fileID: 0}
    - target: {fileID: 7049570414642479405, guid: 12358bc0348868148b8996d4a788de39,
        type: 3}
      propertyPath: m_LocalPosition.z
      value: 0
      objectReference: {fileID: 0}
    - target: {fileID: 7049570414642479405, guid: 12358bc0348868148b8996d4a788de39,
        type: 3}
      propertyPath: m_LocalRotation.x
      value: 0
      objectReference: {fileID: 0}
    - target: {fileID: 7049570414642479405, guid: 12358bc0348868148b8996d4a788de39,
        type: 3}
      propertyPath: m_LocalRotation.y
      value: 0
      objectReference: {fileID: 0}
    - target: {fileID: 7049570414642479405, guid: 12358bc0348868148b8996d4a788de39,
        type: 3}
      propertyPath: m_LocalRotation.z
      value: 0
      objectReference: {fileID: 0}
    - target: {fileID: 7049570414642479405, guid: 12358bc0348868148b8996d4a788de39,
        type: 3}
      propertyPath: m_LocalRotation.w
      value: 1
      objectReference: {fileID: 0}
    - target: {fileID: 7049570414642479405, guid: 12358bc0348868148b8996d4a788de39,
        type: 3}
      propertyPath: m_RootOrder
      value: 5
      objectReference: {fileID: 0}
    - target: {fileID: 7049570414642479405, guid: 12358bc0348868148b8996d4a788de39,
        type: 3}
      propertyPath: m_LocalEulerAnglesHint.x
      value: 0
      objectReference: {fileID: 0}
    - target: {fileID: 7049570414642479405, guid: 12358bc0348868148b8996d4a788de39,
        type: 3}
      propertyPath: m_LocalEulerAnglesHint.y
      value: 0
      objectReference: {fileID: 0}
    - target: {fileID: 7049570414642479405, guid: 12358bc0348868148b8996d4a788de39,
        type: 3}
      propertyPath: m_LocalEulerAnglesHint.z
      value: 0
      objectReference: {fileID: 0}
    m_RemovedComponents: []
  m_SourcePrefab: {fileID: 100100000, guid: 12358bc0348868148b8996d4a788de39, type: 3}
--- !u!114 &1475507911 stripped
MonoBehaviour:
  m_CorrespondingSourceObject: {fileID: 7049570414642479404, guid: 12358bc0348868148b8996d4a788de39,
    type: 3}
  m_PrefabInstance: {fileID: 1475507910}
  m_PrefabAsset: {fileID: 0}
  m_GameObject: {fileID: 0}
  m_Enabled: 1
  m_EditorHideFlags: 0
  m_Script: {fileID: 11500000, guid: 91308ff47d1c616418006b702b9ea6fe, type: 3}
  m_Name: 
  m_EditorClassIdentifier: 
--- !u!1001 &1493526943
PrefabInstance:
  m_ObjectHideFlags: 0
  serializedVersion: 2
  m_Modification:
    m_TransformParent: {fileID: 0}
    m_Modifications:
    - target: {fileID: 1319880576138123664, guid: c78bcb0428524454fb10592932730fed,
        type: 3}
      propertyPath: m_Name
      value: PlayerInput
      objectReference: {fileID: 0}
    - target: {fileID: 1319880576138123670, guid: c78bcb0428524454fb10592932730fed,
        type: 3}
      propertyPath: m_LocalPosition.x
      value: 0
      objectReference: {fileID: 0}
    - target: {fileID: 1319880576138123670, guid: c78bcb0428524454fb10592932730fed,
        type: 3}
      propertyPath: m_LocalPosition.y
      value: 0
      objectReference: {fileID: 0}
    - target: {fileID: 1319880576138123670, guid: c78bcb0428524454fb10592932730fed,
        type: 3}
      propertyPath: m_LocalPosition.z
      value: 0
      objectReference: {fileID: 0}
    - target: {fileID: 1319880576138123670, guid: c78bcb0428524454fb10592932730fed,
        type: 3}
      propertyPath: m_LocalRotation.x
      value: 0
      objectReference: {fileID: 0}
    - target: {fileID: 1319880576138123670, guid: c78bcb0428524454fb10592932730fed,
        type: 3}
      propertyPath: m_LocalRotation.y
      value: 0
      objectReference: {fileID: 0}
    - target: {fileID: 1319880576138123670, guid: c78bcb0428524454fb10592932730fed,
        type: 3}
      propertyPath: m_LocalRotation.z
      value: 0
      objectReference: {fileID: 0}
    - target: {fileID: 1319880576138123670, guid: c78bcb0428524454fb10592932730fed,
        type: 3}
      propertyPath: m_LocalRotation.w
      value: 1
      objectReference: {fileID: 0}
    - target: {fileID: 1319880576138123670, guid: c78bcb0428524454fb10592932730fed,
        type: 3}
      propertyPath: m_RootOrder
      value: 1
      objectReference: {fileID: 0}
    - target: {fileID: 1319880576138123670, guid: c78bcb0428524454fb10592932730fed,
        type: 3}
      propertyPath: m_LocalEulerAnglesHint.x
      value: 0
      objectReference: {fileID: 0}
    - target: {fileID: 1319880576138123670, guid: c78bcb0428524454fb10592932730fed,
        type: 3}
      propertyPath: m_LocalEulerAnglesHint.y
      value: 0
      objectReference: {fileID: 0}
    - target: {fileID: 1319880576138123670, guid: c78bcb0428524454fb10592932730fed,
        type: 3}
      propertyPath: m_LocalEulerAnglesHint.z
      value: 0
      objectReference: {fileID: 0}
    m_RemovedComponents: []
  m_SourcePrefab: {fileID: 100100000, guid: c78bcb0428524454fb10592932730fed, type: 3}
