%YAML 1.1
%TAG !u! tag:unity3d.com,2011:
--- !u!1 &6971464395689534346
GameObject:
  m_ObjectHideFlags: 0
  m_CorrespondingSourceObject: {fileID: 0}
  m_PrefabInstance: {fileID: 0}
  m_PrefabAsset: {fileID: 0}
  serializedVersion: 6
  m_Component:
  - component: {fileID: 6971464395689534345}
  m_Layer: 0
  m_Name: asteroid_big
  m_TagString: Untagged
  m_Icon: {fileID: 0}
  m_NavMeshLayer: 0
  m_StaticEditorFlags: 0
  m_IsActive: 1
--- !u!4 &6971464395689534345
Transform:
  m_ObjectHideFlags: 0
  m_CorrespondingSourceObject: {fileID: 0}
  m_PrefabInstance: {fileID: 0}
  m_PrefabAsset: {fileID: 0}
  m_GameObject: {fileID: 6971464395689534346}
  m_LocalRotation: {x: -0, y: -0, z: -0.0000000018626449, w: 1}
  m_LocalPosition: {x: -10.8230295, y: 8.307263, z: 18.251556}
  m_LocalScale: {x: 4, y: 4, z: 4}
  m_Children:
  - {fileID: 6971464394761203381}
  m_Father: {fileID: 0}
  m_RootOrder: 0
  m_LocalEulerAnglesHint: {x: 0, y: 0, z: 0}
--- !u!1001 &6971464394760811573
PrefabInstance:
  m_ObjectHideFlags: 0
  serializedVersion: 2
  m_Modification:
    m_TransformParent: {fileID: 6971464395689534345}
    m_Modifications:
    - target: {fileID: 100000, guid: f4425e8d34908de459d253fd03600568, type: 3}
      propertyPath: m_Name
      value: rock1_v4 (1)
      objectReference: {fileID: 0}
    - target: {fileID: 400000, guid: f4425e8d34908de459d253fd03600568, type: 3}
      propertyPath: m_LocalPosition.x
      value: 0
      objectReference: {fileID: 0}
    - target: {fileID: 400000, guid: f4425e8d34908de459d253fd03600568, type: 3}
      propertyPath: m_LocalPosition.y
      value: 0
      objectReference: {fileID: 0}
    - target: {fileID: 400000, guid: f4425e8d34908de459d253fd03600568, type: 3}
      propertyPath: m_LocalPosition.z
      value: 0
      objectReference: {fileID: 0}
    - target: {fileID: 400000, guid: f4425e8d34908de459d253fd03600568, type: 3}
      propertyPath: m_LocalRotation.x
      value: 0
      objectReference: {fileID: 0}
    - target: {fileID: 400000, guid: f4425e8d34908de459d253fd03600568, type: 3}
      propertyPath: m_LocalRotation.y
      value: 0
      objectReference: {fileID: 0}
    - target: {fileID: 400000, guid: f4425e8d34908de459d253fd03600568, type: 3}
      propertyPath: m_LocalRotation.z
      value: 0
      objectReference: {fileID: 0}
    - target: {fileID: 400000, guid: f4425e8d34908de459d253fd03600568, type: 3}
      propertyPath: m_LocalRotation.w
      value: 1
      objectReference: {fileID: 0}
    - target: {fileID: 400000, guid: f4425e8d34908de459d253fd03600568, type: 3}
      propertyPath: m_RootOrder
      value: 0
      objectReference: {fileID: 0}
    - target: {fileID: 400000, guid: f4425e8d34908de459d253fd03600568, type: 3}
      propertyPath: m_LocalEulerAnglesHint.x
      value: 0
      objectReference: {fileID: 0}
    - target: {fileID: 400000, guid: f4425e8d34908de459d253fd03600568, type: 3}
      propertyPath: m_LocalEulerAnglesHint.y
      value: 0
      objectReference: {fileID: 0}
    - target: {fileID: 400000, guid: f4425e8d34908de459d253fd03600568, type: 3}
      propertyPath: m_LocalEulerAnglesHint.z
      value: 0
      objectReference: {fileID: 0}
    - target: {fileID: 400000, guid: f4425e8d34908de459d253fd03600568, type: 3}
      propertyPath: m_LocalScale.x
      value: 1
      objectReference: {fileID: 0}
    - target: {fileID: 400000, guid: f4425e8d34908de459d253fd03600568, type: 3}
      propertyPath: m_LocalScale.y
      value: 1
      objectReference: {fileID: 0}
    - target: {fileID: 400000, guid: f4425e8d34908de459d253fd03600568, type: 3}
      propertyPath: m_LocalScale.z
      value: 1
      objectReference: {fileID: 0}
    - target: {fileID: 2300000, guid: f4425e8d34908de459d253fd03600568, type: 3}
      propertyPath: m_Materials.Array.data[0]
      value: 
      objectReference: {fileID: 2100000, guid: 81efb89bf504e2c45a4fc338a22e8d73, type: 2}
    m_RemovedComponents: []
  m_SourcePrefab: {fileID: 100100000, guid: f4425e8d34908de459d253fd03600568, type: 3}
--- !u!4 &6971464394761203381 stripped
Transform:
  m_CorrespondingSourceObject: {fileID: 400000, guid: f4425e8d34908de459d253fd03600568,
    type: 3}
  m_PrefabInstance: {fileID: 6971464394760811573}
  m_PrefabAsset: {fileID: 0}
